﻿


EVENT   1
 PAGE   1
  281(1)
  250(bytes(0x04,0x08,0x6f,0x3a,0x0c,0x52,0x50,0x47,0x3a,0x3a,0x53,0x45,0x08,0x3a,0x0a,0x40,0x6e,0x61,0x6d,0x65,0x49,0x22,0x09,0x4d,0x6f,0x76,0x65,0x06,0x3a,0x06,0x45,0x54,0x3a,0x0b,0x40,0x70,0x69,0x74,0x63,0x68,0x69,0x69,0x3a,0x0c,0x40,0x76,0x6f,0x6c,0x75,0x6d,0x65,0x69,0x55))
  TeleportPlayer(0,13,6,11,0,0)
  0()



EVENT   2
 PAGE   1
  281(1)
  250(bytes(0x04,0x08,0x6f,0x3a,0x0c,0x52,0x50,0x47,0x3a,0x3a,0x53,0x45,0x08,0x3a,0x0a,0x40,0x6e,0x61,0x6d,0x65,0x49,0x22,0x09,0x4d,0x6f,0x76,0x65,0x06,0x3a,0x06,0x45,0x54,0x3a,0x0b,0x40,0x70,0x69,0x74,0x63,0x68,0x69,0x69,0x3a,0x0c,0x40,0x76,0x6f,0x6c,0x75,0x6d,0x65,0x69,0x55))
  TeleportPlayer(0,13,17,7,0,0)
  0()



EVENT   3
 PAGE   1
  281(1)
  250(bytes(0x04,0x08,0x6f,0x3a,0x0c,0x52,0x50,0x47,0x3a,0x3a,0x53,0x45,0x08,0x3a,0x0a,0x40,0x6e,0x61,0x6d,0x65,0x49,0x22,0x09,0x4d,0x6f,0x76,0x65,0x06,0x3a,0x06,0x45,0x54,0x3a,0x0b,0x40,0x70,0x69,0x74,0x63,0x68,0x69,0x69,0x3a,0x0c,0x40,0x76,0x6f,0x6c,0x75,0x6d,0x65,0x69,0x55))
  TeleportPlayer(0,13,30,6,0,0)
  0()



EVENT   4
 PAGE   1
  281(1)
  250(bytes(0x04,0x08,0x6f,0x3a,0x0c,0x52,0x50,0x47,0x3a,0x3a,0x53,0x45,0x08,0x3a,0x0a,0x40,0x6e,0x61,0x6d,0x65,0x49,0x22,0x09,0x4d,0x6f,0x76,0x65,0x06,0x3a,0x06,0x45,0x54,0x3a,0x0b,0x40,0x70,0x69,0x74,0x63,0x68,0x69,0x69,0x3a,0x0c,0x40,0x76,0x6f,0x6c,0x75,0x6d,0x65,0x69,0x55))
  TeleportPlayer(0,13,31,12,0,0)
  0()



EVENT   5
 PAGE   1
  281(1)
  250(bytes(0x04,0x08,0x6f,0x3a,0x0c,0x52,0x50,0x47,0x3a,0x3a,0x53,0x45,0x08,0x3a,0x0a,0x40,0x6e,0x61,0x6d,0x65,0x49,0x22,0x09,0x4d,0x6f,0x76,0x65,0x06,0x3a,0x06,0x45,0x54,0x3a,0x0b,0x40,0x70,0x69,0x74,0x63,0x68,0x69,0x69,0x3a,0x0c,0x40,0x76,0x6f,0x6c,0x75,0x6d,0x65,0x69,0x55))
  TeleportPlayer(0,13,20,21,0,0)
  0()



EVENT   6
 PAGE   1
  281(1)
  250(bytes(0x04,0x08,0x6f,0x3a,0x0c,0x52,0x50,0x47,0x3a,0x3a,0x53,0x45,0x08,0x3a,0x0a,0x40,0x6e,0x61,0x6d,0x65,0x49,0x22,0x09,0x4d,0x6f,0x76,0x65,0x06,0x3a,0x06,0x45,0x54,0x3a,0x0b,0x40,0x70,0x69,0x74,0x63,0x68,0x69,0x69,0x3a,0x0c,0x40,0x76,0x6f,0x6c,0x75,0x6d,0x65,0x69,0x55))
  TeleportPlayer(0,13,42,5,0,0)
  0()



EVENT   7
 PAGE   1
  250(bytes(0x04,0x08,0x6f,0x3a,0x0c,0x52,0x50,0x47,0x3a,0x3a,0x53,0x45,0x08,0x3a,0x0a,0x40,0x6e,0x61,0x6d,0x65,0x49,0x22,0x09,0x4d,0x6f,0x76,0x65,0x06,0x3a,0x06,0x45,0x54,0x3a,0x0b,0x40,0x70,0x69,0x74,0x63,0x68,0x69,0x69,0x3a,0x0c,0x40,0x76,0x6f,0x6c,0x75,0x6d,0x65,0x69,0x55))
  TeleportPlayer(0,219,78,45,2,0)
  0()



EVENT   8
 PAGE   1
  250(bytes(0x04,0x08,0x6f,0x3a,0x0c,0x52,0x50,0x47,0x3a,0x3a,0x53,0x45,0x08,0x3a,0x0a,0x40,0x6e,0x61,0x6d,0x65,0x49,0x22,0x09,0x4d,0x6f,0x76,0x65,0x06,0x3a,0x06,0x45,0x54,0x3a,0x0b,0x40,0x70,0x69,0x74,0x63,0x68,0x69,0x69,0x3a,0x0c,0x40,0x76,0x6f,0x6c,0x75,0x6d,0x65,0x69,0x55))
  TeleportPlayer(0,219,78,19,2,0)
  0()



EVENT   9
 PAGE   1
  281(1)
  250(bytes(0x04,0x08,0x6f,0x3a,0x0c,0x52,0x50,0x47,0x3a,0x3a,0x53,0x45,0x08,0x3a,0x0a,0x40,0x6e,0x61,0x6d,0x65,0x49,0x22,0x09,0x4d,0x6f,0x76,0x65,0x06,0x3a,0x06,0x45,0x54,0x3a,0x0b,0x40,0x70,0x69,0x74,0x63,0x68,0x69,0x69,0x3a,0x0c,0x40,0x76,0x6f,0x6c,0x75,0x6d,0x65,0x69,0x55))
  TeleportPlayer(0,13,58,7,0,0)
  0()



EVENT   10
 PAGE   1
  281(1)
  250(bytes(0x04,0x08,0x6f,0x3a,0x0c,0x52,0x50,0x47,0x3a,0x3a,0x53,0x45,0x08,0x3a,0x0a,0x40,0x6e,0x61,0x6d,0x65,0x49,0x22,0x09,0x4d,0x6f,0x76,0x65,0x06,0x3a,0x06,0x45,0x54,0x3a,0x0b,0x40,0x70,0x69,0x74,0x63,0x68,0x69,0x69,0x3a,0x0c,0x40,0x76,0x6f,0x6c,0x75,0x6d,0x65,0x69,0x55))
  TeleportPlayer(0,13,58,21,0,0)
  0()



EVENT   11
 PAGE   1
  281(1)
  250(bytes(0x04,0x08,0x6f,0x3a,0x0c,0x52,0x50,0x47,0x3a,0x3a,0x53,0x45,0x08,0x3a,0x0a,0x40,0x6e,0x61,0x6d,0x65,0x49,0x22,0x09,0x4d,0x6f,0x76,0x65,0x06,0x3a,0x06,0x45,0x54,0x3a,0x0b,0x40,0x70,0x69,0x74,0x63,0x68,0x69,0x69,0x3a,0x0c,0x40,0x76,0x6f,0x6c,0x75,0x6d,0x65,0x69,0x55))
  TeleportPlayer(0,13,52,23,0,0)
  0()



EVENT   12
 PAGE   1
  281(1)
  250(bytes(0x04,0x08,0x6f,0x3a,0x0c,0x52,0x50,0x47,0x3a,0x3a,0x53,0x45,0x08,0x3a,0x0a,0x40,0x6e,0x61,0x6d,0x65,0x49,0x22,0x09,0x4d,0x6f,0x76,0x65,0x06,0x3a,0x06,0x45,0x54,0x3a,0x0b,0x40,0x70,0x69,0x74,0x63,0x68,0x69,0x69,0x3a,0x0c,0x40,0x76,0x6f,0x6c,0x75,0x6d,0x65,0x69,0x55))
  TeleportPlayer(0,13,54,16,0,0)
  0()



EVENT   13
 PAGE   1
  ShowMessageFace("",0,0,2,1)
  ShowMessage("\\n<Man>If you're traveling to Sabasa, this is the last place you can equip yourselves. Come, prepare yourself well.")
  ShowChoices(strings("Purchase equipment","Synthesis","Do nothing"),3)
  IfPlayerPicksChoice(0,null)
   Shop(1,11,0,0,false)
   605(1,91,0,0)
   605(1,211,0,0)
   605(1,300,0,0)
   605(1,369,0,0)
   605(1,409,0,0)
   605(1,670,0,0)
   605(2,1090,0,0)
   605(2,1149,0,0)
   0()
  IfPlayerPicksChoice(1,null)
   355("call_synthesize(10)")
   0()
  IfPlayerPicksChoice(2,null)
   0()
  404()
  0()



EVENT   15
 PAGE   1
  ShowMessageFace("",0,0,2,1)
  ShowMessage("\\n<Master>Welcome to Outskirts' Tavern. Well, have a drink...")
  Shop(0,428,0,0,false)
  605(0,431,0,0)
  0()



EVENT   19
 PAGE   1
  ShowMessageFace("",0,0,2,1)
  ShowMessage("\\n<Mage>It's good to have one Time Mage in the party. They seem plain because they acquire support skills but...")
  ShowMessageFace("",0,0,2,2)
  ShowMessage("\\n<Mage>The Time Mage can use many things that work on bosses. They're great help when fighting against powerful enemies.")
  355("actor_label_jump")
  EndEventProcessing()
  DefineLabel("104")
  ShowMessageFace("kumo_fc1",0,0,2,3)
  ShowMessage("\\n<Rachnee>Arachne's specialize in Time Magic... make sure to use it effectively.")
  EndEventProcessing()
  0()



EVENT   20
 PAGE   1
  ShowMessageFace("",0,0,2,1)
  ShowMessage("\\n<Thief>Actually, there are two types of items you can steal from monsters. Normal items and rare items.")
  ShowMessageFace("",0,0,2,2)
  ShowMessage("\\n<Thief>Of course, the chance of stealing a rare item is low. You'll be lucky if you manage to steal one.")
  355("actor_label_jump")
  EndEventProcessing()
  DefineLabel("169")
  ShowMessageFace("lizardthief_fc1",0,0,2,3)
  ShowMessage("\\n<Liru>Of course, I aim for the rares!")
  EndEventProcessing()
  0()



EVENT   21
 PAGE   1
  If(1,1027,0,0,0)
   ChangeVariable(1027,1027,0,0,1)
   0()
  EndIf()
  ShowMessageFace("",0,0,2,1)
  ShowMessage("\\n<Soldier>Some distance ahead of here in Southwest direction... beyond the wasteland and near Sabasa's region there's a small fishing village.")
  ShowMessageFace("",0,0,2,2)
  ShowMessage("\\n<Soldier>It's called Rubiana Village, but... it's uninhabited now. What's eerie about it, is that all residents disappeared overnight.")
  ShowMessageFace("",0,0,2,3)
  ShowMessage("\\n<Soldier>Even now no one knows what happened... even as world is riddled with anomalies, that's one of the top mysteries.")
  355("actor_label_jump")
  EndEventProcessing()
  DefineLabel("68")
  ShowMessageFace("dragonp_fc1",5,0,2,4)
  ShowMessage("\\n<Papi>That's scary!")
  EndEventProcessing()
  DefineLabel("80")
  ShowMessageFace("orc_fc1",0,0,2,5)
  ShowMessage("\\n<Hip>Maybe a group of Orcs was there... not happening, right.")
  EndEventProcessing()
  DefineLabel("121")
  ShowMessageFace("page65537_fc1",0,0,2,6)
  ShowMessage("\\n<Cornelia>How enigmatic... we should find what is the cause of that.")
  EndEventProcessing()
  0()



EVENT   22
 PAGE   1
  If(1,1027,0,0,0)
   ChangeVariable(1027,1027,0,0,1)
   0()
  EndIf()
  ShowMessageFace("",0,0,2,1)
  ShowMessage("\\n<Gruff Man>We have gone to Rubiana a few weeks ago but... aside from small expedition from Sabasa, it was completely empty.")
  ShowMessageFace("",0,0,2,2)
  ShowMessage("\\n<Gruff Man>Honestly, it was quite creepy... there was no proof of any violence, I wonder what does this mean.")
  355("actor_label_jump")
  EndEventProcessing()
  DefineLabel("83")
  ShowMessageFace("hapy_a_fc1",2,0,2,3)
  ShowMessage("\\n<Reina>Maybe just like in our case, they went somewhere by themselves...")
  ShowMessageFace("",0,0,2,4)
  ShowMessage("\\n<Gruff Man>Rubiana's villagers were normal humans, they didn't have any wings y'know? Then overnight, they disappeared without anyone seeing them.")
  EndEventProcessing()
  DefineLabel("136")
  ShowMessageFace("elf_fc1",0,0,2,5)
  ShowMessage("\\n<Claudia>And there's not a single evidence of combat inside the village, is there... that's impossible even for monsters that don't leave corpses behind them.")
  EndEventProcessing()
  0()



EVENT   23
 PAGE   1
  ShowMessageFace("",0,0,2,1)
  ShowMessage("\\n<Thief>Heck, why doesn't this inn have a lobby?! Why do we have to chat in a place like this, the hell's this, a pajama party?!")
  ShowMessageFace("",0,0,2,2)
  ShowMessage("\\n<Thief>...honestly speaking, it's kinda fun.")
  355("actor_label_jump")
  EndEventProcessing()
  DefineLabel("103")
  ShowMessageFace("kamuro_fc1",0,0,2,3)
  ShowMessage("\\n<Kamuro>Reminds me of a field trip in fox village...")
  EndEventProcessing()
  DefineLabel("139")
  ShowMessageFace("fairys_fc1",3,0,2,4)
  ShowMessage("\\n<Fairies>It's fuun♪　we want to join iiin♪.")
  EndEventProcessing()
  0()



EVENT   24
 PAGE   1
  ShowMessageFace("",0,0,2,1)
  ShowMessage("\\n<Sleazy Man>These are Elka Company's supplies. Try stealing them and you won't get off easily...")
  355("actor_label_jump")
  EndEventProcessing()
  DefineLabel("92")
  ShowMessageFace("eater_fc1",0,0,2,2)
  ShowMessage("\\n<Eater>I can't eat them? They look delicious...")
  ShowMessageFace("",0,0,2,3)
  ShowMessage("\\n<Sleazy Man>I told you, don't... heck, where are you looking at? Eh, ME?!")
  EndEventProcessing()
  DefineLabel("136")
  ShowMessageFace("elf_fc1",0,0,2,4)
  ShowMessage("\\n<Claudia>I won't... unlike you, I'm not a thief.")
  EndEventProcessing()
  0()



EVENT   25
 PAGE   1
  If(1,1027,0,0,0)
   ChangeVariable(1027,1027,0,0,1)
   0()
  EndIf()
  ShowMessageFace("",0,0,2,1)
  ShowMessage("\\n<Gruff Man>The disappearance case of Rubiana's residents... I tell you, there was absolutely no evidence of any fighting in there.")
  ShowMessageFace("",0,0,2,2)
  ShowMessage("\\n<Gruff Man>Which means they must have left by themselves... but why? And, where to?")
  ShowMessageFace("",0,0,2,3)
  ShowMessage("\\n<Gruff Man>No matter how you cut it, it were entire village's residents. If such a large group moved, they would definitely be seen.")
  ShowMessageFace("",0,0,2,4)
  ShowMessage("\\n<Gruff Man>Adventurers and merchants in the surrounding area didn't see any group like that. They vanished like smoke...")
  355("actor_label_jump")
  EndEventProcessing()
  DefineLabel("56")
  ShowMessageFace("inp_fc1",2,0,2,5)
  ShowMessage("\\n<Rami>So scaryyy!　Let's sleep together with Rumi-chan tonight...")
  EndEventProcessing()
  DefineLabel("12")
  ShowMessageFace("sylph_fc1",4,0,2,6)
  ShowMessage("\\n<Sylph>That's a scary incident...")
  EndEventProcessing()
  0()



EVENT   26
 PAGE   1
  ShowMessageFace("",0,0,2,1)
  ShowMessage("\\n<Mage>There are wastelands spreading Southwest of here... in the center of it, there's a mountain range.")
  ShowMessageFace("",0,0,2,2)
  ShowMessage("\\n<Mage>Actually, there is highland in the central part of it. On it, there are plains surrounded by the mountains.")
  ShowMessageFace("",0,0,2,3)
  ShowMessage("\\n<Mage>In the center of that highland stands a strange tower... apparently a powerful youma who doesn't match this area comes in and out of it.")
  ShowMessageFace("",0,0,2,4)
  ShowMessage("\\n<Mage>How to get to that tower? There's a cave in the Southern part of the mountain range, you can go to the highland through there.")
  355("actor_label_jump")
  EndEventProcessing()
  DefineLabel("134")
  ShowMessageFace("chrom_fc2",5,0,2,5)
  ShowMessage("\\n<Chrome>Puppeteer's Tower, huh... I don't specialize myself in puppets so I don't care.")
  ShowMessageFace("chrom_fc1",5,0,2,6)
  ShowMessage("\\n<Chrome>...I-it's not like I'm afraid of Kagetsumugi.。")
  EndEventProcessing()
  0()



EVENT   27
 PAGE   1
  ShowMessageFace("",0,0,2,1)
  ShowMessage("\\n<Female Priest>About the tower in the center of the mountain plateau's highlands to the Southwest... according to books, it's called 'Puppeteers Tower'.")
  ShowMessageFace("",0,0,2,2)
  ShowMessage("\\n<Female Priest>Also, the cave in the Southern part of the mountain range is also mentioned... it's called 'Seekers' Cave'.")
  ShowMessageFace("",0,0,2,3)
  ShowMessage("\\n<Female Priest>Apparently it's a place for Spiritualists to train in. I have seen a youma with a wind-up doll's crest before.")
  If(8,518)
   EndEventProcessing()
   0()
  Else()
   If(1,1023,0,2,0)
    If(1,1026,0,0,0)
     ChangeVariable(1026,1026,0,0,1)
     ShowMessageFace("ruka_fc1",0,0,2,4)
     ShowMessage("\\n<Luka>You saw a puppeteer...? It's a clue to finding the Magical Thread Chrome asked us for.")
     EndEventProcessing()
     0()
    EndIf()
    0()
   EndIf()
   0()
  EndIf()
  0()



EVENT   29
 PAGE   1
  ShowMessageFace("",0,0,2,1)
  ShowMessage("\\n<Craftsman>Apparently a succubus settled in on Carlos Hill and lives there. Since she's here I could get it on with her...")
  355("actor_label_jump")
  EndEventProcessing()
  DefineLabel("143")
  ShowMessageFace("eva_fc1",0,0,2,2)
  ShowMessage("\\n<Eva>I'm not hungry now. How about next time...?")
  EndEventProcessing()
  0()



EVENT   30
 PAGE   1
  ShowMessageFace("",0,0,2,1)
  ShowMessage("\\n<Middle-Aged Man>No matter how much I work, my life doesn't get easier. As I stare at my hand... my enthusiasm fades...")
  ShowMessageFace("",0,0,2,2)
  ShowMessage("\\n<Middle-Aged Man>I'm drained from working all day...")
  355("actor_label_jump")
  EndEventProcessing()
  DefineLabel("98")
  ShowMessageFace("minikani_fc1",0,0,2,3)
  ShowMessage("\\n<Amy>...in crabby mood?")
  EndEventProcessing()
  DefineLabel("109")
  ShowMessageFace("kani_fc1",0,0,2,4)
  ShowMessage("\\n<Soapy>Want me to wash you...?")
  EndEventProcessing()
  0()



EVENT   31
 PAGE   1
  ShowMessageFace("",0,0,2,1)
  ShowMessage("\\n<Woman>If anything, Elka Company is keeping this town secure. If they disappeared, the thugs would go on complete rampage.")
  ShowMessageFace("",0,0,2,2)
  ShowMessage("\\n<Woman>That Aizer whatever woman... if anything, she's disturbing the town's peace.")
  355("actor_label_jump")
  EndEventProcessing()
  DefineLabel("540")
  ShowMessageFace("amira_fc1",0,0,2,3)
  ShowMessage("\\n<Amira>I see, so opinions vary...")
  EndEventProcessing()
  0()



EVENT   32
 PAGE   1
  ShowMessageFace("",0,0,2,1)
  ShowMessage("\\n<Man>Every summer I went fishing on boat in Rubiana... what am I gonna do this year?")
  ShowMessageFace("",0,0,2,2)
  ShowMessage("\\n<Man>Everyone from the same fishing boat disappeared... they were rough people, but also simple and deeply faithful, it was a good bunch y'know?")
  355("actor_label_jump")
  EndEventProcessing()
  DefineLabel("82")
  ShowMessageFace("suzume_fc1",2,0,2,3)
  ShowMessage("\\n<Chirp>It must be hard for you to have lost your comrades...")
  EndEventProcessing()
  DefineLabel("118")
  ShowMessageFace("meia_fc1",3,0,2,4)
  ShowMessage("\\n<Meia>Hearing of fishermen disappearing bad memories resurface... this time I'm innocent, I swear.")
  EndEventProcessing()
  0()



EVENT   34
 PAGE   1
  ShowMessageFace("",0,0,2,1)
  ShowMessage("\\n<Soldier>The guy beside me sure is something to sleep in a bed like this. Damn, the floor is hard and my back hurts...")
  355("actor_label_jump")
  EndEventProcessing()
  DefineLabel("112")
  ShowMessageFace("utubo_fc1",0,0,2,2)
  ShowMessage("\\n<Kazura>Look, I have very comfortable sleeping bag here...")
  EndEventProcessing()
  DefineLabel("147")
  ShowMessageFace("saboten_fc1",0,0,2,3)
  ShowMessage("\\n<Casta>If I were to sleep in a poor inn like this... I'd rather let them put me in a flower pot.")
  EndEventProcessing()
  0()



EVENT   33
 PAGE   1
  ShowMessageFace("",0,0,2,1)
  ShowMessage("\\n<Soldier>Zzz...Zzz...")
  0()



EVENT   35
 PAGE   1
  ShowMessageFace("",0,0,2,1)
  ShowMessage("\\n<Old Soldier>If you're going to Sabasa, you need to pass through the highlands and the desert... in the highlands you just have to stick to the road until you reach Rubiana.")
  ShowMessageFace("",0,0,2,2)
  ShowMessage("\\n<Old Soldier>The desert that starts from thereon is troublesome... my old bones aren't up for it any more.")
  355("actor_label_jump")
  EndEventProcessing()
  DefineLabel("99")
  ShowMessageFace("namazu_fc1",2,0,2,3)
  ShowMessage("\\n<Gigi>Old bones are still on the better side, my moist skin isn't up for that... catfish aren't supposed to be on desert.")
  EndEventProcessing()
  DefineLabel("101")
  ShowMessageFace("cent2_fc1",0,0,2,4)
  ShowMessage("\\n<Lihitinu>It should be all right with my legs... probably.")
  EndEventProcessing()
  0()



EVENT   16
 PAGE   1
  ShowMessageFace("Actor4",2,0,2,1)
  ShowMessage("\\n<Terence>Mmm... Main Gauche you say?")
  ShowMessageFace("Actor4",0,0,2,2)
  ShowMessage("\\n<Eric>You know of it, Terence?!")
  ShowMessageFace("Actor4",2,0,2,3)
  ShowMessage("\\n<Terence>It has a special structure allowing it to receive enemy's attacks, a valuable dagger increasing your evasion rate... that's Main Gauche.")
  ShowMessageFace("Actor4",2,0,2,4)
  ShowMessage("\\n<Terence>However, their crafting process is lost now and they're no longer for sale. If you get one, you better take care of it.")
  ShowMessageFace("Actor4",2,0,2,5)
  ShowMessage("\\n<Terence>Take note of it when you go to the blacksmith with materials. If remodelled, this weapon can become very powerful...")
  ShowMessageFace("Actor4",2,0,2,6)
  ShowMessage("\\n<Terence>I heard it can be improved by filling with power of wind or poisoned. Depending on whether you choose wind or poison, the final form of the weapon will be decided.")
  ShowMessageFace("Actor4",2,0,2,7)
  ShowMessage("\\n<Terence>Apparently you can fill it with power of wind in this shop but... if you do that, the path to improving with poison will be closed.")
  ShowMessageFace("Actor4",2,0,2,8)
  ShowMessage("\\n<Terence>You need to think whether you want to synthesize Main Gauche here. Think of the final form when you're deciding whether to synthesize it.")
  ShowMessageFace("Actor4",2,0,2,9)
  ShowMessage("\\n<Terence>By the way, this is only for reference but... against evil enemies wind is better and against holy enemies, poison would be better.")
  ShowMessageFace("Actor4",0,0,2,10)
  ShowMessage("\\n<Eric>All right, I'll synthesize it after thinking about it well! ...but, we don't have a Main Gauche!")
  ShowMessageFace("Actor4",2,0,2,11)
  ShowMessage("\\n<Terence>A few hundreds years ago they were rare and valuable. At the time, many skilled warriors had them.")
  ShowMessageFace("Actor4",2,0,2,12)
  ShowMessage("\\n<Terence>These warriors are either in their graves... or are still walking on this world, embracing their regrets.")
  355("actor_label_jump")
  EndEventProcessing()
  DefineLabel("95")
  ShowMessageFace("delh_a_fc1",0,0,2,13)
  ShowMessage("\\n<Lona>I'm on the younger side among elves so... unfortunately, I don't know about any.")
  EndEventProcessing()
  DefineLabel("132")
  ShowMessageFace("zonbe_fc2",0,0,2,14)
  ShowMessage("\\n<Eri>......")
  EndEventProcessing()
  0()



EVENT   17
 PAGE   1
  ShowMessageFace("",0,0,2,1)
  ShowMessage("\\n<Soldier>This shop is quite messy... well, the quality isn't a problem.")
  355("actor_label_jump")
  EndEventProcessing()
  DefineLabel("66")
  ShowMessageFace("vgirl_fc1",0,0,2,2)
  ShowMessage("\\n<Vanilla>Still, it's not one I want to take example from...")
  EndEventProcessing()
  DefineLabel("125")
  ShowMessageFace("grizzly_fc1",0,0,2,3)
  ShowMessage("\\n<Aisha>Why is it so messy? Did a bear rampage in here?")
  EndEventProcessing()
  0()



EVENT   36
 PAGE   1
  ShowMessageFace("",0,0,2,1)
  ShowMessage("\\n<Soldier>When you receive Berserk status, you won't accept leader's instructions.")
  ShowMessageFace("",0,0,2,2)
  ShowMessage("\\n<Soldier>With that said, you won't attack allies. You will only attack enemies so there's no need to worry about that.")
  ShowMessageFace("",0,0,2,3)
  ShowMessage("\\n<Soldier>Also, when you're in berserk your Attack increases. It's not just disadvantages, it also has its advantage.")
  ShowMessageFace("",0,0,2,4)
  ShowMessage("\\n<Soldier>The 'Reckless Mask' sold in this shop forces the wearer in to Berserk state. If you equip your comrades who boast of big strength with it, they might turn really powerful...")
  0()



EVENT   37
 PAGE   1
  ShowMessageFace("",0,0,2,1)
  ShowMessage("\\n<Villain>Did you know about the strange cosplay woman? Not only she's getting in my way, she's helluva strong...")
  ShowMessageFace("",0,0,2,2)
  ShowMessage("\\n<Villain>I feel like I'm getting hooked on getting beat up...")
  355("actor_label_jump")
  EndEventProcessing()
  DefineLabel("72")
  ShowMessageFace("phoenix_fc1",2,0,2,3)
  ShowMessage("\\n<Mini>He's a pervert!")
  EndEventProcessing()
  DefineLabel("125")
  ShowMessageFace("grizzly_fc1",0,0,2,4)
  ShowMessage("\\n<Aisha>You like being beat up? Then how about I help you out?")
  ShowMessageFace("",0,0,2,5)
  ShowMessage("\\n<Villain>I'll pass on getting ripped apart...")
  EndEventProcessing()
  0()



EVENT   38
 PAGE   1
  ShowMessageFace("",0,0,2,1)
  ShowMessage("\\n<Bunny>Uffuun... booy, wanna play with sis?")
  355("actor_label_jump")
  EndEventProcessing()
  DefineLabel("525")
  ShowMessageFace("sonia_fc1",5,0,2,2)
  ShowMessage("\\n<Sonya>Luka, don't you dare do anything with her!")
  EndEventProcessing()
  DefineLabel("75")
  ShowMessageFace("hituzi_fc1",3,0,2,3)
  ShowMessage("\\n<Mary>Uiii! I'll plaaay♪.")
  ShowMessageFace("",0,0,2,4)
  ShowMessage("\\n<Bunny>A-a sheep...? Even if you strip me of everything, you won't find any hair clippers...")
  EndEventProcessing()
  DefineLabel("103")
  ShowMessageFace("kamuro_fc1",0,0,2,5)
  ShowMessage("\\n<Kamuro>That's um... badger game? Eh, it's not...?")
  EndEventProcessing()
  0()



EVENT   39
 PAGE   1
  ShowMessageFace("",0,0,2,1)
  ShowMessage("\\n<Hooligan>Don't let yourself get seduced by that woman. The last guy who did is now lying outside the pub...")
  355("actor_label_jump")
  EndEventProcessing()
  DefineLabel("74")
  ShowMessageFace("usagi_fc1",2,0,2,2)
  ShowMessage("\\n<Barnny>What a silly thing, to allow himself be seduced by such a thing...")
  EndEventProcessing()
  DefineLabel("143")
  ShowMessageFace("eva_fc1",0,0,2,3)
  ShowMessage("\\n<Eva>That's a genius idea.")
  If(0,6,0)
   ShowMessageFace("sonia_fc1",5,0,2,4)
   ShowMessage("\\n<Sonya>No you won't.")
   0()
  EndIf()
  EndEventProcessing()
  0()



EVENT   40
 PAGE   1
  ShowMessageFace("",0,0,2,1)
  ShowMessage("\\n<Guard>This town is just a dirty slum. It's pointless to guard it...")
  ShowMessageFace("",0,0,2,2)
  ShowMessage("\\n<Guard>*gulp*gulp*... old man, one more!")
  0()



EVENT   41
 PAGE   1
  If(1,1028,0,7,2)
   ShowMessageFace("",0,0,2,1)
   ShowMessage("\\n<Man>The future of the Great War has become uncertain. Now that Sabasa has left the alliance, Grand Noah might be in real pinch.")
   0()
  EndIf()
  If(1,1028,0,8,1)
   ShowMessageFace("",0,0,2,2)
   ShowMessage("\\n<Man>Sabasa has returned to the alliance and the allied forces' momentum has returned... but it seems like the Great War will continue for some time.")
   0()
  EndIf()
  ShowMessageFace("",0,0,2,3)
  ShowMessage("\\n<Man>Well, if the war intensified, Elka Company will profit. I won't complain since it will revitalize this town.")
  355("actor_label_jump")
  EndEventProcessing()
  DefineLabel("121")
  ShowMessageFace("page65537_fc1",0,0,2,4)
  ShowMessage("\\n<Cornelia>Economy based on war is largely dependent on it... is what they say.")
  EndEventProcessing()
  DefineLabel("531")
  ShowMessageFace("saniria_fc2",0,0,2,5)
  ShowMessage("\\n<King of San Ilia>It's as if it roughens people's hearts... we need to end this war soon.")
  EndEventProcessing()
  0()



EVENT   43
 PAGE   1
  ShowMessageFace("",0,0,2,1)
  ShowMessage("\\n<Overly Drunk Man>Theahh... blaarghh...")
  355("actor_label_jump")
  EndEventProcessing()
  DefineLabel("74")
  ShowMessageFace("usagi_fc1",2,0,2,2)
  ShowMessage("\\n<Barnny>Oh dear, you'll catch a cold... why drunks always make it so much work?")
  EndEventProcessing()
  0()



EVENT   44
 PAGE   1
  ShowMessageFace("",0,0,2,1)
  ShowMessage("\\n<Inn>Want to stay...? 10G per night.\\$")
  ShowChoices(strings("Yes","No"),2)
  IfPlayerPicksChoice(0,null)
   If(7,10,0)
    125(1,0,10)
    221()
    249(bytes(0x04,0x08,0x6f,0x3a,0x0c,0x52,0x50,0x47,0x3a,0x3a,0x4d,0x45,0x08,0x3a,0x0a,0x40,0x6e,0x61,0x6d,0x65,0x49,0x22,0x08,0x49,0x6e,0x6e,0x06,0x3a,0x06,0x45,0x54,0x3a,0x0b,0x40,0x70,0x69,0x74,0x63,0x68,0x69,0x69,0x3a,0x0c,0x40,0x76,0x6f,0x6c,0x75,0x6d,0x65,0x69,0x69))
    Wait(150)
    314(0,0)
    222()
    0()
   Else()
    ShowMessageFace("",0,0,2,2)
    ShowMessage("\\n<Inn>You don't have enough money...")
    0()
   EndIf()
   0()
  IfPlayerPicksChoice(1,null)
   0()
  404()
  0()



EVENT   45
 PAGE   1
  ShowMessageFace("",0,0,2,1)
  ShowMessage("\\n<Man>I've been exiled from Sabasa. That country turned into a mess ever since the new Queen was crowned.")
  ShowMessageFace("",0,0,2,2)
  ShowMessage("\\n<Man>Those who try advise Queen Sarah are all exiled... the previous King of Sabasa must be in grief.")
  355("actor_label_jump")
  EndEventProcessing()
  DefineLabel("5")
  ShowMessageFace("alice_fc5",0,0,2,3)
  ShowMessage("\\n<Alice>Nothing good comes out of an unsuitable person taking the throne...")
  EndEventProcessing()
  DefineLabel("531")
  ShowMessageFace("saniria_fc2",0,0,2,4)
  ShowMessage("\\n<King of San Ilia>We have to go to Sabasa. You see, I made a promise to the previous King...")
  EndEventProcessing()
  0()
 PAGE   2
  // condition: variable 1028 >= 8
  0()



EVENT   46
 PAGE   1
  ShowMessageFace("",0,0,2,1)
  ShowMessage("\\n<Middle-Aged Man>About the war between Grangold and the alliance... it must be Elka Company that's manipulating it from behind the scenes.")
  ShowMessageFace("",0,0,2,2)
  ShowMessage("\\n<Middle-Aged Man>I mean, do you know how much has the company profited from this war? I'm sure they're the masterminds behind it!")
  0()



EVENT   47
 PAGE   1
  ShowMessageFace("",0,0,2,1)
  ShowMessage("\\n<Soldier>A skilled Informant is running his stall in the town's Southern part. You should notice it right away, it's next to tool shop.")
  355("actor_label_jump")
  EndEventProcessing()
  DefineLabel("540")
  ShowMessageFace("amira_fc1",0,0,2,2)
  ShowMessage("\\n<Amira>There's no better Informant than me... when it comes to impactful appearance, that is.")
  EndEventProcessing()
  0()



EVENT   48
 PAGE   1
  // condition: variable 1024 >= 3
  ChangeSelfSwitch("A",0)
  ShowMessageFace("",0,0,2,1)
  ShowMessage("\\n<Elka>To think Lazarus' family would come... is he still wrecking his body with alcohol...?")
  ShowMessageFace("",0,0,2,2)
  ShowMessage("\\n<Elka>It can't be helped since Lazarus asks me to. I'll help you out...")
  ShowMessageFace("",0,0,2,3)
  ShowMessage("\\n<Elka>You wanted information, right. We have many Adventurers scouting, so we hear some things.")
  ShowMessageFace("",0,0,2,4)
  ShowMessage("\\n<Elka>But I'll tell you nothing that concerns Lazarus. He emphasized on it with 'don't tell them anything needless' y'know... ")
  If(0,6,0)
   ShowMessageFace("sonia_fc1",5,0,2,5)
   ShowMessage("\\n<Sonya>......")
   0()
  EndIf()
  ShowMessageFace("",0,0,2,6)
  ShowMessage("\\n<Elka>Also, take this. It might come handy.")
  250(bytes(0x04,0x08,0x6f,0x3a,0x0c,0x52,0x50,0x47,0x3a,0x3a,0x53,0x45,0x08,0x3a,0x0a,0x40,0x6e,0x61,0x6d,0x65,0x49,0x22,0x0a,0x49,0x74,0x65,0x6d,0x31,0x06,0x3a,0x06,0x45,0x54,0x3a,0x0b,0x40,0x70,0x69,0x74,0x63,0x68,0x69,0x69,0x3a,0x0c,0x40,0x76,0x6f,0x6c,0x75,0x6d,0x65,0x69,0x55))
  ChangeInventoryWeapon(91,0,0,1,false)
  ChangeInventoryArmor(37,0,0,1,false)
  ChangeInventory_Item(32,0,0,1)
  ShowMessageFace("",0,0,2,7)
  ShowMessage("\\n<Elka>Speak with those guys there if you want information. I'll tell them to cooperate with you.")
  ShowMessageFace("",0,0,2,8)
  ShowMessage("\\n<Elka>Still, there's no information on Marcellus or the White Rabbit. Marcellus used to be a renowned hero, but now his whereabouts are unknown.")
  ShowMessageFace("",0,0,2,9)
  ShowMessage("\\n<Elka>Even the fact he went on another journey is something I heard from Lazarus. I have no clue where he's been...")
  0()
 PAGE   2
  // condition: self-switch A is ON
  0()



EVENT   50
 PAGE   1
  ShowMessageFace("",0,0,2,1)
  ShowMessage("\\n<Youth>When I was attacked by thugs a hero saved me. Amazing right, I look up to her...")
  0()



EVENT   51
 PAGE   1
  ShowMessageFace("",0,0,2,1)
  ShowMessage("\\n<Woman>Recently a lone succubus has been infesting this town. It looks like she drifted here from somewhere, I wonder if she has anywhere to stay?")
  355("actor_label_jump")
  EndEventProcessing()
  DefineLabel("56")
  ShowMessageFace("inp_fc1",0,0,2,2)
  ShowMessage("\\n<Rami>A lone succubus? Does she have no friends...?")
  If(4,143,0)
   ShowMessageFace("eva_fc1",2,0,2,3)
   ShowMessage("\\n<Eva>I-I do! Nurcubus for example!")
   0()
  EndIf()
  EndEventProcessing()
  DefineLabel("143")
  ShowMessageFace("eva_fc1",1,0,2,4)
  ShowMessage("\\n<Eva>Right now I have my own room... fufun♪.")
  EndEventProcessing()
  0()



EVENT   52
 PAGE   1
  ShowMessageFace("",0,0,2,1)
  ShowMessage("\\n<Soldier>Yesterday I saw a succubus fight with a cosplay woman in the back alley. I think the woman was something like a hero? That's how she was dressed...")
  ShowMessageFace("",0,0,2,2)
  ShowMessage("\\n<Soldier>But despite her strange appearance she was quite strong. I mean, she fought evenly with a succubus...")
  355("actor_label_jump")
  EndEventProcessing()
  DefineLabel("136")
  ShowMessageFace("elf_fc1",0,0,2,3)
  ShowMessage("\\n<Claudia>To fight evenly against a succubus... she must be quite skilled, I wonder where did she train herself?")
  EndEventProcessing()
  DefineLabel("143")
  ShowMessageFace("eva_fc1",2,0,2,4)
  ShowMessage("\\n<Eva>That was because I was hungry... I'd beat her easily on full stomach!")
  EndEventProcessing()
  0()



EVENT   54
 PAGE   1
  ShowMessageFace("",0,0,2,1)
  ShowMessage("\\n<Strong Man>Elka said let that justice whatever woman be. But she's been interfering with transactions, getting in our way...")
  ShowMessageFace("",0,0,2,2)
  ShowMessage("\\n<Strong Man>And what's with her clothing? Even if she's skilled, isn't that too shameless?")
  0()



EVENT   55
 PAGE   1
  ShowMessageFace("",0,0,2,1)
  ShowMessage("\\n<Black Marketeer>If war continues any longer, it'll affect wheat market. If the distribution stagnates, there might not be enough food.")
  ShowMessageFace("",0,0,2,2)
  ShowMessage("\\n<Black Marketeer>A business like ours will suffers along with the market. Manipulating market through war is a pipe dream...")
  355("actor_label_jump")
  EndEventProcessing()
  DefineLabel("66")
  ShowMessageFace("vgirl_fc1",0,0,2,3)
  ShowMessage("\\n<Vanilla>So black market also has it tough...")
  EndEventProcessing()
  0()



EVENT   28
 PAGE   1
  ShowMessageFace("",0,0,2,1)
  ShowMessage("\\n<Traveling Warrior>The road leading to Sabasa is long... but at the same time simple. You go Southwest of here to Rubiana.")
  ShowMessageFace("",0,0,2,2)
  ShowMessage("\\n<Traveling Warrior>From Rubiana you go straight to the West through desert to Sabasa Castle. So, if you're going to Sabasa, your next destination is Rubiana.")
  ShowMessageFace("",0,0,2,3)
  ShowMessage("\\n<Traveling Warrior>Right now Rubiana is uninhabited... but the buildings are still there so it's better to rest there than under clear sky.")
  0()



EVENT   56
 PAGE   1
  ShowMessageFace("",0,0,2,1)
  ShowMessage("\\n<Thief>Recently, a succubus had drifted into the town and is infesting it. Apparently she was seen fighting with that cosplay woman.")
  ShowMessageFace("",0,0,2,2)
  ShowMessage("\\n<Thief>Apparently she often appears near the well in the West of the town... I mean the deserted well right next to the inn.")
  If(1,1024,0,3,0)
   ShowMessageFace("ruka_fc1",0,0,2,3)
   ShowMessage("\\n<Luka>A succubus in the town... we might have to go take a look where she was seen.")
   0()
  EndIf()
  355("actor_label_jump")
  EndEventProcessing()
  DefineLabel("143")
  ShowMessageFace("eva_fc1",0,0,2,4)
  ShowMessage("\\n<Eva>I don't need to do that already... I'm getting support for as long as I'm traveling.")
  EndEventProcessing()
  0()



EVENT   58
 PAGE   1
  ShowMessageFace("",0,0,2,1)
  ShowMessage("\\n<Black Marketeer>I'm responsible for managing item trade within the company. Originally I was a mere merchant, but I was scouted by Elka.")
  ShowMessageFace("",0,0,2,2)
  ShowMessage("\\n<Black Marketeer>I have come this far also thanks to Elka. I'm going to do what I can for the company from now on!")
  355("actor_label_jump")
  EndEventProcessing()
  DefineLabel("66")
  ShowMessageFace("vgirl_fc1",0,0,2,3)
  ShowMessage("\\n<Vanilla>As a part of darkness nobility I also look up to black market but... first I need acquire skill at normal trade.")
  EndEventProcessing()
  DefineLabel("124")
  ShowMessageFace("arikui_fc1",0,0,2,4)
  ShowMessage("\\n<Kyona>Hey, do you deal with ants?")
  ShowMessageFace("",0,0,2,5)
  ShowMessage("\\n<Black Marketeer>No... probably because there's no buyers...")
  EndEventProcessing()
  0()



EVENT   57
 PAGE   1
  ShowMessageFace("",0,0,2,1)
  ShowMessage("\\n<Priest>It's my job to deliver holy water to the church. Of course, under a fake company's name, I don't mention Elka Company's name...")
  ShowMessageFace("",0,0,2,2)
  ShowMessage("\\n<Priest>...please keep it secret from church.")
  355("actor_label_jump")
  EndEventProcessing()
  DefineLabel("531")
  ShowMessageFace("saniria_fc2",0,0,2,3)
  ShowMessage("\\n<King of San Ilia>......")
  ShowMessageFace("",0,0,2,4)
  ShowMessage("\\n<Priest>I-it can't be... you are...?!")
  ShowMessageFace("saniria_fc2",0,0,2,5)
  ShowMessage("\\n<King of San Ilia>I'm just a passing mecha... keep bad deeds in moderation.")
  EndEventProcessing()
  0()



EVENT   53
 PAGE   1
  ShowMessageFace("",0,0,2,1)
  ShowMessage("\\n<Bodyguard>Elka himself is a skilled warrior... he doesn't actually need bodyguards, but it's a way of displaying authority.")
  355("actor_label_jump")
  EndEventProcessing()
  DefineLabel("98")
  ShowMessageFace("minikani_fc1",0,0,2,2)
  ShowMessage("\\n<Amy>If you stand behind him with a bad look on your face you scare everyone, don't you...")
  EndEventProcessing()
  0()



EVENT   59
 PAGE   1
  ShowMessageFace("",0,0,2,1)
  ShowMessage("\\n<Soldier>The only one on the Ilias Continent who can compete with Elka is pretty much Don Dahlia.")
  ShowMessageFace("",0,0,2,2)
  ShowMessage("\\n<Soldier>There were a few skirmishes between them around Port Natalia but... they have decided to make it a gray zone.")
  ShowMessageFace("",0,0,2,3)
  ShowMessage("\\n<Soldier>Damn, I got horny recalling her... I'll fap tonight while thinking about those boobs.")
  355("actor_label_jump")
  EndEventProcessing()
  DefineLabel("64")
  ShowMessageFace("pramia_fc1",0,0,2,4)
  ShowMessage("\\n<Teeny>Boobs boobs boobs... each and any of them only talks about boobs...")
  EndEventProcessing()
  DefineLabel("72")
  ShowMessageFace("phoenix_fc1",3,0,2,5)
  ShowMessage("\\n<Mini>Don is pretty scary. Even though she's so sensitive enough to cry when reading romance novels...")
  ShowMessageFace("",0,0,2,6)
  ShowMessage("\\n<Soldier>Eh? Is that true?!")
  EndEventProcessing()
  0()



EVENT   60
 PAGE   1
  ShowMessageFace("",0,0,2,1)
  ShowMessage("\\n<Female Soldier>I can't cook at all... I've only been training to be a warrior since young...")
  ShowMessageFace("",0,0,2,2)
  ShowMessage("\\n<Female Soldier>Even men are better than me at cooking... maybe I should train in homemaking for a bit?")
  355("actor_label_jump")
  EndEventProcessing()
  DefineLabel("108")
  ShowMessageFace("kai_fc1",0,0,2,3)
  ShowMessage("\\n<Shelly>Even if you train homemaking, if you don't have a groom...")
  ShowMessageFace("",0,0,2,4)
  ShowMessage("\\n<Female Soldier>It's all men around me, I'll woo someone in... ow! Don't squeeze me with your shell!")
  EndEventProcessing()
  DefineLabel("136")
  ShowMessageFace("elf_fc1",2,0,2,5)
  ShowMessage("\\n<Claudia>Homemaking...? I bet it's about skills in bed...")
  ShowMessageFace("",0,0,2,6)
  ShowMessage("\\n<Female Soldier>I mean housework and cooking... are perverted things all you think about?")
  EndEventProcessing()
  0()



EVENT   61
 PAGE   1
  ShowMessageFace("",0,0,2,1)
  ShowMessage("\\n<Maid>I'm also a full-fledged member. Not only I can serve, but I can also participate in combat...")
  355("actor_label_jump")
  EndEventProcessing()
  DefineLabel("64")
  ShowMessageFace("pramia_fc1",0,0,2,2)
  ShowMessage("\\n<Teeny>As I thought, this is how proper maids should be.")
  EndEventProcessing()
  0()



EVENT   62
 PAGE   1
  ShowMessageFace("",0,0,2,1)
  ShowMessage("\\n<Black Marketeer>The ones we are trading with are Grand Noah's army. We ain't gonna sell even a grain of rice to Grangold.")
  ShowMessageFace("",0,0,2,2)
  ShowMessage("\\n<Black Marketeer>Our moral code is not to trade with both sides of the war. Even the black market has its morals.")
  355("actor_label_jump")
  EndEventProcessing()
  DefineLabel("66")
  ShowMessageFace("vgirl_fc1",0,0,2,3)
  ShowMessage("\\n<Vanilla>Whether it's black market or normal one, trust is important... it's better if your customers don't leave you.")
  EndEventProcessing()
  DefineLabel("171")
  ShowMessageFace("lizardboss_fc1",0,0,2,4)
  ShowMessage("\\n<Miranda>Rather, trust is even more important because it's shady work...")
  EndEventProcessing()
  0()



EVENT   63
 PAGE   1
  250(bytes(0x04,0x08,0x6f,0x3a,0x0c,0x52,0x50,0x47,0x3a,0x3a,0x53,0x45,0x08,0x3a,0x0a,0x40,0x6e,0x61,0x6d,0x65,0x49,0x22,0x0a,0x49,0x74,0x65,0x6d,0x31,0x06,0x3a,0x06,0x45,0x54,0x3a,0x0b,0x40,0x70,0x69,0x74,0x63,0x68,0x69,0x69,0x3a,0x0c,0x40,0x76,0x6f,0x6c,0x75,0x6d,0x65,0x69,0x55))
  ChangeSelfSwitch("A",0)
  ChangeInventory_Item(181,0,0,1)
  0()
 PAGE   2
  // condition: self-switch A is ON
  0()



EVENT   64
 PAGE   1
  250(bytes(0x04,0x08,0x6f,0x3a,0x0c,0x52,0x50,0x47,0x3a,0x3a,0x53,0x45,0x08,0x3a,0x0a,0x40,0x6e,0x61,0x6d,0x65,0x49,0x22,0x0a,0x49,0x74,0x65,0x6d,0x31,0x06,0x3a,0x06,0x45,0x54,0x3a,0x0b,0x40,0x70,0x69,0x74,0x63,0x68,0x69,0x69,0x3a,0x0c,0x40,0x76,0x6f,0x6c,0x75,0x6d,0x65,0x69,0x55))
  ChangeSelfSwitch("A",0)
  ChangeInventory_Item(16,0,0,1)
  0()
 PAGE   2
  // condition: self-switch A is ON
  0()



EVENT   65
 PAGE   1
  250(bytes(0x04,0x08,0x6f,0x3a,0x0c,0x52,0x50,0x47,0x3a,0x3a,0x53,0x45,0x08,0x3a,0x0a,0x40,0x6e,0x61,0x6d,0x65,0x49,0x22,0x0a,0x49,0x74,0x65,0x6d,0x31,0x06,0x3a,0x06,0x45,0x54,0x3a,0x0b,0x40,0x70,0x69,0x74,0x63,0x68,0x69,0x69,0x3a,0x0c,0x40,0x76,0x6f,0x6c,0x75,0x6d,0x65,0x69,0x55))
  ChangeSelfSwitch("A",0)
  ChangeInventory_Item(2,0,0,1)
  0()
 PAGE   2
  // condition: self-switch A is ON
  0()



EVENT   66
 PAGE   1
  250(bytes(0x04,0x08,0x6f,0x3a,0x0c,0x52,0x50,0x47,0x3a,0x3a,0x53,0x45,0x08,0x3a,0x0a,0x40,0x6e,0x61,0x6d,0x65,0x49,0x22,0x0a,0x49,0x74,0x65,0x6d,0x31,0x06,0x3a,0x06,0x45,0x54,0x3a,0x0b,0x40,0x70,0x69,0x74,0x63,0x68,0x69,0x69,0x3a,0x0c,0x40,0x76,0x6f,0x6c,0x75,0x6d,0x65,0x69,0x55))
  ChangeSelfSwitch("A",0)
  ChangeInventory_Item(357,0,0,1)
  0()
 PAGE   2
  // condition: self-switch A is ON
  0()



EVENT   67
 PAGE   1
  250(bytes(0x04,0x08,0x6f,0x3a,0x0c,0x52,0x50,0x47,0x3a,0x3a,0x53,0x45,0x08,0x3a,0x0a,0x40,0x6e,0x61,0x6d,0x65,0x49,0x22,0x0a,0x49,0x74,0x65,0x6d,0x31,0x06,0x3a,0x06,0x45,0x54,0x3a,0x0b,0x40,0x70,0x69,0x74,0x63,0x68,0x69,0x69,0x3a,0x0c,0x40,0x76,0x6f,0x6c,0x75,0x6d,0x65,0x69,0x55))
  ChangeSelfSwitch("A",0)
  ChangeInventory_Item(32,0,0,1)
  0()
 PAGE   2
  // condition: self-switch A is ON
  0()



EVENT   68
 PAGE   1
  250(bytes(0x04,0x08,0x6f,0x3a,0x0c,0x52,0x50,0x47,0x3a,0x3a,0x53,0x45,0x08,0x3a,0x0a,0x40,0x6e,0x61,0x6d,0x65,0x49,0x22,0x0a,0x49,0x74,0x65,0x6d,0x31,0x06,0x3a,0x06,0x45,0x54,0x3a,0x0b,0x40,0x70,0x69,0x74,0x63,0x68,0x69,0x69,0x3a,0x0c,0x40,0x76,0x6f,0x6c,0x75,0x6d,0x65,0x69,0x55))
  ChangeSelfSwitch("A",0)
  ChangeInventory_Item(326,0,0,1)
  0()
 PAGE   2
  // condition: self-switch A is ON
  0()



EVENT   69
 PAGE   1
  250(bytes(0x04,0x08,0x6f,0x3a,0x0c,0x52,0x50,0x47,0x3a,0x3a,0x53,0x45,0x08,0x3a,0x0a,0x40,0x6e,0x61,0x6d,0x65,0x49,0x22,0x0a,0x49,0x74,0x65,0x6d,0x31,0x06,0x3a,0x06,0x45,0x54,0x3a,0x0b,0x40,0x70,0x69,0x74,0x63,0x68,0x69,0x69,0x3a,0x0c,0x40,0x76,0x6f,0x6c,0x75,0x6d,0x65,0x69,0x55))
  ChangeSelfSwitch("A",0)
  ChangeInventory_Item(334,0,0,1)
  0()
 PAGE   2
  // condition: self-switch A is ON
  0()



EVENT   70
 PAGE   1
  250(bytes(0x04,0x08,0x6f,0x3a,0x0c,0x52,0x50,0x47,0x3a,0x3a,0x53,0x45,0x08,0x3a,0x0a,0x40,0x6e,0x61,0x6d,0x65,0x49,0x22,0x0a,0x49,0x74,0x65,0x6d,0x31,0x06,0x3a,0x06,0x45,0x54,0x3a,0x0b,0x40,0x70,0x69,0x74,0x63,0x68,0x69,0x69,0x3a,0x0c,0x40,0x76,0x6f,0x6c,0x75,0x6d,0x65,0x69,0x55))
  ChangeSelfSwitch("A",0)
  ChangeInventory_Item(14,0,0,1)
  0()
 PAGE   2
  // condition: self-switch A is ON
  0()



EVENT   71
 PAGE   1
  250(bytes(0x04,0x08,0x6f,0x3a,0x0c,0x52,0x50,0x47,0x3a,0x3a,0x53,0x45,0x08,0x3a,0x0a,0x40,0x6e,0x61,0x6d,0x65,0x49,0x22,0x0a,0x49,0x74,0x65,0x6d,0x31,0x06,0x3a,0x06,0x45,0x54,0x3a,0x0b,0x40,0x70,0x69,0x74,0x63,0x68,0x69,0x69,0x3a,0x0c,0x40,0x76,0x6f,0x6c,0x75,0x6d,0x65,0x69,0x55))
  ChangeSelfSwitch("A",0)
  ChangeInventoryArmor(149,0,0,1,false)
  0()
 PAGE   2
  // condition: self-switch A is ON
  0()



EVENT   72
 PAGE   1
  250(bytes(0x04,0x08,0x6f,0x3a,0x0c,0x52,0x50,0x47,0x3a,0x3a,0x53,0x45,0x08,0x3a,0x0a,0x40,0x6e,0x61,0x6d,0x65,0x49,0x22,0x0a,0x49,0x74,0x65,0x6d,0x31,0x06,0x3a,0x06,0x45,0x54,0x3a,0x0b,0x40,0x70,0x69,0x74,0x63,0x68,0x69,0x69,0x3a,0x0c,0x40,0x76,0x6f,0x6c,0x75,0x6d,0x65,0x69,0x55))
  ChangeSelfSwitch("A",0)
  ChangeInventory_Item(44,0,0,1)
  0()
 PAGE   2
  // condition: self-switch A is ON
  0()



EVENT   42
 PAGE   1
  ShowMessageFace("",0,0,2,1)
  ShowMessage("\\n<Overly Drunk Man>I don't want to work any more...")
  355("actor_label_jump")
  EndEventProcessing()
  DefineLabel("143")
  ShowMessageFace("eva_fc1",2,0,2,2)
  ShowMessage("\\n<Eva>Agreed...")
  EndEventProcessing()
  0()



EVENT   74
 PAGE   1
  // condition: switch 31 is ON
  0()



EVENT   75
 PAGE   1
  // condition: variable 1024 >= 7
  If(0,6,0)
   ShowMessageFace("sonia_fc1",0,0,2,1)
   ShowMessage("\\n<Sonya>Eh... this, is this a picture?")
   0()
  Else()
   ShowMessageFace("ruka_fc1",0,0,2,2)
   ShowMessage("\\n<Luka>This... is this a picture?")
   0()
  EndIf()
  ShowMessageFace("",0,0,2,3)
  ShowMessage("A projecting Machina is something only filthy rich people can afford. Moreover, what was reflected in the photo was...")
  If(0,6,0)
   ShowMessageFace("sonia_fc3",7,0,2,4)
   ShowMessage("\\n<Sonya>A red-haired girl and a man... this man, is this young Elka?")
   0()
  Else()
   ShowMessageFace("",0,0,2,5)
   ShowMessage("A red-haired girl and a man... this man looks like young Elka.")
   0()
  EndIf()
  ShowMessageFace("ruka_fc1",0,0,2,6)
  ShowMessage("\\n<Luka>Then, this red-haired girl is...")
  0()



EVENT   73
 PAGE   1
  // condition: switch 1075 is ON
  // condition: switch 1074 is ON
  If(2,"A",1)
   ChangeSelfSwitch("A",0)
   ChangeVariable(1037,1037,1,0,1)
   0()
  EndIf()
  ShowMessageFace("hituzi_fc1",3,0,2,1)
  ShowMessage("\\n<Mary>MEeeee!!")
  ShowMessageFace("",0,0,2,2)
  ShowMessage("That's our sheep...")
  ShowMessageFace("hituzi_fc1",3,0,2,3)
  ShowMessage("\\n<Mary>Uehehehehe...")
  ShowMessageFace("hituzi_fc1",7,0,2,4)
  ShowMessage("\\n<Mary>*gulp**gulp*gulp*...")
  ShowMessageFace("hituzi_fc1",3,0,2,5)
  ShowMessage("\\n<Mary>Uehehehehe...")
  ChangeSwitch(31,31,0)
  If(6,-1,8)
   205(-1,bytes(0x04,0x08,0x6f,0x3a,0x13,0x52,0x50,0x47,0x3a,0x3a,0x4d,0x6f,0x76,0x65,0x52,0x6f,0x75,0x74,0x65,0x09,0x3a,0x0c,0x40,0x72,0x65,0x70,0x65,0x61,0x74,0x46,0x3a,0x0f,0x40,0x73,0x6b,0x69,0x70,0x70,0x61,0x62,0x6c,0x65,0x46,0x3a,0x0a,0x40,0x77,0x61,0x69,0x74,0x46,0x3a,0x0a,0x40,0x6c,0x69,0x73,0x74,0x5b,0x08,0x6f,0x3a,0x15,0x52,0x50,0x47,0x3a,0x3a,0x4d,0x6f,0x76,0x65,0x43,0x6f,0x6d,0x6d,0x61,0x6e,0x64,0x07,0x3a,0x0a,0x40,0x63,0x6f,0x64,0x65,0x69,0x08,0x3a,0x10,0x40,0x70,0x61,0x72,0x61,0x6d,0x65,0x74,0x65,0x72,0x73,0x5b,0x00,0x6f,0x3b,0x0a,0x07,0x3b,0x0b,0x69,0x16,0x3b,0x0c,0x5b,0x00,0x6f,0x3b,0x0a,0x07,0x3b,0x0b,0x69,0x00,0x3b,0x0c,0x5b,0x00))
   0()
  EndIf()
  217()
  205(74,bytes(0x04,0x08,0x6f,0x3a,0x13,0x52,0x50,0x47,0x3a,0x3a,0x4d,0x6f,0x76,0x65,0x52,0x6f,0x75,0x74,0x65,0x09,0x3a,0x0c,0x40,0x72,0x65,0x70,0x65,0x61,0x74,0x46,0x3a,0x0f,0x40,0x73,0x6b,0x69,0x70,0x70,0x61,0x62,0x6c,0x65,0x46,0x3a,0x0a,0x40,0x77,0x61,0x69,0x74,0x54,0x3a,0x0a,0x40,0x6c,0x69,0x73,0x74,0x5b,0x13,0x6f,0x3a,0x15,0x52,0x50,0x47,0x3a,0x3a,0x4d,0x6f,0x76,0x65,0x43,0x6f,0x6d,0x6d,0x61,0x6e,0x64,0x07,0x3a,0x0a,0x40,0x63,0x6f,0x64,0x65,0x69,0x2a,0x3a,0x10,0x40,0x70,0x61,0x72,0x61,0x6d,0x65,0x74,0x65,0x72,0x73,0x5b,0x00,0x6f,0x3b,0x0a,0x07,0x3b,0x0b,0x69,0x08,0x3b,0x0c,0x5b,0x00,0x6f,0x3b,0x0a,0x07,0x3b,0x0b,0x69,0x08,0x3b,0x0c,0x5b,0x00,0x6f,0x3b,0x0a,0x07,0x3b,0x0b,0x69,0x08,0x3b,0x0c,0x5b,0x00,0x6f,0x3b,0x0a,0x07,0x3b,0x0b,0x69,0x08,0x3b,0x0c,0x5b,0x00,0x6f,0x3b,0x0a,0x07,0x3b,0x0b,0x69,0x08,0x3b,0x0c,0x5b,0x00,0x6f,0x3b,0x0a,0x07,0x3b,0x0b,0x69,0x08,0x3b,0x0c,0x5b,0x00,0x6f,0x3b,0x0a,0x07,0x3b,0x0b,0x69,0x08,0x3b,0x0c,0x5b,0x00,0x6f,0x3b,0x0a,0x07,0x3b,0x0b,0x69,0x08,0x3b,0x0c,0x5b,0x00,0x6f,0x3b,0x0a,0x07,0x3b,0x0b,0x69,0x08,0x3b,0x0c,0x5b,0x00,0x6f,0x3b,0x0a,0x07,0x3b,0x0b,0x69,0x08,0x3b,0x0c,0x5b,0x00,0x6f,0x3b,0x0a,0x07,0x3b,0x0b,0x69,0x09,0x3b,0x0c,0x5b,0x00,0x6f,0x3b,0x0a,0x07,0x3b,0x0b,0x69,0x09,0x3b,0x0c,0x5b,0x00,0x6f,0x3b,0x0a,0x07,0x3b,0x0b,0x69,0x00,0x3b,0x0c,0x5b,0x00))
  205(0,bytes(0x04,0x08,0x6f,0x3a,0x13,0x52,0x50,0x47,0x3a,0x3a,0x4d,0x6f,0x76,0x65,0x52,0x6f,0x75,0x74,0x65,0x09,0x3a,0x0c,0x40,0x72,0x65,0x70,0x65,0x61,0x74,0x46,0x3a,0x0f,0x40,0x73,0x6b,0x69,0x70,0x70,0x61,0x62,0x6c,0x65,0x46,0x3a,0x0a,0x40,0x77,0x61,0x69,0x74,0x54,0x3a,0x0a,0x40,0x6c,0x69,0x73,0x74,0x5b,0x08,0x6f,0x3a,0x15,0x52,0x50,0x47,0x3a,0x3a,0x4d,0x6f,0x76,0x65,0x43,0x6f,0x6d,0x6d,0x61,0x6e,0x64,0x07,0x3a,0x0a,0x40,0x63,0x6f,0x64,0x65,0x69,0x29,0x3a,0x10,0x40,0x70,0x61,0x72,0x61,0x6d,0x65,0x74,0x65,0x72,0x73,0x5b,0x00,0x6f,0x3b,0x0a,0x07,0x3b,0x0b,0x69,0x15,0x3b,0x0c,0x5b,0x00,0x6f,0x3b,0x0a,0x07,0x3b,0x0b,0x69,0x00,0x3b,0x0c,0x5b,0x00))
  RunCommonEvent(312)
  205(74,bytes(0x04,0x08,0x6f,0x3a,0x13,0x52,0x50,0x47,0x3a,0x3a,0x4d,0x6f,0x76,0x65,0x52,0x6f,0x75,0x74,0x65,0x09,0x3a,0x0c,0x40,0x72,0x65,0x70,0x65,0x61,0x74,0x46,0x3a,0x0f,0x40,0x73,0x6b,0x69,0x70,0x70,0x61,0x62,0x6c,0x65,0x46,0x3a,0x0a,0x40,0x77,0x61,0x69,0x74,0x46,0x3a,0x0a,0x40,0x6c,0x69,0x73,0x74,0x5b,0x22,0x6f,0x3a,0x15,0x52,0x50,0x47,0x3a,0x3a,0x4d,0x6f,0x76,0x65,0x43,0x6f,0x6d,0x6d,0x61,0x6e,0x64,0x07,0x3a,0x0a,0x40,0x63,0x6f,0x64,0x65,0x69,0x2a,0x3a,0x10,0x40,0x70,0x61,0x72,0x61,0x6d,0x65,0x74,0x65,0x72,0x73,0x5b,0x00,0x6f,0x3b,0x0a,0x07,0x3b,0x0b,0x69,0x06,0x3b,0x0c,0x5b,0x00,0x6f,0x3b,0x0a,0x07,0x3b,0x0b,0x69,0x06,0x3b,0x0c,0x5b,0x00,0x6f,0x3b,0x0a,0x07,0x3b,0x0b,0x69,0x07,0x3b,0x0c,0x5b,0x00,0x6f,0x3b,0x0a,0x07,0x3b,0x0b,0x69,0x07,0x3b,0x0c,0x5b,0x00,0x6f,0x3b,0x0a,0x07,0x3b,0x0b,0x69,0x07,0x3b,0x0c,0x5b,0x00,0x6f,0x3b,0x0a,0x07,0x3b,0x0b,0x69,0x07,0x3b,0x0c,0x5b,0x00,0x6f,0x3b,0x0a,0x07,0x3b,0x0b,0x69,0x07,0x3b,0x0c,0x5b,0x00,0x6f,0x3b,0x0a,0x07,0x3b,0x0b,0x69,0x07,0x3b,0x0c,0x5b,0x00,0x6f,0x3b,0x0a,0x07,0x3b,0x0b,0x69,0x07,0x3b,0x0c,0x5b,0x00,0x6f,0x3b,0x0a,0x07,0x3b,0x0b,0x69,0x07,0x3b,0x0c,0x5b,0x00,0x6f,0x3b,0x0a,0x07,0x3b,0x0b,0x69,0x07,0x3b,0x0c,0x5b,0x00,0x6f,0x3b,0x0a,0x07,0x3b,0x0b,0x69,0x07,0x3b,0x0c,0x5b,0x00,0x6f,0x3b,0x0a,0x07,0x3b,0x0b,0x69,0x07,0x3b,0x0c,0x5b,0x00,0x6f,0x3b,0x0a,0x07,0x3b,0x0b,0x69,0x09,0x3b,0x0c,0x5b,0x00,0x6f,0x3b,0x0a,0x07,0x3b,0x0b,0x69,0x09,0x3b,0x0c,0x5b,0x00,0x6f,0x3b,0x0a,0x07,0x3b,0x0b,0x69,0x09,0x3b,0x0c,0x5b,0x00,0x6f,0x3b,0x0a,0x07,0x3b,0x0b,0x69,0x07,0x3b,0x0c,0x5b,0x00,0x6f,0x3b,0x0a,0x07,0x3b,0x0b,0x69,0x07,0x3b,0x0c,0x5b,0x00,0x6f,0x3b,0x0a,0x07,0x3b,0x0b,0x69,0x07,0x3b,0x0c,0x5b,0x00,0x6f,0x3b,0x0a,0x07,0x3b,0x0b,0x69,0x06,0x3b,0x0c,0x5b,0x00,0x6f,0x3b,0x0a,0x07,0x3b,0x0b,0x69,0x06,0x3b,0x0c,0x5b,0x00,0x6f,0x3b,0x0a,0x07,0x3b,0x0b,0x69,0x06,0x3b,0x0c,0x5b,0x00,0x6f,0x3b,0x0a,0x07,0x3b,0x0b,0x69,0x06,0x3b,0x0c,0x5b,0x00,0x6f,0x3b,0x0a,0x07,0x3b,0x0b,0x69,0x06,0x3b,0x0c,0x5b,0x00,0x6f,0x3b,0x0a,0x07,0x3b,0x0b,0x69,0x06,0x3b,0x0c,0x5b,0x00,0x6f,0x3b,0x0a,0x07,0x3b,0x0b,0x69,0x31,0x3b,0x0c,0x5b,0x06,0x6f,0x3a,0x0c,0x52,0x50,0x47,0x3a,0x3a,0x53,0x45,0x08,0x3a,0x0a,0x40,0x6e,0x61,0x6d,0x65,0x49,0x22,0x09,0x4d,0x6f,0x76,0x65,0x06,0x3a,0x06,0x45,0x54,0x3a,0x0b,0x40,0x70,0x69,0x74,0x63,0x68,0x69,0x69,0x3a,0x0c,0x40,0x76,0x6f,0x6c,0x75,0x6d,0x65,0x69,0x55,0x6f,0x3b,0x0a,0x07,0x3b,0x0b,0x69,0x21,0x3b,0x0c,0x5b,0x06,0x69,0x24,0x6f,0x3b,0x0a,0x07,0x3b,0x0b,0x69,0x00,0x3b,0x0c,0x5b,0x00))
  205(0,bytes(0x04,0x08,0x6f,0x3a,0x13,0x52,0x50,0x47,0x3a,0x3a,0x4d,0x6f,0x76,0x65,0x52,0x6f,0x75,0x74,0x65,0x09,0x3a,0x0c,0x40,0x72,0x65,0x70,0x65,0x61,0x74,0x46,0x3a,0x0f,0x40,0x73,0x6b,0x69,0x70,0x70,0x61,0x62,0x6c,0x65,0x46,0x3a,0x0a,0x40,0x77,0x61,0x69,0x74,0x46,0x3a,0x0a,0x40,0x6c,0x69,0x73,0x74,0x5b,0x22,0x6f,0x3a,0x15,0x52,0x50,0x47,0x3a,0x3a,0x4d,0x6f,0x76,0x65,0x43,0x6f,0x6d,0x6d,0x61,0x6e,0x64,0x07,0x3a,0x0a,0x40,0x63,0x6f,0x64,0x65,0x69,0x2a,0x3a,0x10,0x40,0x70,0x61,0x72,0x61,0x6d,0x65,0x74,0x65,0x72,0x73,0x5b,0x00,0x6f,0x3b,0x0a,0x07,0x3b,0x0b,0x69,0x06,0x3b,0x0c,0x5b,0x00,0x6f,0x3b,0x0a,0x07,0x3b,0x0b,0x69,0x06,0x3b,0x0c,0x5b,0x00,0x6f,0x3b,0x0a,0x07,0x3b,0x0b,0x69,0x06,0x3b,0x0c,0x5b,0x00,0x6f,0x3b,0x0a,0x07,0x3b,0x0b,0x69,0x07,0x3b,0x0c,0x5b,0x00,0x6f,0x3b,0x0a,0x07,0x3b,0x0b,0x69,0x07,0x3b,0x0c,0x5b,0x00,0x6f,0x3b,0x0a,0x07,0x3b,0x0b,0x69,0x07,0x3b,0x0c,0x5b,0x00,0x6f,0x3b,0x0a,0x07,0x3b,0x0b,0x69,0x07,0x3b,0x0c,0x5b,0x00,0x6f,0x3b,0x0a,0x07,0x3b,0x0b,0x69,0x07,0x3b,0x0c,0x5b,0x00,0x6f,0x3b,0x0a,0x07,0x3b,0x0b,0x69,0x07,0x3b,0x0c,0x5b,0x00,0x6f,0x3b,0x0a,0x07,0x3b,0x0b,0x69,0x07,0x3b,0x0c,0x5b,0x00,0x6f,0x3b,0x0a,0x07,0x3b,0x0b,0x69,0x07,0x3b,0x0c,0x5b,0x00,0x6f,0x3b,0x0a,0x07,0x3b,0x0b,0x69,0x07,0x3b,0x0c,0x5b,0x00,0x6f,0x3b,0x0a,0x07,0x3b,0x0b,0x69,0x07,0x3b,0x0c,0x5b,0x00,0x6f,0x3b,0x0a,0x07,0x3b,0x0b,0x69,0x07,0x3b,0x0c,0x5b,0x00,0x6f,0x3b,0x0a,0x07,0x3b,0x0b,0x69,0x09,0x3b,0x0c,0x5b,0x00,0x6f,0x3b,0x0a,0x07,0x3b,0x0b,0x69,0x09,0x3b,0x0c,0x5b,0x00,0x6f,0x3b,0x0a,0x07,0x3b,0x0b,0x69,0x09,0x3b,0x0c,0x5b,0x00,0x6f,0x3b,0x0a,0x07,0x3b,0x0b,0x69,0x07,0x3b,0x0c,0x5b,0x00,0x6f,0x3b,0x0a,0x07,0x3b,0x0b,0x69,0x07,0x3b,0x0c,0x5b,0x00,0x6f,0x3b,0x0a,0x07,0x3b,0x0b,0x69,0x07,0x3b,0x0c,0x5b,0x00,0x6f,0x3b,0x0a,0x07,0x3b,0x0b,0x69,0x06,0x3b,0x0c,0x5b,0x00,0x6f,0x3b,0x0a,0x07,0x3b,0x0b,0x69,0x06,0x3b,0x0c,0x5b,0x00,0x6f,0x3b,0x0a,0x07,0x3b,0x0b,0x69,0x06,0x3b,0x0c,0x5b,0x00,0x6f,0x3b,0x0a,0x07,0x3b,0x0b,0x69,0x06,0x3b,0x0c,0x5b,0x00,0x6f,0x3b,0x0a,0x07,0x3b,0x0b,0x69,0x06,0x3b,0x0c,0x5b,0x00,0x6f,0x3b,0x0a,0x07,0x3b,0x0b,0x69,0x06,0x3b,0x0c,0x5b,0x00,0x6f,0x3b,0x0a,0x07,0x3b,0x0b,0x69,0x2c,0x3b,0x0c,0x5b,0x00,0x6f,0x3b,0x0a,0x07,0x3b,0x0b,0x69,0x00,0x3b,0x0c,0x5b,0x00))
  RunCommonEvent(313)
  0()
 PAGE   2
  // condition: party contains actor #74
  0()
 PAGE   3
  // condition: party contains actor #75
  0()



EVENT   18
 PAGE   1
  // condition: variable 1024 >= 4
  241(bytes(0x04,0x08,0x6f,0x3a,0x0d,0x52,0x50,0x47,0x3a,0x3a,0x42,0x47,0x4d,0x08,0x3a,0x0a,0x40,0x6e,0x61,0x6d,0x65,0x49,0x22,0x09,0x68,0x65,0x72,0x6f,0x06,0x3a,0x06,0x45,0x54,0x3a,0x0c,0x40,0x76,0x6f,0x6c,0x75,0x6d,0x65,0x69,0x69,0x3a,0x0b,0x40,0x70,0x69,0x74,0x63,0x68,0x69,0x69))
  PictureDisplay(5,"80_justice_st01",0,0,0,0,100,100,0,0)
  PictureMove(5,null,0,0,0,0,100,100,255,0,30,true)
  If(1,1024,0,4,0)
   ChangeVariable(1024,1024,0,0,5)
   ShowMessageFace("justice_fc1",0,0,2,1)
   ShowMessage("\\n<Justice Kaiser>Well done coming here... I'm Justice Kaiser, a\\*\\fi hero\\*\\fi.")
   ShowChoices(strings("Amazing!","So silly..."),0)
   IfPlayerPicksChoice(0,null)
    If(4,68,0)
     ShowMessageFace("dragonp_fc1",0,0,2,2)
     ShowMessage("\\n<Papi>Amazing! So cooool!")
     0()
    EndIf()
    ShowMessageFace("justice_fc1",0,0,2,3)
    ShowMessage("\\n<Justice Kaiser>Fufu, thanks you. Everyone's voice turns into my\\*\\fi power.\\*\\fi")
    0()
   IfPlayerPicksChoice(1,null)
    If(4,62,0)
     ShowMessageFace("gob_fc1",3,0,2,4)
     ShowMessage("\\n<Gob>Onee-chan... stop doing embarrassing things and find proper work...")
     0()
    EndIf()
    ShowMessageFace("justice_fc1",0,0,2,5)
    ShowMessage("\\n<Justice Kaiser>Heroes are never understood. Therefore, and thus they are\\*\\fi lonely,\\*\\fi")
    0()
   404()
   ShowMessageFace("justice_fc1",0,0,2,6)
   ShowMessage("\\n<Justice Kaiser>Now, I actually have a request for you. Just earlier you saw that Eva succubus, right.")
   ShowMessageFace("justice_fc1",0,0,2,7)
   ShowMessage("\\n<Justice Kaiser>For a while now I've been fighting her, but she keeps escaping... she always runs to Carlos Hill so I don't chase her any further.")
   If(4,129,0)
    ShowMessageFace("brunhild_fc1",0,0,2,8)
    ShowMessage("\\n<Hild>Is she that fast at escaping...? I compared your physical abilities and I think you could easily catch up to her...")
    0()
   EndIf()
   ShowMessageFace("justice_fc1",0,0,2,9)
   ShowMessage("\\n<Justice Kaiser>This suit, when I wear it for long it gets stuffy with sweat... it's fine as long as it's a short fight, but it's not suitable for an endurance match.")
   If(0,6,0)
    ShowMessageFace("sonia_fc2",2,0,2,10)
    ShowMessage("\\n<Sonya>...then take it off?")
    0()
   EndIf()
   ShowMessageFace("justice_fc1",0,0,2,11)
   ShowMessage("\\n<Justice Kaiser>And so, I want you to defeat Eva. I can't afford chasing after her any more.")
   ShowMessageFace("justice_fc1",0,0,2,12)
   ShowMessage("\\n<Justice Kaiser>It seems like Eva lives somewhere on the Carlos Hill. As long as I wear this suit I can't stay outside for long.")
   If(0,6,0)
    ShowMessageFace("sonia_fc4",0,0,2,13)
    ShowMessage("\\n<Sonya>...then take it off?")
    0()
   EndIf()
   ShowMessageFace("justice_fc1",0,0,2,14)
   ShowMessage("\\n<Justice Kaiser>I can see you have blazing justice and sure skill in you. Surely you'll be able to bring peace back to this town by getting rid of Eva.")
   ShowMessageFace("justice_fc1",0,0,2,15)
   ShowMessage("\\n<Justice Kaiser>Then once a new hero is born... I will be able to take off this suit.")
   If(0,6,0)
    ShowMessageFace("sonia_fc1",2,0,2,16)
    ShowMessage("\\n<Sonya>...then take it off?")
    0()
   EndIf()
   ShowMessageFace("justice_fc1",0,0,2,17)
   ShowMessage("\\n<Justice Kaiser>I beg of you, inherit the spirit of\\*\\fi justice\\*\\fi and defeat Eva.")
   ShowChoices(strings("Yes","No"),2)
   IfPlayerPicksChoice(0,null)
    ShowMessageFace("justice_fc1",0,0,2,18)
    ShowMessage("\\n<Justice Kaiser>Thank you, I thought you would say that. I could see the\\*\\fi spirit\\*\\fi of justice in your eyes.")
    ShowMessageFace("ruka_fc1",0,0,2,19)
    ShowMessage("\\n<Luka>No, it's nothing... eheeh, ehehehehe....")
    0()
   IfPlayerPicksChoice(1,null)
    ShowMessageFace("justice_fc1",0,0,2,20)
    ShowMessage("\\n<Justice Kaiser>Thank you, I thought you would say that. I could see the\\*\\fi spirit\\*\\fi of justice in your eyes.")
    ShowMessageFace("ruka_fc1",0,0,2,21)
    ShowMessage("\\n<Luka>（She doesn't even listen to what others say...）")
    0()
   404()
   ShowMessageFace("justice_fc1",0,0,2,22)
   ShowMessage("\\n<Justice Kaiser>As I said earlier, Eva is lurking on the Carlos Hill. It's Southeast of this town, she's somewhere in there.")
   ShowMessageFace("justice_fc1",0,0,2,23)
   ShowMessage("\\n<Justice Kaiser>I wish you fortune in battle. And, inherit it... the\\*\\fi spirit\\*\\fi of justice.")
   If(0,6,0)
    ShowMessageFace("sonia_fc1",2,0,2,24)
    ShowMessage("\\n<Sonya>...take it off?")
    0()
   EndIf()
   241(bytes(0x04,0x08,0x6f,0x3a,0x0d,0x52,0x50,0x47,0x3a,0x3a,0x42,0x47,0x4d,0x08,0x3a,0x0a,0x40,0x6e,0x61,0x6d,0x65,0x49,0x22,0x0a,0x6d,0x75,0x72,0x61,0x33,0x06,0x3a,0x06,0x45,0x54,0x3a,0x0c,0x40,0x76,0x6f,0x6c,0x75,0x6d,0x65,0x69,0x69,0x3a,0x0b,0x40,0x70,0x69,0x74,0x63,0x68,0x69,0x69))
   PictureClear(5)
   EndEventProcessing()
   0()
  EndIf()
  If(1,1024,0,5,0)
   ShowMessageFace("justice_fc1",0,0,2,25)
   ShowMessage("\\n<Justice Kaiser>As I said earlier, Eva is lurking on the Carlos Hill. It's Southeast of this town, she's somewhere in there.")
   ShowMessageFace("justice_fc1",0,0,2,26)
   ShowMessage("\\n<Justice Kaiser>I wish you fortune in battle. And, inherit it... the\\*\\fi spirit\\*\\fi of justice.")
   241(bytes(0x04,0x08,0x6f,0x3a,0x0d,0x52,0x50,0x47,0x3a,0x3a,0x42,0x47,0x4d,0x08,0x3a,0x0a,0x40,0x6e,0x61,0x6d,0x65,0x49,0x22,0x0a,0x6d,0x75,0x72,0x61,0x33,0x06,0x3a,0x06,0x45,0x54,0x3a,0x0c,0x40,0x76,0x6f,0x6c,0x75,0x6d,0x65,0x69,0x69,0x3a,0x0b,0x40,0x70,0x69,0x74,0x63,0x68,0x69,0x69))
   PictureClear(5)
   EndEventProcessing()
   0()
  EndIf()
  If(1,1024,0,6,0)
   ChangeVariable(1024,1024,0,0,7)
   ShowMessageFace("justice_fc1",0,0,2,27)
   ShowMessage("\\n<Justice Kaiser>You defeated Eva, haven't you... you have inherited the\\*\\fi spirit\\*\\fi of justice!")
   ShowMessageFace("justice_fc1",0,0,2,28)
   ShowMessage("\\n<Justice Kaiser>Congratulations, you are a splendid hero! It is your\\*\\fi heart\\*\\fi that hates the evil that's the proof of a hero!")
   250(bytes(0x04,0x08,0x6f,0x3a,0x0c,0x52,0x50,0x47,0x3a,0x3a,0x53,0x45,0x08,0x3a,0x0a,0x40,0x6e,0x61,0x6d,0x65,0x49,0x22,0x0a,0x49,0x74,0x65,0x6d,0x31,0x06,0x3a,0x06,0x45,0x54,0x3a,0x0b,0x40,0x70,0x69,0x74,0x63,0x68,0x69,0x69,0x3a,0x0c,0x40,0x76,0x6f,0x6c,0x75,0x6d,0x65,0x69,0x55))
   ChangeInventory_Item(609,0,0,1)
   If(4,68,0)
    ShowMessageFace("dragonp_fc1",0,0,2,29)
    ShowMessage("\\n<Papi>OOOOHHH!! I can feel burning spiriiiit!!")
    0()
   EndIf()
   ShowMessageFace("justice_fc1",0,0,2,30)
   ShowMessage("\\n<Justice Kaiser>You can now change jobs to 'Hero of Justice'. But don't forget that you need to master the Soldier job first.")
   ShowMessageFace("justice_fc1",0,0,2,31)
   ShowMessage("\\n<Justice Kaiser>The 'Hero of Justice' normally has low stats. It also doesn't have any special skills and isn't too dependable...")
   ShowMessageFace("justice_fc1",0,0,2,32)
   ShowMessage("\\n<Justice Kaiser>But if one uses SP to 'Transform'... all stats increase explosively!")
   ShowMessageFace("justice_fc1",0,0,2,33)
   ShowMessage("\\n<Justice Kaiser>Moreover, when transformed you can use 'Justice'! They're powerful finishing moves so use them to sweep down evil!")
   ShowMessageFace("justice_fc1",0,0,2,34)
   ShowMessage("\\n<Justice Kaiser>After several turns transformation will be naturally released and you will go back to mediocre statistic again so be careful.")
   ShowMessageFace("justice_fc1",0,0,2,35)
   ShowMessage("\\n<Justice Kaiser>Do you understand now how does a hero fight? Don't miss the timing when you transform and reliably make the victory yours.")
   ShowMessageFace("justice_fc1",0,0,2,36)
   ShowMessage("\\n<Justice Kaiser>Now, you have inherited the hero spirit. I'll go back to being a mere civilian... a woman called Juska.")
   If(0,6,0)
    ShowMessageFace("sonia_fc2",3,0,2,37)
    ShowMessage("\\n<Sonya>Juska, that's simplistic... isn't it just an abbreviation from Justice Kaiser...?")
    ShowMessageFace("justice_fc1",0,0,2,38)
    ShowMessage("\\n<Jessica>Just the opposite. Juska is my real name. I devised Justice Kaiser from my own name.")
    ShowMessageFace("justice_fc1",0,0,2,39)
    ShowMessage("\\n<Jessica>I was also considering June Skarlet but... well, it's all in the past.")
    0()
   EndIf()
   ShowMessageFace("justice_fc1",0,0,2,40)
   ShowMessage("\\n<Jessica>Well then, Justice Luka. I wish you fortune in battle.")
   If(0,6,0)
    ShowMessageFace("sonia_fc1",0,0,2,41)
    ShowMessage("\\n<Sonya>Well then, the troublesome case is resolved. Let's continue our journey to Sabasa.")
    0()
   EndIf()
   241(bytes(0x04,0x08,0x6f,0x3a,0x0d,0x52,0x50,0x47,0x3a,0x3a,0x42,0x47,0x4d,0x08,0x3a,0x0a,0x40,0x6e,0x61,0x6d,0x65,0x49,0x22,0x0a,0x6d,0x75,0x72,0x61,0x33,0x06,0x3a,0x06,0x45,0x54,0x3a,0x0c,0x40,0x76,0x6f,0x6c,0x75,0x6d,0x65,0x69,0x69,0x3a,0x0b,0x40,0x70,0x69,0x74,0x63,0x68,0x69,0x69))
   PictureClear(5)
   355("gain_medal(24)")
   EndEventProcessing()
   0()
  EndIf()
  If(1,1024,0,7,0)
   If(1,814,0,2,1)
    If(0,1557,1)
     ShowMessageFace("justice_fc1",0,0,2,42)
     ShowMessage("\\n<Jessica>It's not like me to rot in a place like this! The hero has to save the world!")
     ShowChoices(strings("Let her join","Decline for now"),0)
     IfPlayerPicksChoice(0,null)
      ShowMessageFace("justice_fc1",0,0,2,43)
      ShowMessage("\\n<Jessica>My fist of justice is for the sake o the world! HAa!!")
      PictureClear(5)
      205(0,bytes(0x04,0x08,0x6f,0x3a,0x13,0x52,0x50,0x47,0x3a,0x3a,0x4d,0x6f,0x76,0x65,0x52,0x6f,0x75,0x74,0x65,0x09,0x3a,0x0c,0x40,0x72,0x65,0x70,0x65,0x61,0x74,0x46,0x3a,0x0f,0x40,0x73,0x6b,0x69,0x70,0x70,0x61,0x62,0x6c,0x65,0x46,0x3a,0x0a,0x40,0x77,0x61,0x69,0x74,0x54,0x3a,0x0a,0x40,0x6c,0x69,0x73,0x74,0x5b,0x09,0x6f,0x3a,0x15,0x52,0x50,0x47,0x3a,0x3a,0x4d,0x6f,0x76,0x65,0x43,0x6f,0x6d,0x6d,0x61,0x6e,0x64,0x07,0x3a,0x0a,0x40,0x63,0x6f,0x64,0x65,0x69,0x2a,0x3a,0x10,0x40,0x70,0x61,0x72,0x61,0x6d,0x65,0x74,0x65,0x72,0x73,0x5b,0x00,0x6f,0x3b,0x0a,0x07,0x3b,0x0b,0x69,0x0f,0x3b,0x0c,0x5b,0x00,0x6f,0x3b,0x0a,0x07,0x3b,0x0b,0x69,0x2c,0x3b,0x0c,0x5b,0x00,0x6f,0x3b,0x0a,0x07,0x3b,0x0b,0x69,0x00,0x3b,0x0c,0x5b,0x00))
      355("add_actor_ex(557)")
      249(bytes(0x04,0x08,0x6f,0x3a,0x0c,0x52,0x50,0x47,0x3a,0x3a,0x4d,0x45,0x08,0x3a,0x0a,0x40,0x6e,0x61,0x6d,0x65,0x49,0x22,0x0c,0x66,0x61,0x6e,0x66,0x61,0x6c,0x65,0x06,0x3a,0x06,0x45,0x54,0x3a,0x0b,0x40,0x70,0x69,0x74,0x63,0x68,0x69,0x69,0x3a,0x0c,0x40,0x76,0x6f,0x6c,0x75,0x6d,0x65,0x69,0x69))
      ShowMessageFace("",0,0,2,44)
      ShowMessage("Juska has entered the party!")
      Wait(60)
      241(bytes(0x04,0x08,0x6f,0x3a,0x0d,0x52,0x50,0x47,0x3a,0x3a,0x42,0x47,0x4d,0x08,0x3a,0x0a,0x40,0x6e,0x61,0x6d,0x65,0x49,0x22,0x0a,0x6d,0x75,0x72,0x61,0x33,0x06,0x3a,0x06,0x45,0x54,0x3a,0x0c,0x40,0x76,0x6f,0x6c,0x75,0x6d,0x65,0x69,0x69,0x3a,0x0b,0x40,0x70,0x69,0x74,0x63,0x68,0x69,0x69))
      EndEventProcessing()
      0()
     IfPlayerPicksChoice(1,null)
      ShowMessageFace("justice_fc1",0,0,2,45)
      ShowMessage("\\n<Jessica>It's no time to be daunted!")
      0()
     404()
     0()
    EndIf()
    0()
   EndIf()
   ShowMessageFace("justice_fc1",0,0,2,46)
   ShowMessage("\\n<Justice Kaiser>Your justice is unclouded as always. Justice Luka, do you need anything from me?")
   ShowChoices(strings("'Justice Hero' job description","Challenge to Battle Fuck","Nothing"),3)
   IfPlayerPicksChoice(0,null)
    ShowMessageFace("justice_fc1",0,0,2,47)
    ShowMessage("\\n<Justice Kaiser>The 'Hero of Justice' normally has low stats. It also doesn't have any special skills and isn't too dependable...")
    ShowMessageFace("justice_fc1",0,0,2,48)
    ShowMessage("\\n<Justice Kaiser>But if one uses SP to 'Transform'... all stats increase explosively!")
    ShowMessageFace("justice_fc1",0,0,2,49)
    ShowMessage("\\n<Justice Kaiser>Moreover, when transformed you can use 'Justice'! They're powerful finishing moves so use them to sweep down evil!")
    ShowMessageFace("justice_fc1",0,0,2,50)
    ShowMessage("\\n<Justice Kaiser>After several turns transformation will be naturally released and you will go back to mediocre statistic again so be careful.")
    ShowMessageFace("justice_fc1",0,0,2,51)
    ShowMessage("\\n<Justice Kaiser>Do you understand now how does a hero fight? Don't miss the timing when you transform and reliably make the victory yours.")
    241(bytes(0x04,0x08,0x6f,0x3a,0x0d,0x52,0x50,0x47,0x3a,0x3a,0x42,0x47,0x4d,0x08,0x3a,0x0a,0x40,0x6e,0x61,0x6d,0x65,0x49,0x22,0x0a,0x6d,0x75,0x72,0x61,0x33,0x06,0x3a,0x06,0x45,0x54,0x3a,0x0c,0x40,0x76,0x6f,0x6c,0x75,0x6d,0x65,0x69,0x69,0x3a,0x0b,0x40,0x70,0x69,0x74,0x63,0x68,0x69,0x69))
    PictureClear(5)
    EndEventProcessing()
    0()
   IfPlayerPicksChoice(1,null)
    RunCommonEvent(7131)
    0()
   IfPlayerPicksChoice(2,null)
    241(bytes(0x04,0x08,0x6f,0x3a,0x0d,0x52,0x50,0x47,0x3a,0x3a,0x42,0x47,0x4d,0x08,0x3a,0x0a,0x40,0x6e,0x61,0x6d,0x65,0x49,0x22,0x0a,0x6d,0x75,0x72,0x61,0x33,0x06,0x3a,0x06,0x45,0x54,0x3a,0x0c,0x40,0x76,0x6f,0x6c,0x75,0x6d,0x65,0x69,0x69,0x3a,0x0b,0x40,0x70,0x69,0x74,0x63,0x68,0x69,0x69))
    PictureClear(5)
    EndEventProcessing()
    0()
   404()
   0()
  EndIf()
  0()
 PAGE   2
  // condition: party contains actor #557
  0()



EVENT   14
 PAGE   1
  ShowMessageFace("Actor4",2,0,2,1)
  ShowMessage("\\n<Terence>Mmm... Main Gauche you say?")
  ShowMessageFace("Actor4",0,0,2,2)
  ShowMessage("\\n<Eric>You know of it, Terence?!")
  ShowMessageFace("Actor4",2,0,2,3)
  ShowMessage("\\n<Terence>It has a special structure allowing it to receive enemy's attacks, a valuable dagger increasing your evasion rate... that's Main Gauche.")
  ShowMessageFace("Actor4",2,0,2,4)
  ShowMessage("\\n<Terence>However, their crafting process is lost now and they're no longer for sale. If you get one, you better take care of it.")
  ShowMessageFace("Actor4",2,0,2,5)
  ShowMessage("\\n<Terence>Take note of it when you go to the blacksmith with materials. If remodelled, this weapon can become very powerful...")
  ShowMessageFace("Actor4",2,0,2,6)
  ShowMessage("\\n<Terence>I heard it can be improved by filling with power of wind or poisoned. Depending on whether you choose wind or poison, the final form of the weapon will be decided.")
  ShowMessageFace("Actor4",2,0,2,7)
  ShowMessage("\\n<Terence>Apparently you can fill it with power of wind in this shop but... if you do that, the path to improving with poison will be closed.")
  ShowMessageFace("Actor4",2,0,2,8)
  ShowMessage("\\n<Terence>You need to think whether you want to synthesize Main Gauche here. Think of the final form when you're deciding whether to synthesize it.")
  ShowMessageFace("Actor4",2,0,2,9)
  ShowMessage("\\n<Terence>By the way, this is only for reference but... against evil enemies wind is better and against holy enemies, poison would be better.")
  ShowMessageFace("Actor4",0,0,2,10)
  ShowMessage("\\n<Eric>All right, I'll synthesize it after thinking about it well! ...but, we don't have a Main Gauche!")
  ShowMessageFace("Actor4",2,0,2,11)
  ShowMessage("\\n<Terence>A few hundreds years ago they were rare and valuable. At the time, many skilled warriors had them.")
  ShowMessageFace("Actor4",2,0,2,12)
  ShowMessage("\\n<Terence>These warriors are either in their graves... or are still walking on this world, embracing their regrets.")
  355("actor_label_jump")
  EndEventProcessing()
  DefineLabel("95")
  ShowMessageFace("delh_a_fc1",0,0,2,13)
  ShowMessage("\\n<Lona>'m on the younger side among elves so... unfortunately, I don't know about any.")
  EndEventProcessing()
  DefineLabel("132")
  ShowMessageFace("zonbe_fc2",0,0,2,14)
  ShowMessage("\\n<Eri>......")
  EndEventProcessing()
  0()
 PAGE   2
  // condition: party contains actor #564
  ShowMessageFace("Actor4",2,0,2,1)
  ShowMessage("\\n<John>...Brother?")
  ShowMessageFace("Actor4",2,0,2,2)
  ShowMessage("\\n<Terence>Oh, John. How's your work as Knight Leader?")
  ShowMessageFace("Actor4",2,0,2,3)
  ShowMessage("\\n<John>For reasons I'm now traveling the world now. I'm glad you're in good health, brother.")
  ShowMessageFace("Actor4",2,0,2,4)
  ShowMessage("\\n<Terence>Good grief, you're the best of our brothers. If you meet others tell them my regards.")
  ShowMessageFace("Actor4",2,0,2,5)
  ShowMessage("\\n<John>Yes, be take care of yourself Brother.")
  ShowMessageFace("ruka_fc1",0,0,2,6)
  ShowMessage("\\n<Luka>He's a spitting image of you...")
  ShowMessageFace("Actor4",2,0,2,7)
  ShowMessage("\\n<John>I have seven older brothers, all of them look the same. Even our parents couldn't distinguish us.")
  0()



EVENT   49
 PAGE   1
  If(1,1005,0,12,0)
   If(4,66,0)
    If(0,2065,0)
     If(0,2104,0)
      ShowMessageFace("vgirl_fc1",0,0,2,1)
      ShowMessage("\\n<Vanilla>Nice to meet you, I am Vanilla the merchant. I'd like to sell the same items than you...")
      ShowMessageFace("",0,0,2,2)
      ShowMessage("\\n<Elka>If it's a request from a friend of Lazarus... but I won't let myself be exploited!")
      ShowMessageFace("vgirl_fc1",0,0,2,3)
      ShowMessage("\\n<Vanilla>Of course, we shall...")
      ShowMessageFace("",0,0,2,4)
      ShowMessage("Vanilla negotiates an arrangement with Elka. The business experience she's gained so far really shows.")
      ShowMessageFace("",0,0,2,5)
      ShowMessage("\\n<Elka>OK, let's go with that. I would make it much more expensive if you weren't acquainted with Lazarus!")
      ShowMessageFace("vgirl_fc1",0,0,2,6)
      ShowMessage("\\n<Vanilla>Thank you very much! I look forward to dealing with you more in the future!")
      249(bytes(0x04,0x08,0x6f,0x3a,0x0c,0x52,0x50,0x47,0x3a,0x3a,0x4d,0x45,0x08,0x3a,0x0a,0x40,0x6e,0x61,0x6d,0x65,0x49,0x22,0x0c,0x66,0x61,0x6e,0x66,0x61,0x6c,0x65,0x06,0x3a,0x06,0x45,0x54,0x3a,0x0b,0x40,0x70,0x69,0x74,0x63,0x68,0x69,0x69,0x3a,0x0c,0x40,0x76,0x6f,0x6c,0x75,0x6d,0x65,0x69,0x69))
      ShowMessageFace("",0,0,2,7)
      ShowMessage("Vanilla can now sell high class medicinal plants at her shop!")
      ChangeVariable(1005,1005,0,0,13)
      ChangeSwitch(2065,2065,1)
      Wait(60)
      EndEventProcessing()
      0()
     EndIf()
     0()
    EndIf()
    0()
   EndIf()
   0()
  EndIf()
  If(4,557,0)
   ShowMessageFace("",0,0,2,8)
   ShowMessage("\\n<Elka>Juska... you're still doing that at your age? How about you graduate already...?")
   ShowMessageFace("justice_fc1",1,0,2,9)
   ShowMessage("\\n<Jessica>Same to you, you're still playing a villain at your age!")
   ShowMessageFace("",0,0,2,10)
   ShowMessage("\\n<Elka>You can earn money as a villain... and, does that hobby of yours earn you money?")
   ShowMessageFace("justice_fc1",1,0,2,11)
   ShowMessage("\\n<Jessica>......")
   ShowMessageFace("",0,0,2,12)
   ShowMessage("\\n<Elka>If that game of yours is aimed at me then stop it right away. There's no need for your life as well to turn shit...")
   ShowMessageFace("justice_fc1",0,0,2,13)
   ShowMessage("\\n<Jessica>This is my way of life! Unlike you, I'm saving countless people free of charge!")
   ShowMessageFace("",0,0,2,14)
   ShowMessage("\\n<Elka>...hero, please take care of this bothersome woman. As you can see she's a dumbass, but she's certainly skilled.")
   EndEventProcessing()
   0()
  EndIf()
  If(1,1025,0,0,0)
   ChangeVariable(1025,1025,0,0,1)
   ShowMessageFace("",0,0,2,15)
   ShowMessage("\\n<Elka>The economy's been great recently... because war is intensifying there's an increased demand for goods.")
   ShowMessageFace("",0,0,2,16)
   ShowMessage("\\n<Elka>Kuku... are you suspecting the company is pulling the strings behind the war? That's only something a third-rate novel can afford doing.")
   ShowMessageFace("",0,0,2,17)
   ShowMessage("\\n<Elka>War is a living creature. It can't be conveniently manipulated, you never know when you'll get lucky.")
   ShowMessageFace("",0,0,2,18)
   ShowMessage("\\n<Elka>More stable business is more suitable for long term. We're doing better because of war now, but there's no knowing what's ahead.")
   ShowMessageFace("",0,0,2,19)
   ShowMessage("\\n<Elka>If war spreads, it'll have serious impact on distribution... even the underside of the society is the same in wanting the war to quickly end.")
   If(4,66,0)
    ShowMessageFace("vgirl_fc1",0,0,2,20)
    ShowMessage("\\n<Vanilla>I see, that's great to know!")
    0()
   EndIf()
   EndEventProcessing()
   0()
  EndIf()
  If(1,1025,0,1,1)
   ChangeVariable(1025,1025,0,0,2)
   ShowMessageFace("",0,0,2,21)
   ShowMessage("\\n<Elka>The rumor that we're masterminds behind the war is just a conspiracy theory. A narrow-minded delusion of people who don't look at the world.")
   ShowMessageFace("",0,0,2,22)
   ShowMessage("\\n<Elka>About the conspiracy theories y'know... very often their advocates mistake them for authority, ultimately they're singled out and made example of.")
   ShowMessageFace("",0,0,2,23)
   ShowMessage("\\n<Elka>Well, it's something like a complex. That kind of thing also can become a way to make a living for villains.")
   If(4,531,0)
    ShowMessageFace("saniria_fc2",0,0,2,24)
    ShowMessage("\\n<King of San Ilia>Certainly, you aren't wrong... the church also very often arrests conspiracists to make an example of them.")
    If(0,6,0)
     ShowMessageFace("sonia_fc4",0,0,2,25)
     ShowMessage("\\n<Sonya>Wearing holy robe and looking like that... I don't think it's proper to talk about conspiracies and highly classified information.")
     0()
    EndIf()
    0()
   EndIf()
   EndEventProcessing()
   0()
  EndIf()
  0()
