//See the lines I was unsure of below:
//1950-1959
//1802
//587
//716 (Look through?)
//1091-1093

EVENT   6
 PAGE   1
  281(1)
  250(bytes(0x04,0x08,0x6f,0x3a,0x0c,0x52,0x50,0x47,0x3a,0x3a,0x53,0x45,0x08,0x3a,0x0a,0x40,0x6e,0x61,0x6d,0x65,0x49,0x22,0x09,0x4d,0x6f,0x76,0x65,0x06,0x3a,0x06,0x45,0x54,0x3a,0x0b,0x40,0x70,0x69,0x74,0x63,0x68,0x69,0x69,0x3a,0x0c,0x40,0x76,0x6f,0x6c,0x75,0x6d,0x65,0x69,0x55))
  TeleportPlayer(0,476,60,71,2,0)
  0()



EVENT   13
 PAGE   1
  If(6,-1,2)
   250(bytes(0x04,0x08,0x6f,0x3a,0x0c,0x52,0x50,0x47,0x3a,0x3a,0x53,0x45,0x08,0x3a,0x0a,0x40,0x6e,0x61,0x6d,0x65,0x49,0x22,0x09,0x4d,0x6f,0x76,0x65,0x06,0x3a,0x06,0x45,0x54,0x3a,0x0b,0x40,0x70,0x69,0x74,0x63,0x68,0x69,0x69,0x3a,0x0c,0x40,0x76,0x6f,0x6c,0x75,0x6d,0x65,0x69,0x55))
   TeleportPlayer(0,477,107,44,0,0)
   0()
  EndIf()
  0()



EVENT   25
 PAGE   1
  If(6,-1,2)
   250(bytes(0x04,0x08,0x6f,0x3a,0x0c,0x52,0x50,0x47,0x3a,0x3a,0x53,0x45,0x08,0x3a,0x0a,0x40,0x6e,0x61,0x6d,0x65,0x49,0x22,0x09,0x4d,0x6f,0x76,0x65,0x06,0x3a,0x06,0x45,0x54,0x3a,0x0b,0x40,0x70,0x69,0x74,0x63,0x68,0x69,0x69,0x3a,0x0c,0x40,0x76,0x6f,0x6c,0x75,0x6d,0x65,0x69,0x55))
   TeleportPlayer(0,477,28,87,0,0)
   0()
  EndIf()
  0()



EVENT   34
 PAGE   1
  250(bytes(0x04,0x08,0x6f,0x3a,0x0c,0x52,0x50,0x47,0x3a,0x3a,0x53,0x45,0x08,0x3a,0x0a,0x40,0x6e,0x61,0x6d,0x65,0x49,0x22,0x09,0x4d,0x6f,0x76,0x65,0x06,0x3a,0x06,0x45,0x54,0x3a,0x0b,0x40,0x70,0x69,0x74,0x63,0x68,0x69,0x69,0x3a,0x0c,0x40,0x76,0x6f,0x6c,0x75,0x6d,0x65,0x69,0x55))
  TeleportPlayer(0,477,98,84,0,0)
  0()



EVENT   4
 PAGE   1
  281(1)
  250(bytes(0x04,0x08,0x6f,0x3a,0x0c,0x52,0x50,0x47,0x3a,0x3a,0x53,0x45,0x08,0x3a,0x0a,0x40,0x6e,0x61,0x6d,0x65,0x49,0x22,0x09,0x4d,0x6f,0x76,0x65,0x06,0x3a,0x06,0x45,0x54,0x3a,0x0b,0x40,0x70,0x69,0x74,0x63,0x68,0x69,0x69,0x3a,0x0c,0x40,0x76,0x6f,0x6c,0x75,0x6d,0x65,0x69,0x55))
  TeleportPlayer(0,476,16,43,0,0)
  0()



EVENT   3
 PAGE   1
  281(1)
  250(bytes(0x04,0x08,0x6f,0x3a,0x0c,0x52,0x50,0x47,0x3a,0x3a,0x53,0x45,0x08,0x3a,0x0a,0x40,0x6e,0x61,0x6d,0x65,0x49,0x22,0x09,0x4d,0x6f,0x76,0x65,0x06,0x3a,0x06,0x45,0x54,0x3a,0x0b,0x40,0x70,0x69,0x74,0x63,0x68,0x69,0x69,0x3a,0x0c,0x40,0x76,0x6f,0x6c,0x75,0x6d,0x65,0x69,0x55))
  TeleportPlayer(0,476,23,72,0,0)
  0()



EVENT   5
 PAGE   1
  281(1)
  250(bytes(0x04,0x08,0x6f,0x3a,0x0c,0x52,0x50,0x47,0x3a,0x3a,0x53,0x45,0x08,0x3a,0x0a,0x40,0x6e,0x61,0x6d,0x65,0x49,0x22,0x09,0x4d,0x6f,0x76,0x65,0x06,0x3a,0x06,0x45,0x54,0x3a,0x0b,0x40,0x70,0x69,0x74,0x63,0x68,0x69,0x69,0x3a,0x0c,0x40,0x76,0x6f,0x6c,0x75,0x6d,0x65,0x69,0x55))
  TeleportPlayer(0,476,47,70,0,0)
  0()



EVENT   2
 PAGE   1
  281(1)
  250(bytes(0x04,0x08,0x6f,0x3a,0x0c,0x52,0x50,0x47,0x3a,0x3a,0x53,0x45,0x08,0x3a,0x0a,0x40,0x6e,0x61,0x6d,0x65,0x49,0x22,0x09,0x4d,0x6f,0x76,0x65,0x06,0x3a,0x06,0x45,0x54,0x3a,0x0b,0x40,0x70,0x69,0x74,0x63,0x68,0x69,0x69,0x3a,0x0c,0x40,0x76,0x6f,0x6c,0x75,0x6d,0x65,0x69,0x55))
  TeleportPlayer(0,476,46,44,0,0)
  0()



EVENT   1
 PAGE   1
  281(1)
  250(bytes(0x04,0x08,0x6f,0x3a,0x0c,0x52,0x50,0x47,0x3a,0x3a,0x53,0x45,0x08,0x3a,0x0a,0x40,0x6e,0x61,0x6d,0x65,0x49,0x22,0x09,0x4d,0x6f,0x76,0x65,0x06,0x3a,0x06,0x45,0x54,0x3a,0x0b,0x40,0x70,0x69,0x74,0x63,0x68,0x69,0x69,0x3a,0x0c,0x40,0x76,0x6f,0x6c,0x75,0x6d,0x65,0x69,0x55))
  TeleportPlayer(0,476,65,44,0,0)
  0()



EVENT   7
 PAGE   1
  281(1)
  250(bytes(0x04,0x08,0x6f,0x3a,0x0c,0x52,0x50,0x47,0x3a,0x3a,0x53,0x45,0x08,0x3a,0x0a,0x40,0x6e,0x61,0x6d,0x65,0x49,0x22,0x09,0x4d,0x6f,0x76,0x65,0x06,0x3a,0x06,0x45,0x54,0x3a,0x0b,0x40,0x70,0x69,0x74,0x63,0x68,0x69,0x69,0x3a,0x0c,0x40,0x76,0x6f,0x6c,0x75,0x6d,0x65,0x69,0x55))
  TeleportPlayer(0,476,63,17,0,0)
  0()



EVENT   8
 PAGE   1
  281(1)
  250(bytes(0x04,0x08,0x6f,0x3a,0x0c,0x52,0x50,0x47,0x3a,0x3a,0x53,0x45,0x08,0x3a,0x0a,0x40,0x6e,0x61,0x6d,0x65,0x49,0x22,0x09,0x4d,0x6f,0x76,0x65,0x06,0x3a,0x06,0x45,0x54,0x3a,0x0b,0x40,0x70,0x69,0x74,0x63,0x68,0x69,0x69,0x3a,0x0c,0x40,0x76,0x6f,0x6c,0x75,0x6d,0x65,0x69,0x55))
  TeleportPlayer(0,476,37,19,0,0)
  0()



EVENT   9
 PAGE   1
  281(1)
  250(bytes(0x04,0x08,0x6f,0x3a,0x0c,0x52,0x50,0x47,0x3a,0x3a,0x53,0x45,0x08,0x3a,0x0a,0x40,0x6e,0x61,0x6d,0x65,0x49,0x22,0x09,0x4d,0x6f,0x76,0x65,0x06,0x3a,0x06,0x45,0x54,0x3a,0x0b,0x40,0x70,0x69,0x74,0x63,0x68,0x69,0x69,0x3a,0x0c,0x40,0x76,0x6f,0x6c,0x75,0x6d,0x65,0x69,0x55))
  TeleportPlayer(0,476,54,17,0,0)
  0()



EVENT   18
 PAGE   1
  If(6,-1,8)
   250(bytes(0x04,0x08,0x6f,0x3a,0x0c,0x52,0x50,0x47,0x3a,0x3a,0x53,0x45,0x08,0x3a,0x0a,0x40,0x6e,0x61,0x6d,0x65,0x49,0x22,0x09,0x4d,0x6f,0x76,0x65,0x06,0x3a,0x06,0x45,0x54,0x3a,0x0b,0x40,0x70,0x69,0x74,0x63,0x68,0x69,0x69,0x3a,0x0c,0x40,0x76,0x6f,0x6c,0x75,0x6d,0x65,0x69,0x55))
   TeleportPlayer(0,477,18,55,0,0)
   0()
  EndIf()
  0()



EVENT   19
 PAGE   1
  If(6,-1,8)
   250(bytes(0x04,0x08,0x6f,0x3a,0x0c,0x52,0x50,0x47,0x3a,0x3a,0x53,0x45,0x08,0x3a,0x0a,0x40,0x6e,0x61,0x6d,0x65,0x49,0x22,0x09,0x4d,0x6f,0x76,0x65,0x06,0x3a,0x06,0x45,0x54,0x3a,0x0b,0x40,0x70,0x69,0x74,0x63,0x68,0x69,0x69,0x3a,0x0c,0x40,0x76,0x6f,0x6c,0x75,0x6d,0x65,0x69,0x55))
   TeleportPlayer(0,477,18,55,0,0)
   0()
  EndIf()
  0()



EVENT   20
 PAGE   1
  If(6,-1,8)
   250(bytes(0x04,0x08,0x6f,0x3a,0x0c,0x52,0x50,0x47,0x3a,0x3a,0x53,0x45,0x08,0x3a,0x0a,0x40,0x6e,0x61,0x6d,0x65,0x49,0x22,0x09,0x4d,0x6f,0x76,0x65,0x06,0x3a,0x06,0x45,0x54,0x3a,0x0b,0x40,0x70,0x69,0x74,0x63,0x68,0x69,0x69,0x3a,0x0c,0x40,0x76,0x6f,0x6c,0x75,0x6d,0x65,0x69,0x55))
   TeleportPlayer(0,477,18,55,0,0)
   0()
  EndIf()
  0()



EVENT   10
 PAGE   1
  If(6,-1,2)
   250(bytes(0x04,0x08,0x6f,0x3a,0x0c,0x52,0x50,0x47,0x3a,0x3a,0x53,0x45,0x08,0x3a,0x0a,0x40,0x6e,0x61,0x6d,0x65,0x49,0x22,0x09,0x4d,0x6f,0x76,0x65,0x06,0x3a,0x06,0x45,0x54,0x3a,0x0b,0x40,0x70,0x69,0x74,0x63,0x68,0x69,0x69,0x3a,0x0c,0x40,0x76,0x6f,0x6c,0x75,0x6d,0x65,0x69,0x55))
   TeleportPlayer(0,477,28,87,0,0)
   0()
  EndIf()
  0()



EVENT   17
 PAGE   1
  If(6,-1,2)
   250(bytes(0x04,0x08,0x6f,0x3a,0x0c,0x52,0x50,0x47,0x3a,0x3a,0x53,0x45,0x08,0x3a,0x0a,0x40,0x6e,0x61,0x6d,0x65,0x49,0x22,0x09,0x4d,0x6f,0x76,0x65,0x06,0x3a,0x06,0x45,0x54,0x3a,0x0b,0x40,0x70,0x69,0x74,0x63,0x68,0x69,0x69,0x3a,0x0c,0x40,0x76,0x6f,0x6c,0x75,0x6d,0x65,0x69,0x55))
   TeleportPlayer(0,477,28,87,0,0)
   0()
  EndIf()
  0()



EVENT   21
 PAGE   1
  If(6,-1,8)
   250(bytes(0x04,0x08,0x6f,0x3a,0x0c,0x52,0x50,0x47,0x3a,0x3a,0x53,0x45,0x08,0x3a,0x0a,0x40,0x6e,0x61,0x6d,0x65,0x49,0x22,0x09,0x4d,0x6f,0x76,0x65,0x06,0x3a,0x06,0x45,0x54,0x3a,0x0b,0x40,0x70,0x69,0x74,0x63,0x68,0x69,0x69,0x3a,0x0c,0x40,0x76,0x6f,0x6c,0x75,0x6d,0x65,0x69,0x55))
   TeleportPlayer(0,477,144,56,0,0)
   0()
  EndIf()
  0()



EVENT   22
 PAGE   1
  If(6,-1,8)
   250(bytes(0x04,0x08,0x6f,0x3a,0x0c,0x52,0x50,0x47,0x3a,0x3a,0x53,0x45,0x08,0x3a,0x0a,0x40,0x6e,0x61,0x6d,0x65,0x49,0x22,0x09,0x4d,0x6f,0x76,0x65,0x06,0x3a,0x06,0x45,0x54,0x3a,0x0b,0x40,0x70,0x69,0x74,0x63,0x68,0x69,0x69,0x3a,0x0c,0x40,0x76,0x6f,0x6c,0x75,0x6d,0x65,0x69,0x55))
   TeleportPlayer(0,477,144,56,0,0)
   0()
  EndIf()
  0()



EVENT   23
 PAGE   1
  If(6,-1,8)
   250(bytes(0x04,0x08,0x6f,0x3a,0x0c,0x52,0x50,0x47,0x3a,0x3a,0x53,0x45,0x08,0x3a,0x0a,0x40,0x6e,0x61,0x6d,0x65,0x49,0x22,0x09,0x4d,0x6f,0x76,0x65,0x06,0x3a,0x06,0x45,0x54,0x3a,0x0b,0x40,0x70,0x69,0x74,0x63,0x68,0x69,0x69,0x3a,0x0c,0x40,0x76,0x6f,0x6c,0x75,0x6d,0x65,0x69,0x55))
   TeleportPlayer(0,477,144,56,0,0)
   0()
  EndIf()
  0()



EVENT   11
 PAGE   1
  If(6,-1,2)
   250(bytes(0x04,0x08,0x6f,0x3a,0x0c,0x52,0x50,0x47,0x3a,0x3a,0x53,0x45,0x08,0x3a,0x0a,0x40,0x6e,0x61,0x6d,0x65,0x49,0x22,0x09,0x4d,0x6f,0x76,0x65,0x06,0x3a,0x06,0x45,0x54,0x3a,0x0b,0x40,0x70,0x69,0x74,0x63,0x68,0x69,0x69,0x3a,0x0c,0x40,0x76,0x6f,0x6c,0x75,0x6d,0x65,0x69,0x55))
   TeleportPlayer(0,477,107,44,0,0)
   0()
  EndIf()
  0()



EVENT   12
 PAGE   1
  If(6,-1,2)
   250(bytes(0x04,0x08,0x6f,0x3a,0x0c,0x52,0x50,0x47,0x3a,0x3a,0x53,0x45,0x08,0x3a,0x0a,0x40,0x6e,0x61,0x6d,0x65,0x49,0x22,0x09,0x4d,0x6f,0x76,0x65,0x06,0x3a,0x06,0x45,0x54,0x3a,0x0b,0x40,0x70,0x69,0x74,0x63,0x68,0x69,0x69,0x3a,0x0c,0x40,0x76,0x6f,0x6c,0x75,0x6d,0x65,0x69,0x55))
   TeleportPlayer(0,477,107,44,0,0)
   0()
  EndIf()
  0()



EVENT   14
 PAGE   1
  250(bytes(0x04,0x08,0x6f,0x3a,0x0c,0x52,0x50,0x47,0x3a,0x3a,0x53,0x45,0x08,0x3a,0x0a,0x40,0x6e,0x61,0x6d,0x65,0x49,0x22,0x09,0x4d,0x6f,0x76,0x65,0x06,0x3a,0x06,0x45,0x54,0x3a,0x0b,0x40,0x70,0x69,0x74,0x63,0x68,0x69,0x69,0x3a,0x0c,0x40,0x76,0x6f,0x6c,0x75,0x6d,0x65,0x69,0x55))
  TeleportPlayer(0,477,133,86,0,0)
  0()



EVENT   15
 PAGE   1
  250(bytes(0x04,0x08,0x6f,0x3a,0x0c,0x52,0x50,0x47,0x3a,0x3a,0x53,0x45,0x08,0x3a,0x0a,0x40,0x6e,0x61,0x6d,0x65,0x49,0x22,0x09,0x4d,0x6f,0x76,0x65,0x06,0x3a,0x06,0x45,0x54,0x3a,0x0b,0x40,0x70,0x69,0x74,0x63,0x68,0x69,0x69,0x3a,0x0c,0x40,0x76,0x6f,0x6c,0x75,0x6d,0x65,0x69,0x55))
  TeleportPlayer(0,477,133,86,0,0)
  0()



EVENT   16
 PAGE   1
  250(bytes(0x04,0x08,0x6f,0x3a,0x0c,0x52,0x50,0x47,0x3a,0x3a,0x53,0x45,0x08,0x3a,0x0a,0x40,0x6e,0x61,0x6d,0x65,0x49,0x22,0x09,0x4d,0x6f,0x76,0x65,0x06,0x3a,0x06,0x45,0x54,0x3a,0x0b,0x40,0x70,0x69,0x74,0x63,0x68,0x69,0x69,0x3a,0x0c,0x40,0x76,0x6f,0x6c,0x75,0x6d,0x65,0x69,0x55))
  TeleportPlayer(0,477,133,86,0,0)
  0()



EVENT   24
 PAGE   1
  250(bytes(0x04,0x08,0x6f,0x3a,0x0c,0x52,0x50,0x47,0x3a,0x3a,0x53,0x45,0x08,0x3a,0x0a,0x40,0x6e,0x61,0x6d,0x65,0x49,0x22,0x09,0x4d,0x6f,0x76,0x65,0x06,0x3a,0x06,0x45,0x54,0x3a,0x0b,0x40,0x70,0x69,0x74,0x63,0x68,0x69,0x69,0x3a,0x0c,0x40,0x76,0x6f,0x6c,0x75,0x6d,0x65,0x69,0x55))
  TeleportPlayer(0,477,98,84,0,0)
  0()



EVENT   26
 PAGE   1
  250(bytes(0x04,0x08,0x6f,0x3a,0x0c,0x52,0x50,0x47,0x3a,0x3a,0x53,0x45,0x08,0x3a,0x0a,0x40,0x6e,0x61,0x6d,0x65,0x49,0x22,0x09,0x4d,0x6f,0x76,0x65,0x06,0x3a,0x06,0x45,0x54,0x3a,0x0b,0x40,0x70,0x69,0x74,0x63,0x68,0x69,0x69,0x3a,0x0c,0x40,0x76,0x6f,0x6c,0x75,0x6d,0x65,0x69,0x55))
  TeleportPlayer(0,477,98,84,0,0)
  0()



EVENT   27
 PAGE   1
  281(1)
  250(bytes(0x04,0x08,0x6f,0x3a,0x0c,0x52,0x50,0x47,0x3a,0x3a,0x53,0x45,0x08,0x3a,0x0a,0x40,0x6e,0x61,0x6d,0x65,0x49,0x22,0x09,0x4d,0x6f,0x76,0x65,0x06,0x3a,0x06,0x45,0x54,0x3a,0x0b,0x40,0x70,0x69,0x74,0x63,0x68,0x69,0x69,0x3a,0x0c,0x40,0x76,0x6f,0x6c,0x75,0x6d,0x65,0x69,0x55))
  TeleportPlayer(0,476,62,39,0,0)
  0()



EVENT   29
 PAGE   1
  ShowMessageFace("",0,0,2,1)
  ShowMessage("\\n<Storekeeper's Daughter>Welcome! How about a set of armor you'll feel safe in?")
  Shop(2,7,0,0,false)
  605(2,23,0,0)
  605(2,75,0,0)
  605(2,127,0,0)
  605(2,185,0,0)
  605(2,206,0,0)
  605(2,302,0,0)
  0()



EVENT   30
 PAGE   1
  ShowMessageFace("",0,0,2,1)
  ShowMessage("\\n<Blacksmith>Little one, you've got a good eye. Now, what do you need from me?")
  355("call_synthesize(11)")
  0()



EVENT   32
 PAGE   1
  ChangeSwitch(2122,2122,0)
  ShowMessageFace("",0,0,2,1)
  ShowMessage("\\n<Merchant>On the desert, your stock of items decides either your life or death. Make sure to buy lots at our shop!")
  Shop(0,2,0,0,false)
  605(0,7,0,0)
  605(0,11,0,0)
  605(0,13,0,0)
  605(0,14,0,0)
  605(0,15,0,0)
  605(0,16,0,0)
  605(0,17,0,0)
  605(0,18,0,0)
  605(0,19,0,0)
  605(0,23,0,0)
  605(0,35,0,0)
  605(0,102,0,0)
  0()



EVENT   39
 PAGE   1
  If(1,1028,0,1,0)
   ChangeVariable(1028,1028,0,0,2)
   0()
  EndIf()
  If(1,1028,0,7,2)
   ShowMessageFace("",0,0,2,1)
   ShowMessage("\\n<Knight>The Assassin group's leader that the Queen fired is called Salaan. There's a rumor that she's plotting to assassinate the Queen.")
   ShowMessageFace("",0,0,2,2)
   ShowMessage("\\n<Knight>But that's just a hoax. That Assassin group has served the Kings of Sabasa for generations, their loyalty is absolutely unmatched.")
   ShowMessageFace("",0,0,2,3)
   ShowMessage("\\n<Knight>However, they say that Salaan is investigating the Queen's sudden change. The rumors of assassination must have originated from that.")
   If(1,1028,0,2,0)
    If(0,4,0)
     ShowMessageFace("alice_fc5",0,0,2,4)
     ShowMessage("\\n<Alice>The Assassin group's leader is called Salaan... She might have information of use to use.")
     0()
    EndIf()
    If(0,5,0)
     ShowMessageFace("iriasu_fc4",0,0,2,5)
     ShowMessage("\\n<Ilias>The Assassin group's leader, Salaan... She may have the information on the Queen that we seek.")
     0()
    EndIf()
    0()
   EndIf()
   EndEventProcessing()
   0()
  EndIf()
  If(1,1028,0,8,0)
   ShowMessageFace("",0,0,2,6)
   ShowMessage("\\n<Knight>We must praise Salaan's loyalty. Despite being accused and exiled, she has continued to move in the shadows for the Queen's sake...")
   ShowMessageFace("",0,0,2,7)
   ShowMessage("\\n<Knight>Of course, all of you are the ones who returned the Queens sanity. As one of Sabasa's citizens, I thank you from the bottom of my heart.")
   EndEventProcessing()
   0()
  EndIf()
  0()



EVENT   28
 PAGE   1
  ShowMessageFace("",0,0,2,1)
  ShowMessage("\\n<Shopkeeper>Welcome, Sabasa's weapons are top-notch. See for yourself.")
  Shop(1,14,0,0,false)
  605(1,94,0,0)
  605(1,215,0,0)
  605(1,304,0,0)
  605(1,374,0,0)
  605(1,484,0,0)
  605(1,522,0,0)
  605(1,563,0,0)
  605(1,598,0,0)
  605(1,670,0,0)
  605(1,896,0,0)
  0()



EVENT   33
 PAGE   1
  ShowMessageFace("",0,0,2,1)
  ShowMessage("\\n<Shopkeeper's Wife>How about some accessories? Our accessories will increase your base stats.")
  Shop(2,1002,0,0,false)
  605(2,1007,0,0)
  605(2,1012,0,0)
  605(2,1017,0,0)
  605(2,1022,0,0)
  605(2,1027,0,0)
  605(2,1032,0,0)
  605(2,1037,0,0)
  605(2,1042,0,0)
  0()



EVENT   41
 PAGE   1
  ChangeSelfSwitch("A",0)
  If(0,6,0)
   ShowMessageFace("sonia_fc2",2,0,2,1)
   ShowMessage("\\n<Sonya>This is quite simple... Or rather, a sloppy room. So she was living in a place like this...")
   0()
  Else()
   ShowMessageFace("ruka_fc1",0,0,2,2)
   ShowMessage("\\n<Luka>This is quite a simple...No, more like sloppy home. Why would someone like her be living in a place like this?")
   0()
  EndIf()
  If(0,4,0)
   ShowMessageFace("alice_fc5",0,0,2,3)
   ShowMessage("\\n<Alice>Something might be here. Let's look around.")
   0()
  EndIf()
  If(0,5,0)
   ShowMessageFace("iriasu_fc4",0,0,2,4)
   ShowMessage("\\n<Ilias>There could be something in here, let's investigate.")
   0()
  EndIf()
  0()
 PAGE   2
  // condition: self-switch A is ON
  0()



EVENT   42
 PAGE   1
  ShowMessageFace("",0,0,2,1)
  ShowMessage("There were bundles of documents scattered around... Although there were notes on Queen's background, there was no information in them not already known.")
  If(1,1028,0,2,0)
   If(0,4,0)
    ShowMessageFace("alice_fc5",0,0,2,2)
    ShowMessage("\\n<Alice>The Queen's misdeeds and criticism... But it's all information we already know.")
    ShowMessageFace("alice_fc5",3,0,2,3)
    ShowMessage("\\n<Alice>Well, why would Salaan leave useful information in here. It's best to just ask  in person.")
    0()
   EndIf()
   If(0,5,0)
    ShowMessageFace("iriasu_fc4",2,0,2,4)
    ShowMessage("\\n<Ilias>It's about the Queen's misdeeds and the criticism... All of it is information we already know.")
    ShowMessageFace("iriasu_fc4",2,0,2,5)
    ShowMessage("\\n<Ilias>Of course, I do not think she would leave useful information in here. In the end, it's best to ask Salaan herself.")
    0()
   EndIf()
   ShowMessageFace("ruka_fc1",0,0,2,6)
   ShowMessage("\\n<Luka>Are there any clues as to where Salaan is? I don't think that kind of person would stay in the castle town.")
   If(0,4,0)
    ShowMessageFace("alice_fc5",0,0,2,7)
    ShowMessage("\\n<Alice>Mm, this map... Isn't it the map of Oasis of Blessings?")
    0()
   EndIf()
   If(0,5,0)
    ShowMessageFace("iriasu_fc4",0,0,2,8)
    ShowMessage("\\n<Ilias>Oh my, this map... It is the map of Oasis of Blessings.")
    0()
   EndIf()
   If(0,6,0)
    ShowMessageFace("sonia_fc3",6,0,2,9)
    ShowMessage("\\n<Sonya>Wouldn't this mean she's lurking in the Oasis of Blessings?")
    0()
   Else()
    ShowMessageFace("ruka_fc1",0,0,2,10)
    ShowMessage("\\n<Luka>If she left something like this here, then there's a high possibility she's lurking around in the Oasis of Blessings.")
    0()
   EndIf()
   If(0,4,0)
    ShowMessageFace("alice_fc5",0,0,2,11)
    ShowMessage("\\n<Alice>Would someone from an Assassin clan really leave a map behind themselves? Well, there's high possibility this is a message to one of her friends.")
    0()
   EndIf()
   If(0,5,0)
    ShowMessageFace("iriasu_fc4",2,0,2,12)
    ShowMessage("\\n<Ilias>It makes me wonder whether someone from an Assassin clan would really leave a map behind themselves... Well, it's highly possible that this is a message to one of her comrades.")
    0()
   EndIf()
   0()
  EndIf()
  ChangeVariable(1028,1028,0,0,3)
  ShowMessageFace("ruka_fc1",0,0,2,13)
  ShowMessage("\\n<Luka>All right, let's go take a look in the Oasis of Blessings!")
  If(4,118,0)
   ShowMessageFace("meia_fc1",2,0,2,14)
   ShowMessage("\\n<Meia>Fufu, it's been a while since I went out on a picnic... I should make us lunch boxes.")
   0()
  EndIf()
  ShowMessageFace("",0,0,2,15)
  ShowMessage("The location of the Oasis of Blessings is in the Northward direction of Sabasa Castle. After running into a big river, we have to head East.")
  0()
 PAGE   2
  // condition: variable 1028 >= 4
  0()



EVENT   43
 PAGE   1
  If(1,1028,0,1,0)
   ChangeVariable(1028,1028,0,0,2)
   0()
  EndIf()
  If(1,1028,0,7,2)
   ShowMessageFace("",0,0,2,1)
   ShowMessage("\\n<Guard>The Assassin's leader... Salaan, was it? She's investigating Queen Sara's affairs.")
   ShowMessageFace("",0,0,2,2)
   ShowMessage("\\n<Guard>It seems like she found some important information on the Queen... But she's already left Sabasa.")
   ShowMessageFace("",0,0,2,3)
   ShowMessage("\\n<Guard>Where did she go? I have no clue. But I'm certain she's not in Sabasa.")
   ShowMessageFace("",0,0,2,4)
   ShowMessage("\\n<Guard>If you want to see Salaan's house, it's up North from here. Up the stairs and to the left, to be precise. It's more like a hideout rather than a place you would want to live.")
   If(1,1028,0,2,0)
    If(0,4,0)
     ShowMessageFace("alice_fc5",0,0,2,5)
     ShowMessage("\\n<Alice>The Assassin group's leader, Salaan... She might have information of use.")
     0()
    EndIf()
    If(0,5,0)
     ShowMessageFace("iriasu_fc4",0,0,2,6)
     ShowMessage("\\n<Ilias>The Assassin group's leader, Salaan... She may have the information we seek.")
     0()
    EndIf()
    0()
   EndIf()
   EndEventProcessing()
   0()
  EndIf()
  If(1,1028,0,8,0)
   ShowMessageFace("",0,0,2,7)
   ShowMessage("\\n<Guard>On this occasion, we soldiers were unable to do anything. Despite the fact Sabasa's military is referred to as the best in the whole world, how pathetic.")
   EndEventProcessing()
   0()
  EndIf()
  0()



EVENT   48
 PAGE   1
  ShowMessageFace("",0,0,2,1)
  ShowMessage("\\n<Priest>The church is stocking supplies for an emergency. It's the instruction of the previous King of Sabasa, he was a truly intelligent man for thinking ahead like this.")
  ShowMessageFace("",0,0,2,2)
  ShowMessage("\\n<Priest>Before he ascended to the throne, people said he's more of a warrior and is not fit to be the King, but... His reign will definitely remain in Sabasa's history.")
  ShowMessageFace("",0,0,2,3)
  ShowMessage("\\n<Priest>For him to die in such way... He was too young and we did not expect it to happen so suddenly. It will be a real challenge to recover Sabasa after his death.")
  0()



EVENT   49
 PAGE   1
  ShowMessageFace("",0,0,2,1)
  ShowMessage("\\n<Royal Guard>You ask whether it's okay for the Queen's personal guard to ditch work in a place like this? It's not a problem, the Queen is helluva strong.")
  ShowMessageFace("",0,0,2,2)
  ShowMessage("\\n<Royal Guard>The talk about the Queen's identity being a succubus is true. I've seen her in that form myself...")
  ShowMessageFace("",0,0,2,3)
  ShowMessage("\\n<Royal Guard>That's why she shouldn't need guards. We are no more than decoration.")
  0()
 PAGE   2
  // condition: variable 1028 >= 8
  ShowMessageFace("",0,0,2,1)
  ShowMessage("\\n<Former Royal Guard>The Queen's sanity has returned and we were quickly kicked out. I don't hold any grudge over that, I didn't expect it to last for this long in the first place.")
  ShowMessageFace("",0,0,2,2)
  ShowMessage("\\n<Former Royal Guard>During my era as a guard, I tasted lots of tasty soup... If that had continued for too long it would have rebound on me.")
  ShowMessageFace("",0,0,2,3)
  ShowMessage("\\n<Former Royal Guard>Well... it's what you would call high time. That's the way us thugs look at it.")
  355("actor_label_jump")
  EndEventProcessing()
  DefineLabel("171")
  ShowMessageFace("lizardboss_fc1",0,0,2,4)
  ShowMessage("\\n<Miranda>A good villain knows when to quit. A third-rate who tries to drag it out ends up in the ropes.")
  EndEventProcessing()
  0()



EVENT   50
 PAGE   1
  ShowMessageFace("",0,0,2,1)
  ShowMessage("\\n<Royal Guard>Old man, hurry up and bring me some liquor!")
  0()
 PAGE   2
  // condition: variable 1028 >= 8
  ShowMessageFace("",0,0,2,1)
  ShowMessage("\\n<Former Royal Guard>Great evil perishes might perish all over the world, but small villains are tenacious...")
  355("actor_label_jump")
  EndEventProcessing()
  DefineLabel("80")
  ShowMessageFace("orc_fc1",0,0,2,2)
  ShowMessage("\\n<Hip>That sounds amazing, I admire them.")
  EndEventProcessing()
  0()



EVENT   51
 PAGE   1
  If(1,1028,0,7,2)
   ShowMessageFace("",0,0,2,1)
   ShowMessage("\\n<Poet>This tavern too, has turned for worse... It used to be a good and calm place.")
   EndEventProcessing()
   0()
  EndIf()
  If(1,1028,0,8,0)
   ShowMessageFace("",0,0,2,2)
   ShowMessage("\\n<Poet>This tavern too, will return to be a calm place. I will definitely sing plenty about your actions.")
   EndEventProcessing()
   0()
  EndIf()
  0()



EVENT   52
 PAGE   1
  ShowMessageFace("",0,0,2,1)
  ShowMessage("\\n<Samson>We have been removed from the key positions now but... A time will come when our strength will return!")
  ShowMessageFace("",0,0,2,2)
  ShowMessage("\\n<Samson>For the sake of that day we must single-mindedly polish our skill! Oryahh!")
  355("actor_label_jump")
  EndEventProcessing()
  DefineLabel("93")
  ShowMessageFace("liot_fc1",0,0,2,3)
  ShowMessage("\\n<Riot>That's some fighting spirit... He must be one of this country's bravest warriors.")
  EndEventProcessing()
  DefineLabel("95")
  ShowMessageFace("delh_a_fc1",0,0,2,4)
  ShowMessage("\\n<Lona>He's an excellent warrior. They have to be stupid to fire soldiers like him.")
  EndEventProcessing()
  0()
 PAGE   2
  // condition: variable 1028 >= 8
  ShowMessageFace("",0,0,2,1)
  ShowMessage("\\n<Youth>I volunteered for the next expeditionary force! I have to train my body while I still can!")
  0()



EVENT   40
 PAGE   1
  If(1,1028,0,1,0)
   ChangeVariable(1028,1028,0,0,2)
   0()
  EndIf()
  If(1,1028,0,7,2)
   ShowMessageFace("",0,0,2,1)
   ShowMessage("\\n<Knight>Did you hear about Salaan? The Assassin boss? She was kicked out by the new Queen.")
   ShowMessageFace("",0,0,2,2)
   ShowMessage("\\n<Knight>Still, Salaan seems to have felt there was something suspicious about the Queen's sudden change. Now she is investigating the Queen's surroundings and is gathering information on her.")
   ShowMessageFace("",0,0,2,3)
   ShowMessage("\\n<Knight>Even I think the sudden change in the Princess after she was made Queen was unnatural. I applaud Salaans actions discreetly.")
   ShowMessageFace("",0,0,2,4)
   ShowMessage("\\n<Knight>Salaan's houseis is north of the tavern, up the stairs and on the left.")
   If(1,1028,0,2,0)
    If(0,4,0)
     ShowMessageFace("alice_fc5",0,0,2,5)
     ShowMessage("\\n<Alice>The Assassin group's leader, Salaan... she might have information of use.")
     0()
    EndIf()
    If(0,5,0)
     ShowMessageFace("iriasu_fc4",0,0,2,6)
     ShowMessage("\\n<Ilias>The Assassin group's leader, Salaan... she may have the information we seek.")
     0()
    EndIf()
    0()
   EndIf()
   EndEventProcessing()
   0()
  EndIf()
  If(1,1028,0,8,0)
   ShowMessageFace("",0,0,2,7)
   ShowMessage("\\n<Knight>As I thought, Queen Sara was deprived of reason. This time's incident was caused by the youmas who attacked Luddite.")
   ShowMessageFace("",0,0,2,8)
   ShowMessage("\\n<Knight>...Grangold's aggression is also unnatural. It's possible that those youmas are behind that as well.")
   EndEventProcessing()
   0()
  EndIf()
  0()



EVENT   53
 PAGE   1
  If(1,1028,0,7,2)
   ShowMessageFace("",0,0,2,1)
   ShowMessage("\\n<Guard>Originally this was just a blacksmith store... but those who grieve for the country started to gather here and improve their talents.")
   ShowMessageFace("",0,0,2,2)
   ShowMessage("\\n<Guard>Of course, we aren't planning any rebellion like the rumors say. Our loyalty to Sabasa and the royal family is unshaken. Despite everything.")
   EndEventProcessing()
   0()
  EndIf()
  If(1,1028,0,8,0)
   ShowMessageFace("",0,0,2,3)
   ShowMessage("\\n<Guard>Ever since then, this store has turned into something like a place for drills in the castle town. Young people wishing to train their body and mind also started to visit, so it's very crowded now.")
   EndEventProcessing()
   0()
  EndIf()
  0()



EVENT   54
 PAGE   1
  ShowMessageFace("",0,0,2,1)
  ShowMessage("\\n<Guard>Any time I focus on honing my skills... TERYAHH!")
  355("actor_label_jump")
  EndEventProcessing()
  DefineLabel("93")
  ShowMessageFace("liot_fc1",0,0,2,2)
  ShowMessage("\\n<Riot>Single-mindedly striving for one thing... splendid effort.")
  EndEventProcessing()
  DefineLabel("94")
  ShowMessageFace("luksl_fc1",0,0,2,3)
  ShowMessage("\\n<Look Through>How filthy.")
  EndEventProcessing()
  0()



EVENT   55
 PAGE   1
  If(1,1028,0,7,2)
   ShowMessageFace("",0,0,2,1)
   ShowMessage("\\n<Guard>Since we left the alliance, Grand Noah's defeat is surely inevitable... ...Which means that Grandgold's next target will be Sabasa!")
   ShowMessageFace("",0,0,2,2)
   ShowMessage("\\n<Guard>When that day comes, it'll be our job to defend our homeland once more! For the sake of that day, I need to prepare as much as possible!")
   EndEventProcessing()
   0()
  EndIf()
  If(1,1028,0,8,0)
   ShowMessageFace("",0,0,2,3)
   ShowMessage("\\n<Guard>Our country is returning to normal. But the threat posed by Grangold remains the same. But we have a better chance now that we've returned to the military alliance.")
   ShowMessageFace("",0,0,2,4)
   ShowMessage("\\n<Guard>It's our job to protect our homeland in the case they attack us here! For the sake of that day, I'll need to train as much as possible!")
   EndEventProcessing()
   0()
  EndIf()
  0()



EVENT   35
 PAGE   1
  ShowMessageFace("",0,0,2,1)
  ShowMessage("\\n<Master>It's turned really rowdy... well, drink up!")
  Shop(0,428,0,0,true)
  605(0,431,0,0)
  605(0,427,0,0)
  0()



EVENT   56
 PAGE   1
  If(1,1028,0,7,2)
   ShowMessageFace("",0,0,2,1)
   ShowMessage("\\n<Man>Is it really okay to pull back the expeditionary force while the war is still going on? There's no way we can remain uninvolved as Grangold's threat approaches, right?")
   ShowMessageFace("",0,0,2,2)
   ShowMessage("\\n<Man>I wonder if the Queen ever thinks about that. Grand Noah's plight is right on Sabasa's doorstep.")
   ShowMessageFace("",0,0,2,3)
   ShowMessage("\\n<Middle-Aged Man>Ha! There's no way Queen Sara would ever think of it like that. She couldn't care less about what happens in the future anymore.")
   ShowMessageFace("",0,0,2,4)
   ShowMessage("\\n<Man>Good grief... What's going to happen to this country? I need to prepare to leave at a moments notice if things turn sour.")
   0()
  EndIf()
  If(1,1028,0,8,0)
   ShowMessageFace("",0,0,2,5)
   ShowMessage("\\n<Man>Rejoining the military alliance has been decided. They say that the expeditionary force is also being reinforced and will soon head out to Grangold again...")
   ShowMessageFace("",0,0,2,6)
   ShowMessage("\\n<Middle-Aged Man>If we leave it be it will surely become even more of a problem in the future. It's best to cooperate with our allies to beat the invading army while Grand Noah is still safe.")
   ShowMessageFace("",0,0,2,7)
   ShowMessage("\\n<Man>But the war seems like it'll be continuing for a while... The improvement of our country's situation is something to celebrate, but we can't rejoice yet.")
   0()
  EndIf()
  0()



EVENT   57
 PAGE   1
  If(1,1028,0,7,2)
   ShowMessageFace("",0,0,2,1)
   ShowMessage("\\n<Man>Is it really okay to pull back the expeditionary force while the war is still going on? There's no way we can remain uninvolved as Grangold's threat approaches, right?")
   ShowMessageFace("",0,0,2,2)
   ShowMessage("\\n<Man>I wonder if the Queen ever thinks about that. Grand Noah's plight is right on Sabasa's doorstep.")
   ShowMessageFace("",0,0,2,3)
   ShowMessage("\\n<Middle-Aged Man>Ha! There's no way Queen Sara would ever think of it like that. She couldn't care less about what happens in the future anymore.")
   ShowMessageFace("",0,0,2,4)
   ShowMessage("\\n<Man>Good grief... What's going to happen to this country? I need to prepare to leave at a moments notice if things turn sour.")
   0()
  EndIf()
  If(1,1028,0,8,0)
   ShowMessageFace("",0,0,2,5)
   ShowMessage("\\n<Man>Rejoining the military alliance has been decided. They say that the expeditionary force is also being reinforced and will soon head out to Grangold again...")
   ShowMessageFace("",0,0,2,6)
   ShowMessage("\\n<Middle-Aged Man>If we leave it be it will surely become even more of a problem in the future. It's best to cooperate with our allies to beat the invading army while Grand Noah is still safe.")
   ShowMessageFace("",0,0,2,7)
   ShowMessage("\\n<Man>But the war seems like it'll be continuing for a while... The improvement of our country's situation is something to celebrate, but we can't rejoice yet.")
   0()
  EndIf()
  0()



EVENT   59
 PAGE   1
  ShowMessageFace("",0,0,2,1)
  ShowMessage("\\n<Traveling Warrior>On the way here, I stopped at Rubiana. But the village was deserted outside of the Sabasa soldiers investigating.")
  ShowMessageFace("",0,0,2,2)
  ShowMessage("\\n<Traveling Warrior>Where on earth have they disappeared to... Even if it was a mass suicide, it's no coincidence that we can't find their corpses anywhere.")
  ShowMessageFace("",0,0,2,3)
  ShowMessage("\\n<Traveling Warrior>If they are alive, it would be even stranger. They disappear leaving just a single, unclear note, that's so creepy.")
  0()



EVENT   60
 PAGE   1
  ShowMessageFace("",0,0,2,1)
  ShowMessage("\\n<Female Soldier>Apparently a person in black clothing was seen in the Oasis of Blessings... I wonder if it's the Assassin clan leader.")
  ShowMessageFace("",0,0,2,2)
  ShowMessage("\\n<Female Soldier>The location of the Oasis of Blessings? First head straight North from here.")
  ShowMessageFace("",0,0,2,3)
  ShowMessage("\\n<Female Soldier>And when you reach the river, go East along it. You'll find the oasis right by the mountains.")
  0()



EVENT   61
 PAGE   1
  ShowMessageFace("",0,0,2,1)
  ShowMessage("\\n<Noble Tourist>I went to the Pyramid today, just west of Sabasa. Of course, since I'm not an adventurer I didn't intend to go inside.")
  ShowMessageFace("",0,0,2,2)
  ShowMessage("\\n<Noble Tourist>Tomorrow afternoon I plan to visit the Oasis of Blessings and at night I will go to Grandeur. I'm excited at the thought of seeing the Grand Theater...")
  355("actor_label_jump")
  EndEventProcessing()
  DefineLabel("120")
  ShowMessageFace("page257_fc1",0,0,2,3)
  ShowMessage("\\n<Yoko>Oh, how wonderful. You're such a lucky person.")
  EndEventProcessing()
  DefineLabel("143")
  ShowMessageFace("eva_fc1",2,0,2,4)
  ShowMessage("\\n<Eva>Hmph. Nobles sure have it easy.")
  EndEventProcessing()
  0()



EVENT   62
 PAGE   1
  ShowMessageFace("",0,0,2,1)
  ShowMessage("\\n<Noblewoman>Of course, we will use a horse-drawn carriage for the tourists. We will not do something as rediculous as to fight the monsters.")
  355("actor_label_jump")
  EndEventProcessing()
  DefineLabel("66")
  ShowMessageFace("vgirl_fc1",2,0,2,2)
  ShowMessage("\\n<Vanilla>Horse-drawn carriages cost money... ...Normal adventurers hardly ever use them.")
  EndEventProcessing()
  DefineLabel("101")
  ShowMessageFace("cent2_fc1",0,0,2,3)
  ShowMessage("\\n<Lihitinu>Carriages are needless to me when I have these legs!")
  EndEventProcessing()
  0()



EVENT   63
 PAGE   1
  ShowMessageFace("",0,0,2,1)
  ShowMessage("\\n<Noble's Daughter>The desert is so boooring! I just want to quickly go to see Grandeur's Theater!")
  355("actor_label_jump")
  EndEventProcessing()
  DefineLabel("59")
  ShowMessageFace("mdg_fc1",0,0,2,2)
  ShowMessage("\\n<Ragora>I want to go to the Grand Theater as well. Even once is fine, but I'd like to sing on that stage some day...")
  EndEventProcessing()
  DefineLabel("143")
  ShowMessageFace("eva_fc1",2,0,2,3)
  ShowMessage("\\n<Eva>I'm not interested in theaters. Neither songs nor dance will fill my stomach.")
  EndEventProcessing()
  0()



EVENT   64
 PAGE   1
  ShowMessageFace("",0,0,2,1)
  ShowMessage("\\n<Old Man>I'm interested in these legends from all over the world and have been investigating the Pyramid recently. The Pyramid has it's legendary lord, Sphinx.")
  ShowMessageFace("",0,0,2,2)
  ShowMessage("\\n<Old Man>She has existed for over a thousand years now and has tremendous magic. Apparently this powerful monster is overseeing some trial.")
  ShowMessageFace("",0,0,2,3)
  ShowMessage("\\n<Old Man>The Pyramid's location is straight West of Sabasa Castle... but since there are powerful monsters in there, it's best not to go inside there unless you really need to.")
  0()



EVENT   66
 PAGE   1
  ShowMessageFace("",0,0,2,1)
  ShowMessage("\\n<Nun>Magistea Village is also known as Witch Hunt Village. In the past, sorcery was oppressed there and witches were captured and executed, hence the name.")
  ShowMessageFace("",0,0,2,2)
  ShowMessage("\\n<Nun>But as the Renaissance progressed, a sorcerer has taken control of the village. Her tyranny continues and she oppresses the innocent even now.")
  ShowMessageFace("",0,0,2,3)
  ShowMessage("\\n<Nun>There is a rebel faction who opposes her. Yet the two factions confrontation has resulted in an armed conflict, turning it all into an even biger mess than it already was.")
  If(1,1028,0,7,2)
   ShowMessageFace("ruka_fc1",0,0,2,4)
   ShowMessage("\\n<Luka>That sounds horrible...")
   ShowMessageFace("",0,0,2,5)
   ShowMessage("I want to do something about that, but there are other things we need to give priority to. The Witch Hunt Village, Magistea... let's keep that in mind.")
   0()
  EndIf()
  0()
 PAGE   2
  // condition: variable 1029 >= 6
  0()



EVENT   67
 PAGE   1
  ShowMessageFace("",0,0,2,1)
  ShowMessage("\\n<Youth>Don't go to Magistea Village. A witch has taken it over!")
  0()
 PAGE   2
  // condition: variable 1029 >= 6
  0()



EVENT   68
 PAGE   1
  If(1,1029,0,5,2)
   ShowMessageFace("",0,0,2,1)
   ShowMessage("\\n<Priest>There were many people exiled from Magistea Village. We are trying to take as many of them in as possible, despite this being a church.")
   ShowMessageFace("",0,0,2,2)
   ShowMessage("\\n<Priest>You shouldn't get too close to it either. The regime and rebel sides are heated up right now making it very dangerous to visit.")
   0()
  EndIf()
  If(1,1029,0,6,1)
   ShowMessageFace("",0,0,2,3)
   ShowMessage("\\n<Priest>It appears that the conflict in Magistea Village is over. It would have been better if peace had come and didn't have to end in such a way.")
   355("actor_label_jump")
   EndEventProcessing()
   DefineLabel("163")
   ShowMessageFace("lily_fc1",3,0,2,4)
   ShowMessage("\\n<Lily>It's all right. Nothing will disturb that village's peace any more...")
   EndEventProcessing()
   DefineLabel("167")
   ShowMessageFace("lusia_fc1",0,0,2,5)
   ShowMessage("\\n<Lucia>There's no need to worry, the fruitless fighting is over now.")
   EndEventProcessing()
   0()
  EndIf()
  0()



EVENT   69
 PAGE   1
  ShowMessageFace("",0,0,2,1)
  ShowMessage("\\n<Nun>While checking the stock, I found old supplies for consumption. Everything has to be ready in these times of need.")
  355("actor_label_jump")
  EndEventProcessing()
  DefineLabel("5")
  ShowMessageFace("alice_fc5",7,0,2,2)
  ShowMessage("\\n<Alice>Consumption of food, is it? I'll help you out...")
  EndEventProcessing()
  DefineLabel("70")
  ShowMessageFace("nezumi_fc1",1,0,2,3)
  ShowMessage("\\n<Ratty>There's cheese! *nom**nom*...")
  ShowMessageFace("",0,0,2,4)
  ShowMessage("Ratty started snitching food...")
  EndEventProcessing()
  DefineLabel("143")
  ShowMessageFace("eva_fc1",0,0,2,5)
  ShowMessage("\\n<Eva>If you want old food to be consumed, I'll help you out. Now, which one of these can I eat...?")
  EndEventProcessing()
  0()



EVENT   71
 PAGE   1
  ShowMessageFace("",0,0,2,1)
  ShowMessage("\\n<Mermaid>Welcome to the Mermaid Pub♪!")
  ShowMessageFace("",0,0,2,2)
  ShowMessage("\\n<Mermaid>Is it fine for a shop with monsters to be here, you ask? We have acquired a license from the King that allows us to operate here.")
  ShowMessageFace("",0,0,2,3)
  ShowMessage("\\n<Mermaid>Currently we only have our pubs in Port Natalia and Sabasa. But eventually, we want to see Mermaid Pubs to spread all over the world.")
  Shop(0,428,0,0,true)
  605(0,431,0,0)
  605(0,427,0,0)
  0()



EVENT   72
 PAGE   1
  ShowMessageFace("",0,0,2,1)
  ShowMessage("\\n<Mermaid>Is it fine for a shop with monsters to be here, you ask? We have acquired a license from the King that allows us to operate.")
  ShowMessageFace("",0,0,2,2)
  ShowMessage("\\n<Mermaid>Currently we only have our pubs in Port Natalia and Sabasa. But eEventually, we want to see Mermaid Pubs to spread all over the world.")
  0()



EVENT   73
 PAGE   1
  ShowMessageFace("ankou_fc1",0,0,2,1)
  ShowMessage("\\n<Anglerfish Girl>Part-time job...")
  355("actor_label_jump")
  EndEventProcessing()
  DefineLabel("115")
  ShowMessageFace("kurage_fc1",0,0,2,2)
  ShowMessage("\\n<Kurage>Maybe I should work here as well...?")
  If(0,6,0)
   ShowMessageFace("sonia_fc4",0,0,2,3)
   ShowMessage("\\n<Sonya>Don't. The customers would panic.")
   0()
  EndIf()
  EndEventProcessing()
  DefineLabel("117")
  ShowMessageFace("ankou_fc1",0,0,2,4)
  ShowMessage("\\n<Anko>Do your best.")
  EndEventProcessing()
  0()



EVENT   74
 PAGE   1
  ShowMessageFace("",0,0,2,1)
  ShowMessage("\\n<Man>Hey, isn't that an anglerfish?!")
  355("actor_label_jump")
  EndEventProcessing()
  DefineLabel("116")
  ShowMessageFace("iso_fc1",2,0,2,2)
  ShowMessage("\\n<Isabelle>Hey, who called me?")
  EndEventProcessing()
  DefineLabel("117")
  ShowMessageFace("ankou_fc1",0,0,2,3)
  ShowMessage("\\n<Anko>Really? Where?")
  ShowMessageFace("",0,0,2,4)
  ShowMessage("\\n<Man>Woah, another one!!")
  EndEventProcessing()
  0()



EVENT   75
 PAGE   1
  ShowMessageFace("",0,0,2,1)
  ShowMessage("\\n<Mage>The desert monsters would be weak to the water element, obviously. They are particularly resistant to the earth element, however.")
  355("actor_label_jump")
  EndEventProcessing()
  DefineLabel("98")
  ShowMessageFace("minikani_fc1",0,0,2,2)
  ShowMessage("\\n<Amy>If they're weak against water, I'll beat them allll!")
  EndEventProcessing()
  DefineLabel("118")
  ShowMessageFace("meia_fc1",0,0,2,3)
  ShowMessage("\\n<Meia>Leave the enemies that are weak to water to me...")
  EndEventProcessing()
  0()



EVENT   76
 PAGE   1
  ShowMessageFace("",0,0,2,1)
  ShowMessage("\\n<Thief>Not only is the Pyramid a labyrinth but the monsters that reside there are also strong... The treasures inside sounds attractive, but it's really not worth risking your life for.")
  355("actor_label_jump")
  EndEventProcessing()
  DefineLabel("151")
  ShowMessageFace("kobura_fc1",1,0,2,2)
  ShowMessage("\\n<Lila>Naturally, it would be troubling if you did. Please challenge the Pyramid after preparing yourself thoroughly.")
  EndEventProcessing()
  DefineLabel("152")
  ShowMessageFace("lamias_fc2",4,0,2,3)
  ShowMessage("\\n<Nefertiti Lamias>Don't mind her, just come in and we'll... entertain you.")
  EndEventProcessing()
  0()



EVENT   77
 PAGE   1
  ShowMessageFace("",0,0,2,1)
  ShowMessage("\\n<Old Woman>Good grief, that man. He does that every day...")
  ShowMessageFace("",0,0,2,2)
  ShowMessage("\\n<Old Woman>You can't talk about anything having an academic value unless there's rigorous criticism of it. It's the thorough verification that makes sure the history is true.")
  355("actor_label_jump")
  EndEventProcessing()
  DefineLabel("41")
  ShowMessageFace("stein_fc2",0,0,2,3)
  ShowMessage("\\n<Promestein>The main point of academics is going through objective verification. If the history fails that verification, it is merely a personal delusion.")
  EndEventProcessing()
  0()



EVENT   78
 PAGE   1
  ShowMessageFace("",0,0,2,1)
  ShowMessage("\\n<Scholar>North of Grandeur there are Safaru Ruins. They are ancient ruins buried in the sand.")
  ShowMessageFace("",0,0,2,2)
  ShowMessage("\\n<Scholar>Inside the ruins, there have been traces of Gnome faith. Although it might just all be lies, there have been personal testimonies of witnessing Gnome there.")
  ShowMessageFace("",0,0,2,3)
  ShowMessage("\\n<Scholar>The location is further North of Grandeur which is even further North of here. It's a dangerous place that some of the most dangerous monsters on the continent live in.")
  If(1,1001,0,17,0)
   If(0,4,0)
    ShowMessageFace("alice_fc5",0,0,2,4)
    ShowMessage("\\n<Alice>We can't neglect the preparations beforehand. We shouldn't just go in there with half-assed skills and equipment...")
    0()
   EndIf()
   If(0,5,0)
    ShowMessageFace("iriasu_fc4",0,0,2,5)
    ShowMessage("\\n<Ilias>It appears that first, we'll have to make our preparations prior to visiting the Ruins. With half-hearted skills and equipment we'll inevitably be defeated.")
    0()
   EndIf()
   If(1,1028,0,7,2)
    If(0,4,0)
     ShowMessageFace("alice_fc5",3,0,2,6)
     ShowMessage("\\n<Alice>Moreover... We have other things we need to prioritize now. We can meet Gnome after we solve the other problems.")
     0()
    EndIf()
    If(0,5,0)
     ShowMessageFace("iriasu_fc4",2,0,2,7)
     ShowMessage("\\n<Ilias>Additionally, there are things we should prioritize now. Before we catch Gnome, we should finish our errands in the region first.")
     0()
    EndIf()
    0()
   EndIf()
   0()
  EndIf()
  0()



EVENT   79
 PAGE   1
  ShowMessageFace("",0,0,2,1)
  ShowMessage("\\n<Thief>In the Sabasa region, the most challenging place outside of the Tartarus pit is the Safaru Ruins. The monsters in there are much stronger than the ones in the surrounding areas.")
  ShowMessageFace("",0,0,2,2)
  ShowMessage("\\n<Thief>It's said that the ruins are the place which Gnome lives in and there's many treasures to be found within... but honestly, it's not a place you can easily get to in the first place.")
  If(1,1001,0,17,0)
   If(0,4,0)
    ShowMessageFace("alice_fc5",0,0,2,3)
    ShowMessage("\\n<Alice>We can't neglect the preparations beforehand. We shouldn't just go in there with half-assed skills and equipment...")
    0()
   EndIf()
   If(0,5,0)
    ShowMessageFace("iriasu_fc4",0,0,2,4)
    ShowMessage("\\n<Ilias>It appears that first, we'll have to make our preparations prior to visiting the Ruins. With half-hearted skills and equipment we'll inevitably be defeated.")
    0()
   EndIf()
   If(1,1028,0,7,2)
    If(0,4,0)
     ShowMessageFace("alice_fc5",3,0,2,5)
     ShowMessage("\\n<Alice>Moreover... We have other things we need to prioritize now. We can meet Gnome after we solve the other problems.")
     0()
    EndIf()
    If(0,5,0)
     ShowMessageFace("iriasu_fc4",2,0,2,6)
     ShowMessage("\\n<Ilias>Additionally, there are things we should prioritize now. Before we catch Gnome, we should finish our errands in the region first.")
     0()
    EndIf()
    0()
   EndIf()
   0()
  EndIf()
  0()



EVENT   81
 PAGE   1
  ShowMessageFace("",0,0,2,1)
  ShowMessage("\\n<Traveling Entertainer>Right now I should be having my premiere in Grandeur's Grand Theaterrr! They canceled it saying that the stage can't be used, c'moon!")
  355("actor_label_jump")
  EndEventProcessing()
  DefineLabel("155")
  ShowMessageFace("saki_fc1",3,0,2,2)
  ShowMessage("\\n<Saki>Sorry about that☆.")
  EndEventProcessing()
  0()



EVENT   82
 PAGE   1
  ShowMessageFace("",0,0,2,1)
  ShowMessage("\\n<Manager>Saki-chan, haa, haaa...")
  355("actor_label_jump")
  ShowMessageFace("",0,0,2,2)
  ShowMessage("\\n<Manager>...no, don't mind it.")
  EndEventProcessing()
  DefineLabel("155")
  ShowMessageFace("saki_fc1",3,0,2,3)
  ShowMessage("\\n<Saki>Thanks for your support☆.")
  EndEventProcessing()
  0()



EVENT   83
 PAGE   1
  ShowMessageFace("",0,0,2,1)
  ShowMessage("\\n<Traveling Entertainer>To think our stage would be collapsed like this... Damn you, succubus!")
  355("actor_label_jump")
  EndEventProcessing()
  DefineLabel("155")
  ShowMessageFace("saki_fc1",3,0,2,2)
  ShowMessage("\\n<Saki>The stage is now open now, use it as you please☆.")
  EndEventProcessing()
  0()



EVENT   85
 PAGE   1
  If(1,1028,0,7,2)
   ShowMessageFace("",0,0,2,1)
   ShowMessage("\\n<Woman>The King's death must have been a shock to her. I wonder how such a wonderful Princess could turn into such a tyranical Queen.")
   ShowMessageFace("",0,0,2,2)
   ShowMessage("\\n<Woman>How could she have hidden such a personality for so long in the first place. Previously, I often heard she had a slightly masculine personality.")
   0()
  EndIf()
  If(1,1028,0,8,0)
   ShowMessageFace("",0,0,2,3)
   ShowMessage("\\n<Woman>To think she was being manipulated by succubi... and then she immediately abdicated, she truly is heroic.")
   ShowMessageFace("",0,0,2,4)
   ShowMessage("\\n<Woman>...In the end, won't she be chosen the country's representative anyway? Even now there are still many people who look up lady Sara.")
   0()
  EndIf()
  0()



EVENT   86
 PAGE   1
  If(1,1028,0,7,2)
   ShowMessageFace("",0,0,2,1)
   ShowMessage("\\n<Young Woman>Maybe the current queen isn't lady Sara? There's whispered rumors that a succubus is impersonating her.")
   ShowMessageFace("",0,0,2,2)
   ShowMessage("\\n<Young Woman>But if that's the case, it's unthinkable that the real Sara would be still alive... I hope from the bottom of my heart that my hunch is wrong.")
   0()
  EndIf()
  If(1,1028,0,8,0)
   ShowMessageFace("",0,0,2,3)
   ShowMessage("\\n<Young Woman>I was wrong about the Queen being a fake. I'm really glad that she's safe, either way.")
   ShowMessageFace("",0,0,2,4)
   ShowMessage("\\n<Young Woman>When I think of her... Ahh, I'm...")
   355("actor_label_jump")
   EndEventProcessing()
   DefineLabel("529")
   ShowMessageFace("sara_fc3",2,0,2,5)
   ShowMessage("\\n<Sara>Fufu, what a cute girl...♪")
   EndEventProcessing()
   0()
  EndIf()
  0()



EVENT   87
 PAGE   1
  ShowMessageFace("",0,0,2,1)
  ShowMessage("\\n<Cat>Meow!")
  355("actor_label_jump")
  EndEventProcessing()
  DefineLabel("70")
  ShowMessageFace("nezumi_fc1",2,0,2,2)
  ShowMessage("\\n<Ratty>Hyaa!")
  EndEventProcessing()
  0()



EVENT   88
 PAGE   1
  If(1,1028,0,7,2)
   ShowMessageFace("",0,0,2,1)
   ShowMessage("\\n<Young Man>Queen Sara always had that personality. How she was during the previous King's era was just a façade.")
   ShowMessageFace("",0,0,2,2)
   ShowMessage("\\n<Young Man>After all, all women are like that.")
   0()
  EndIf()
  If(1,1028,0,8,0)
   ShowMessageFace("",0,0,2,3)
   ShowMessage("\\n<Young Man>So Queen Sara was manipulated by a succubus... And here I thought all women are bitches.")
   ShowMessageFace("",0,0,2,4)
   ShowMessage("\\n<Young Man>In that case, the girl who I loved before, who was also a total bitch, may have been manipulated by someone?")
   ShowMessageFace("",0,0,2,5)
   ShowMessage("\\n<Young Man>...Thinking about that got me really excited!")
   0()
  EndIf()
  0()



EVENT   89
 PAGE   1
  If(1,1028,0,7,2)
   ShowMessageFace("",0,0,2,1)
   ShowMessage("\\n<Boy>Lady Sara is being manipulated by a bad witch! Once a hero defeats the witch she will go back to normal!")
   0()
  EndIf()
  If(1,1028,0,8,0)
   ShowMessageFace("",0,0,2,2)
   ShowMessage("\\n<Boy>I knew it, lady Sara was being manipulated by a bad witch! A hero defeated the witch and she returned back to normal!")
   0()
  EndIf()
  0()



EVENT   90
 PAGE   1
  If(1,1028,0,7,2)
   ShowMessageFace("",0,0,2,1)
   ShowMessage("\\n<Girl>Lady Sara turned into a succubus! Her lewd instincts awakened!")
   0()
  EndIf()
  If(1,1028,0,8,0)
   ShowMessageFace("",0,0,2,2)
   ShowMessage("\\n<Girl>I thought the Queen had turned into a succubus... I won't acknowledge my mistake!")
   0()
  EndIf()
  0()



EVENT   91
 PAGE   1
  ShowMessageFace("",0,0,2,1)
  ShowMessage("\\n<Dancer>Dancing in Grandeur's Grand Theater is my dreaam♪.")
  355("actor_label_jump")
  EndEventProcessing()
  DefineLabel("59")
  ShowMessageFace("mdg_fc1",0,0,2,2)
  ShowMessage("\\n<Ragora>I also look up to it.")
  EndEventProcessing()
  DefineLabel("114")
  ShowMessageFace("wakame_fc1",0,0,2,3)
  ShowMessage("\\n<Wakame>Seaweed, sways sway... seaweed also dance, on Grand Theater.")
  EndEventProcessing()
  0()



EVENT   92
 PAGE   1
  ShowMessageFace("",0,0,2,1)
  ShowMessage("\\n<Dancer>I'll go big one day!")
  355("actor_label_jump")
  EndEventProcessing()
  DefineLabel("143")
  ShowMessageFace("eva_fc1",0,0,2,2)
  ShowMessage("\\n<Eva>I'll go big too!")
  EndEventProcessing()
  DefineLabel("155")
  ShowMessageFace("saki_fc1",0,0,2,3)
  ShowMessage("\\n<Saki>Do your best, I too was on the bottom of the ladder at one point.")
  EndEventProcessing()
  0()



EVENT   93
 PAGE   1
  If(1,1028,0,7,2)
   ShowMessageFace("",0,0,2,1)
   ShowMessage("\\n<Former Minister>There are people from the personal guard in the tavern. In broad daylight. Well, I guess I'm no different.")
   EndEventProcessing()
   0()
  EndIf()
  If(1,1028,0,8,0)
   ShowMessageFace("",0,0,2,2)
   ShowMessage("\\n<Minister>Now that lady Sara's sanity has returned I can return to my work. Then why am I in the tavern?")
   ShowMessageFace("",0,0,2,3)
   ShowMessage("\\n<Minister>I can no longer progress with work unless I'm in here...")
   355("actor_label_jump")
   EndEventProcessing()
   DefineLabel("75")
   ShowMessageFace("hituzi_fc1",3,0,2,4)
   ShowMessage("\\n<Mary>Taverns are optimal for doing work. That's why I'm hanging around in them.")
   If(4,74,0)
    ShowMessageFace("usagi_fc1",4,0,2,5)
    ShowMessage("\\n<Barnny>You aren't doing any work though, are you?")
    0()
   EndIf()
   EndEventProcessing()
   DefineLabel("529")
   ShowMessageFace("sara_fc3",3,0,2,6)
   ShowMessage("\\n<Sara>I should reprimand him, but then I remember why he's like this in the first place.")
   EndEventProcessing()
   0()
  EndIf()
  0()



EVENT   45
 PAGE   1
  ShowMessageFace("",0,0,2,1)
  ShowMessage("\\n<Knight>The King of Sabasa is definitely alive. There's no way a person like that would die so easily.")
  355("actor_label_jump")
  EndEventProcessing()
  DefineLabel("529")
  ShowMessageFace("sara_fc3",3,0,2,2)
  ShowMessage("\\n<Sara>Even now I see dreams of Father returning... Of course, I'm aware that's impossible.")
  EndEventProcessing()
  0()



EVENT   94
 PAGE   1
  If(1,1028,0,7,2)
   ShowMessageFace("",0,0,2,1)
   ShowMessage("\\n<Knight>After lady Sara had become Queen, all her original personal guards were fired. Instead, she recruited a bunch of thugs.")
   ShowMessageFace("",0,0,2,2)
   ShowMessage("\\n<Knight>They give the quality of Sabasa's military a bad name... or even Sabasa itself. Is there nothing I can do?")
   EndEventProcessing()
   0()
  EndIf()
  If(1,1028,0,8,0)
   ShowMessageFace("",0,0,2,3)
   ShowMessage("\\n<Knight>After Lady Sara's sanity returned, her new personal guards were all fired. There have been fears whether they will cause social unrest after losing their jobs.")
   ShowMessageFace("",0,0,2,4)
   ShowMessage("\\n<Knight>Lady Sara has acknowledged this by creating more jobs for the construction of new homes. But that bunch of small-time thugs should be of no concern, if it comes to the worse. ")
   EndEventProcessing()
   0()
  EndIf()
  0()



EVENT   37
 PAGE   1
  ShowMessageFace("",0,0,2,1)
  ShowMessage("\\n<Middle-Aged Man>There's a rumor that the Grand Theater in Grandeur was taken over by a monster... Apparently an odd succubus is now providing entertainment there.")
  ShowMessageFace("",0,0,2,2)
  ShowMessage("\\n<Middle-Aged Man>She's unexpectedly popular so... it seems like she's becoming something like a star of theirs.")
  355("actor_label_jump")
  EndEventProcessing()
  DefineLabel("143")
  ShowMessageFace("eva_fc1",0,0,2,3)
  ShowMessage("\\n<Eva>If I actually tried, I could do that much myself. Well, I won't be going serious though.")
  EndEventProcessing()
  DefineLabel("155")
  ShowMessageFace("saki_fc1",0,0,2,4)
  ShowMessage("\\n<Saki>Unfortunately, I don't do that any mooore♪.")
  EndEventProcessing()
  0()



EVENT   65
 PAGE   1
  ShowMessageFace("",0,0,2,1)
  ShowMessage("\\n<Gruff Man>It seems like you can undertake the 'The Trial of the Dragon Seal' in the Pyramid. But, these days it doesn't give you much fame.")
  ShowMessageFace("",0,0,2,2)
  ShowMessage("\\n<Gruff Man>We're in the middle of a magical breakthrough and Machina technology is flourishing. The only ones who appreciate the old rituals are old people.")
  355("actor_label_jump")
  EndEventProcessing()
  DefineLabel("150")
  ShowMessageFace("mummy_fc1",2,0,2,3)
  ShowMessage("\\n<Patra>The times change regardless of us. If this goes on, the only reason behind the Pyramid's existence will be...")
  EndEventProcessing()
  DefineLabel("151")
  ShowMessageFace("kobura_fc1",0,0,2,4)
  ShowMessage("\\n<Lila>It'll be troubling if no one comes to take the trial. Who will I wrap around then?")
  EndEventProcessing()
  0()



EVENT   70
 PAGE   1
  ShowMessageFace("",0,0,2,1)
  ShowMessage("\\n<Traveling Warrior>Monsters in these parts sure are strong. If I go North they will get even stronger. How people do that is beyond me...")
  ShowMessageFace("",0,0,2,2)
  ShowMessage("\\n<Traveling Warrior>I'm thinking about giving up here and staying in this castle town for a bit.")
  355("actor_label_jump")
  EndEventProcessing()
  DefineLabel("111")
  ShowMessageFace("suika_fc1",0,0,2,3)
  ShowMessage("\\n<Melon>...Well, eat some watermelon and hold up your head high.")
  EndEventProcessing()
  DefineLabel("144")
  ShowMessageFace("saboresu_fc1",0,0,2,4)
  ShowMessage("\\n<Sunny>I look forward towards the trip to the Nooorth♪.")
  EndEventProcessing()
  0()



EVENT   95
 PAGE   1
  ShowMessageFace("",0,0,2,1)
  ShowMessage("\\n<Royal Guard>Hey, what are ya lookin' at?!")
  0()
 PAGE   2
  // condition: variable 1028 >= 8
  ShowMessageFace("",0,0,2,1)
  ShowMessage("\\n<Former Royal Guard>It was for such a short time... oh well. It's better than being involved in a revolution and I end up losing my head.")
  355("actor_label_jump")
  EndEventProcessing()
  DefineLabel("88")
  ShowMessageFace("jack_fc1",0,0,2,2)
  ShowMessage("\\n<Pumpkin>You could lose your head? How frightenining... but my head is a pumpkin so I'm all right.")
  EndEventProcessing()
  DefineLabel("95")
  ShowMessageFace("delh_a_fc1",0,0,2,3)
  ShowMessage("\\n<Lona>If I were to lose my head, I could probably debut as a dullahan.")
  EndEventProcessing()
  0()



EVENT   96
 PAGE   1
  ShowMessageFace("",0,0,2,1)
  ShowMessage("\\n<Royal Guard>Being a personal guard is a piss easy job. I just have to make sure that the man wanting to see the Queen is alone and that's it...")
  ShowMessageFace("",0,0,2,2)
  ShowMessage("\\n<Royal Guard>Eh? What does the man we let go through do?...Oh, obviously 'that' right?")
  0()
 PAGE   2
  // condition: variable 1028 >= 8
  ShowMessageFace("",0,0,2,1)
  ShowMessage("\\n<Former Royal Guard>It might have been the best time to quit. We managed to get the resentment of the general public and there were sneak attacks by them occasionally.")
  ShowMessageFace("",0,0,2,2)
  ShowMessage("\\n<Former Royal Guard>The bigger the crime, the bigger the risk. It's best to just tag along.")
  355("actor_label_jump")
  EndEventProcessing()
  DefineLabel("142")
  ShowMessageFace("bander_fc1",0,0,2,3)
  ShowMessage("\\n<Banachi>What a prideless bunch... they really are worthless.")
  EndEventProcessing()
  0()



EVENT   46
 PAGE   1
  If(1,1028,0,7,2)
   ShowMessageFace("",0,0,2,1)
   ShowMessage("\\n<Sleazy Youth>Did you meet the Queen yet? If you didn't, you should.")
   ShowMessageFace("",0,0,2,2)
   ShowMessage("\\n<Sleazy Youth>She'll suck all your semen out with that mouth of hers... it feels amazing.")
   ShowMessageFace("",0,0,2,3)
   ShowMessage("\\n<Sleazy Youth>I wanted to endure it somehow and then fuck her pussy but... I couldn't withstand her mouth technique for more than 30 seconds.")
   EndEventProcessing()
   0()
  EndIf()
  If(1,1028,0,8,0)
   ShowMessageFace("",0,0,2,4)
   ShowMessage("\\n<Sleazy Youth>I won't forget that blowjob. Ever. My dick is so hard right now... but I guess she won't do it for me again.")
   DefineLabel("529")
   ShowMessageFace("sara_fc3",3,0,2,5)
   ShowMessage("\\n<Sara>......")
   EndEventProcessing()
   0()
  EndIf()
  0()



EVENT   97
 PAGE   1
  If(1,1028,0,7,2)
   ShowMessageFace("",0,0,2,1)
   ShowMessage("\\n<Youth>I-I got aroused! Maybe I should go as well...")
   ShowMessageFace("",0,0,2,2)
   ShowMessage("\\n<Youth>Ah, but I'm too aroused. I'm so hard that I can't stand...")
   EndEventProcessing()
   0()
  EndIf()
  If(1,1028,0,8,0)
   ShowMessageFace("",0,0,2,3)
   ShowMessage("\\n<Youth>Ahh, in the end I missed the opportunity. Every day I was too aroused by the thought and put it off for another day...")
   DefineLabel("529")
   ShowMessageFace("sara_fc3",3,0,2,4)
   ShowMessage("\\n<Sara>......")
   EndEventProcessing()
   0()
  EndIf()
  0()



EVENT   98
 PAGE   1
  ShowMessageFace("",0,0,2,1)
  ShowMessage("\\n<Girl>My grandpa loves the Pyramid. He says he's gonna write a book about his research there.")
  ShowMessageFace("",0,0,2,2)
  ShowMessage("\\n<Girl>But it's dangerous to go there! It's full of scary monsters!")
  355("actor_label_jump")
  EndEventProcessing()
  DefineLabel("119")
  ShowMessageFace("page17_fc1",0,0,2,3)
  ShowMessage("\\n<Annie>Hmm, that sounds like it would be an interesting book.")
  EndEventProcessing()
  DefineLabel("151")
  ShowMessageFace("kobura_fc1",1,0,2,4)
  ShowMessage("\\n<Lila>You're right, it's best to not get too close to it... Fufufu.")
  EndEventProcessing()
  0()



EVENT   99
 PAGE   1
  ShowMessageFace("",0,0,2,1)
  ShowMessage("\\n<Young Girl>W-what is it?! No... come out.")
  355("actor_label_jump")
  EndEventProcessing()
  DefineLabel("529")
  ShowMessageFace("sara_fc3",2,0,2,2)
  ShowMessage("\\n<Sara>It's all right, there's no need to be scared...")
  ShowMessageFace("",0,0,2,3)
  ShowMessage("\\n<Young Girl>Y-you are...no way...thank you.")
  EndEventProcessing()
  0()



EVENT   100
 PAGE   1
  ShowMessageFace("",0,0,2,1)
  ShowMessage("\\n<Bishop>Weelcome to the Sabasa church. What can I do for you?")
  ShowChoices(strings("Pray","Never mind"),2)
  IfPlayerPicksChoice(0,null)
   ChangeVariable(1002,1002,0,0,15)
   ShowMessageFace("",0,0,2,2)
   ShowMessage("\\n<Bishop>Very well. Now let us pray to Ilias. ...there, you should feel a bond drawing you to this place.")
   ShowMessageFace("",0,0,2,3)
   ShowMessage("\\n<Bishop>If something were to happen to you on your journey, the bond should lead you back here. May Ilias watch over you...")
   0()
  IfPlayerPicksChoice(1,null)
   ShowMessageFace("",0,0,2,4)
   ShowMessage("\\n<Bishop>May Ilias watch over you...")
   0()
  404()
  0()



EVENT   58
 PAGE   1
  If(1,1028,0,7,2)
   ShowMessageFace("",0,0,2,1)
   ShowMessage("\\n<Nun>The expeditionary force was pulled back, and with good reason. We shouldn't shed any more blood for foreign countries.")
   EndEventProcessing()
   0()
  EndIf()
  If(1,1028,0,8,0)
   ShowMessageFace("",0,0,2,2)
   ShowMessage("\\n<Nun>It was decided that we send out yet another expeditionary force to Grangold. We shouldn't have to shed any more blood for foreign countries...")
   EndEventProcessing()
   0()
  EndIf()
  0()



EVENT   47
 PAGE   1
  If(1,1028,0,7,2)
   ShowMessageFace("",0,0,2,1)
   ShowMessage("\\n<Religious Young Man>I will pray to the Goddess that her Majesty regains her sanity. Right now I can only assume that her Majesty has been possessed by the devil himself.")
   EndEventProcessing()
   0()
  EndIf()
  If(1,1028,0,8,0)
   ShowMessageFace("",0,0,2,2)
   ShowMessage("\\n<Religious Young Man>My prayers have been answered! Although lady Sara has abdicated, she regained her sanity, just like I prayed for.")
   EndEventProcessing()
   0()
  EndIf()
  0()



EVENT   36
 PAGE   1
  ShowMessageFace("",0,0,2,1)
  ShowMessage("\\n<Man>My son went to work in Rubiana, and just like that he was gone. Like everybody else.")
  ShowMessageFace("",0,0,2,2)
  ShowMessage("\\n<Man>People say that they left the village out of their own free will. But we know him! He wouldn't leave without telling us anything!")
  355("actor_label_jump")
  EndEventProcessing()
  DefineLabel("98")
  ShowMessageFace("minikani_fc1",0,0,2,3)
  ShowMessage("\\n<Amy>He'll come back safely, I can pray for that. In exchange, please pray that I meet my Mom as well♪.")
  EndEventProcessing()
  0()



EVENT   102
 PAGE   1
  ShowMessageFace("sisterlamia_fc1",3,0,2,1)
  ShowMessage("\\n<Sister Lamia>Both human society and monster society go through great hardships. Not just humans. This is a trial given to us by the Goddess, let us overcome it with our strong will.")
  355("actor_label_jump")
  EndEventProcessing()
  DefineLabel("122")
  ShowMessageFace("sisterlamia_fc1",0,0,2,2)
  ShowMessage("\\n<Sofia>Yes... let's do our best. Both of us.")
  EndEventProcessing()
  DefineLabel("123")
  ShowMessageFace("sisccubus_fc1",2,0,2,3)
  ShowMessage("\\n<Christie>That sounds very exaggerated...")
  EndEventProcessing()
  0()



EVENT   103
 PAGE   1
  ShowMessageFace("",0,0,2,1)
  ShowMessage("\\n<Boy>I wish for my entire family to live happily!")
  355("actor_label_jump")
  EndEventProcessing()
  DefineLabel("118")
  ShowMessageFace("meia_fc1",2,0,2,2)
  ShowMessage("\\n<Meia>It would be good if that wish could even reach the heavens now...")
  EndEventProcessing()
  0()



EVENT   104
 PAGE   1
  If(1,1028,0,7,2)
   ShowMessageFace("",0,0,2,1)
   ShowMessage("\\n<Old Man>Bad things continue to happen daily in Sabasa. Recently, I've started coming to the church with my grandchildren every day.")
   EndEventProcessing()
   0()
  EndIf()
  If(1,1028,0,8,0)
   ShowMessageFace("",0,0,2,2)
   ShowMessage("\\n<Old Man>I feel that the world is gradually turning for better. From here on out, I'm going to go to the church with my grandchildren every day.")
   EndEventProcessing()
   0()
  EndIf()
  0()



EVENT   105
 PAGE   1
  ShowMessageFace("",0,0,2,1)
  ShowMessage("\\n<Woman>My husband is on a expedition... I can only pray that he returns home safely.")
  355("actor_label_jump")
  EndEventProcessing()
  DefineLabel("41")
  ShowMessageFace("stein_fc2",0,0,2,2)
  ShowMessage("\\n<Promestein>Prayers are pointless.")
  EndEventProcessing()
  DefineLabel("86")
  ShowMessageFace("name_s_fc1",0,0,2,3)
  ShowMessage("\\n<Rosary>Let us pray together for him. And then, surely some good will come of it.")
  EndEventProcessing()
  DefineLabel("122")
  ShowMessageFace("sisterlamia_fc1",0,0,2,4)
  ShowMessage("\\n<Sofia>I'll pray with you. ...I hope your husband returns safely.")
  EndEventProcessing()
  0()



EVENT   106
 PAGE   1
  If(1,1028,0,7,2)
   ShowMessageFace("",0,0,2,1)
   ShowMessage("\\n<Woman>Recently the soldiers turned for the worse... during the previous King's era they were so strong and kind.")
   0()
  EndIf()
  If(1,1028,0,8,0)
   ShowMessageFace("",0,0,2,2)
   ShowMessage("\\n<Woman>Apparently those thug-like soldiers have all been fired. Good riddance is what I say. Though, I still hope they will be okay.")
   355("actor_label_jump")
   EndEventProcessing()
   DefineLabel("529")
   ShowMessageFace("sara_fc3",0,0,2,3)
   ShowMessage("\\n<Sara>Of course, we took measures to fight unemployment after the sudden discharges. The demand for construction of new homes will be increased, which will provide enough jobs for all of them.")
   EndEventProcessing()
   0()
  EndIf()
  0()



EVENT   107
 PAGE   1
  ShowMessageFace("",0,0,2,1)
  ShowMessage("\\n<Merchant>Disaster, war, famine. Being well prepared before times like these can prevent these things. In the case that one of the bordering villages fall into food shortage we can send them supplies.")
  355("actor_label_jump")
  EndEventProcessing()
  DefineLabel("5")
  ShowMessageFace("alice_fc5",2,0,2,2)
  ShowMessage("\\n<Alice>This is bad! My stomach fell into food shortage!")
  EndEventProcessing()
  DefineLabel("102")
  ShowMessageFace("youko_fc1",0,0,2,3)
  ShowMessage("\\n<Kitsu>Can I have a little? I guess not...")
  EndEventProcessing()
  0()



EVENT   108
 PAGE   1
  ShowMessageFace("",0,0,2,1)
  ShowMessage("\\n<Mermaid>On the second floor, there's a Mermaaaid Pub♪.")
  0()



EVENT   109
 PAGE   1
  ShowMessageFace("",0,0,2,1)
  ShowMessage("\\n<Mermaid>Geez. Be sure to look at me.")
  355("actor_label_jump")
  EndEventProcessing()
  DefineLabel("74")
  ShowMessageFace("usagi_fc1",2,0,2,2)
  ShowMessage("\\n<Barnny>To look away from the person you are with... how rude.")
  EndEventProcessing()
  0()



EVENT   112
 PAGE   1
  ShowMessageFace("",0,0,2,1)
  ShowMessage("\\n<Mermaid>Then how about taking it off? fufufu...")
  355("actor_label_jump")
  EndEventProcessing()
  DefineLabel("116")
  ShowMessageFace("iso_fc1",0,0,2,2)
  ShowMessage("\\n<Isabelle>It makes it easier to eat them that way.")
  EndEventProcessing()
  0()



EVENT   110
 PAGE   1
  ShowMessageFace("",0,0,2,1)
  ShowMessage("\\n<Gruff Man>This pub is my refuge from the outside. But it's bad when I get my clothes get wet.")
  355("actor_label_jump")
  EndEventProcessing()
  DefineLabel("99")
  ShowMessageFace("namazu_fc1",0,0,2,2)
  ShowMessage("\\n<Gigi>There are many mermaids who are inexperienced at moving on land here. Should I teach them how to?")
  EndEventProcessing()
  DefineLabel("118")
  ShowMessageFace("meia_fc1",0,0,2,3)
  ShowMessage("\\n<Meia>It looks like there are many mermaids here inexperienced at moving on land here compared to Port Natalia.")
  EndEventProcessing()
  0()



EVENT   113
 PAGE   1
  ShowMessageFace("",0,0,2,1)
  ShowMessage("\\n<Mermaid>Welcome!! This is the second Mermaid Pub♪.")
  355("actor_label_jump")
  EndEventProcessing()
  DefineLabel("118")
  ShowMessageFace("meia_fc1",0,0,2,2)
  ShowMessage("\\n<Meia>Oh my, so Sabasa has a Mermaid Pub too. I didn't think they would be so popular.")
  EndEventProcessing()
  DefineLabel("103")
  ShowMessageFace("kamuro_fc1",2,0,2,3)
  ShowMessage("\\n<Kamuro>I-I think this kind of place... i-is not good.")
  EndEventProcessing()
  DefineLabel("116")
  ShowMessageFace("iso_fc1",0,0,2,4)
  ShowMessage("\\n<Isabelle>I am feeling a little hungry, maybe I should eat a mermaid... ...I'm only joking, geez.")
  EndEventProcessing()
  0()



EVENT   114
 PAGE   1
  ShowMessageFace("",0,0,2,1)
  ShowMessage("\\n<Man>Y'know, the best thing to do here is to drink only a little in the bar, then rush to the second floor's Mermaid Pub. That's what most of us do, at least.")
  355("actor_label_jump")
  EndEventProcessing()
  DefineLabel("66")
  ShowMessageFace("vgirl_fc1",0,0,2,2)
  ShowMessage("\\n<Vanilla>Well, in that case, in order to counter the mermaid Pub I should build a vampire pub... but I guess that would just be a rip-off.")
  EndEventProcessing()
  DefineLabel("81")
  ShowMessageFace("mitubati_fc1",0,0,2,3)
  ShowMessage("\\n<Honeypot>Mermaids are really popular with humans, aren't they? In the end, I'm just a disgusting insect-type. I can't even be compared to them.")
  EndEventProcessing()
  0()



EVENT   115
 PAGE   1
  ShowMessageFace("",0,0,2,1)
  ShowMessage("\\n<Mermaid>These are really harsh times. But in here, you'll be able to forget about all of that.")
  355("actor_label_jump")
  EndEventProcessing()
  DefineLabel("121")
  ShowMessageFace("page65537_fc1",0,0,2,2)
  ShowMessage("\\n<Cornelia>We don't have time for such things.")
  EndEventProcessing()
  DefineLabel("129")
  ShowMessageFace("brunhild_fc1",0,0,2,3)
  ShowMessage("\\n<Hild>Hild can't forget... because if Hild does, the world will be destroyed.")
  EndEventProcessing()
  0()



EVENT   116
 PAGE   1
  ShowMessageFace("",0,0,2,1)
  ShowMessage("\\n<Knight>Sabasa knights should not be tempted while on guard duty! But mermaid's boobs are...! Also their butts!")
  355("actor_label_jump")
  EndEventProcessing()
  DefineLabel("95")
  ShowMessageFace("delh_a_fc1",0,0,2,2)
  ShowMessage("\\n<Lona>It looks like he still lacks training.")
  EndEventProcessing()
  DefineLabel("96")
  ShowMessageFace("delh_b_fc1",0,0,2,3)
  ShowMessage("\\n<Marion>It's fine, just don't resist it and give in.")
  EndEventProcessing()
  0()



EVENT   117
 PAGE   1
  ShowMessageFace("",0,0,2,1)
  ShowMessage("\\n<Mermaid>This kind of thing is against the pub's rules♪, but if I drink lots I might lose about the rules...")
  355("actor_label_jump")
  EndEventProcessing()
  DefineLabel("74")
  ShowMessageFace("usagi_fc1",2,0,2,2)
  ShowMessage("\\n<Barnny>Oh my, I'm not too impressed by that kind of thing...")
  EndEventProcessing()
  DefineLabel("78")
  ShowMessageFace("syesta_fc1",0,0,2,3)
  ShowMessage("\\n<Shesta>You forget if you drink lots? Then what if I drank lots as well...?")
  EndEventProcessing()
  0()



EVENT   118
 PAGE   1
  ShowMessageFace("",0,0,2,1)
  ShowMessage("\\n<Middle-Aged Man>Miho-chan, how about tonight?")
  0()



EVENT   119
 PAGE   1
  ShowMessageFace("okami_fc1",0,0,2,1)
  ShowMessage("\\n<Wolf Girl>Rawrr! There isn't much equipment us beast-type monsters can equip so we have compensate for that with accessories!")
  355("actor_label_jump")
  EndEventProcessing()
  DefineLabel("124")
  ShowMessageFace("arikui_fc1",0,0,2,2)
  ShowMessage("\\n<Kyona>Cause we get injured often, don't we...")
  EndEventProcessing()
  DefineLabel("125")
  ShowMessageFace("grizzly_fc1",0,0,2,3)
  ShowMessage("\\n<Aisha>BEAAAR it! We sure have it hard!")
  EndEventProcessing()
  0()



EVENT   120
 PAGE   1
  ShowMessageFace("",0,0,2,1)
  ShowMessage("\\n<Traveling Warrior>A Dragon Knight... truly something a warrior yearns to become. But since I'm still just an ordinary Warrior, I'm not able to use Knight Swords yet.")
  0()



EVENT   121
 PAGE   1
  ShowMessageFace("",0,0,2,1)
  ShowMessage("\\n<Female Hunter>Avis are large bird-beast type monsters. They use their claws and fangs as weapons, but they are also part of an apparition of birds who spit fire.")
  ShowMessageFace("",0,0,2,2)
  ShowMessage("\\n<Female Hunter>That's why Avis Killer seems like it would only have effect on the apparition birds but it's in fact just as strong against all bird type monsters and not just the Avis.")
  355("actor_label_jump")
  EndEventProcessing()
  DefineLabel("83")
  ShowMessageFace("hapy_a_fc1",0,0,2,3)
  ShowMessage("\\n<Reina>But don't Avis live in places far from human territories? Now that I think about it, I don't think I've ever seen one before...")
  EndEventProcessing()
  0()



EVENT   122
 PAGE   1
  ShowMessageFace("",0,0,2,1)
  ShowMessage("\\n<Mage>The Black Robe item has the unique effect of making Black Magic more powerful. It's on the list of equipment a Black Magic user should have.")
  0()



EVENT   123
 PAGE   1
  If(1,1028,0,7,2)
   ShowMessageFace("",0,0,2,1)
   ShowMessage("\\n<Traveling Warrior>I thought I would be able to rest in Sabasa for a while. But the atmosphere is worse than I had expected.")
   ShowMessageFace("",0,0,2,2)
   ShowMessage("\\n<Traveling Warrior>While I had originally intended to stay here until I was prepared to move on, this is actually doing more harm for me than good.")
   0()
  EndIf()
  If(1,1028,0,8,0)
   ShowMessageFace("",0,0,2,3)
   ShowMessage("\\n<Traveling Warrior>Ever since the Queen regained her sanity, the atmosphere around the city has clearly improved. I think this is the first time I've seen the real Sabasa.")
   0()
  EndIf()
  0()



EVENT   124
 PAGE   1
  ShowMessageFace("",0,0,2,1)
  ShowMessage("\\n<Receptionist>Welcome! Would you like to stay? It'll cost you 10G.\\$")
  ShowChoices(strings("Yes","No"),2)
  IfPlayerPicksChoice(0,null)
   If(7,10,0)
    125(1,0,10)
    221()
    249(bytes(0x04,0x08,0x6f,0x3a,0x0c,0x52,0x50,0x47,0x3a,0x3a,0x4d,0x45,0x08,0x3a,0x0a,0x40,0x6e,0x61,0x6d,0x65,0x49,0x22,0x08,0x49,0x6e,0x6e,0x06,0x3a,0x06,0x45,0x54,0x3a,0x0b,0x40,0x70,0x69,0x74,0x63,0x68,0x69,0x69,0x3a,0x0c,0x40,0x76,0x6f,0x6c,0x75,0x6d,0x65,0x69,0x69))
    Wait(150)
    314(0,0)
    222()
    0()
   Else()
    ShowMessageFace("",0,0,2,2)
    ShowMessage("\\n<Receptionist>It seems that you don't have enough gold...")
    0()
   EndIf()
   0()
  IfPlayerPicksChoice(1,null)
   0()
  404()
  0()



EVENT   126
 PAGE   1
  ShowMessageFace("",0,0,2,1)
  ShowMessage("\\n<Adventurer>I plan a long-term stay in Sabasa to look for the Pyramid's hidden treasures. But the monsters there are really strong...")
  355("actor_label_jump")
  EndEventProcessing()
  DefineLabel("150")
  ShowMessageFace("mummy_fc1",0,0,2,2)
  ShowMessage("\\n<Patra>You look familiar... If I'm not wrong, you're the man who ran away at full speed upon seeing me, hmm?")
  ShowMessageFace("",0,0,2,3)
  ShowMessage("\\n<Adventurer>Hyaa! She chased me all this way?!")
  EndEventProcessing()
  DefineLabel("151")
  ShowMessageFace("kobura_fc1",1,0,2,4)
  ShowMessage("\\n<Lila>If I meet you in the Pyramid, I'll squeeze around you plenty.")
  EndEventProcessing()
  0()



EVENT   125
 PAGE   1
  0()



EVENT   127
 PAGE   1
  ShowMessageFace("",0,0,2,1)
  ShowMessage("\\n<Receptionist>Welcome! Would you like to stay? It'll cost 10G.\\$")
  ShowChoices(strings("Yes","No"),2)
  IfPlayerPicksChoice(0,null)
   If(7,10,0)
    125(1,0,10)
    221()
    249(bytes(0x04,0x08,0x6f,0x3a,0x0c,0x52,0x50,0x47,0x3a,0x3a,0x4d,0x45,0x08,0x3a,0x0a,0x40,0x6e,0x61,0x6d,0x65,0x49,0x22,0x08,0x49,0x6e,0x6e,0x06,0x3a,0x06,0x45,0x54,0x3a,0x0b,0x40,0x70,0x69,0x74,0x63,0x68,0x69,0x69,0x3a,0x0c,0x40,0x76,0x6f,0x6c,0x75,0x6d,0x65,0x69,0x69))
    Wait(150)
    314(0,0)
    222()
    0()
   Else()
    ShowMessageFace("",0,0,2,2)
    ShowMessage("\\n<Receptionist>It seems that you don't have enough gold...")
    0()
   EndIf()
   0()
  IfPlayerPicksChoice(1,null)
   0()
  404()
  0()



EVENT   128
 PAGE   1
  ShowMessageFace("",0,0,2,1)
  ShowMessage("\\n<Rural Youth>What a large inn. It's completely different from my home village's one.")
  355("actor_label_jump")
  EndEventProcessing()
  DefineLabel("90")
  ShowMessageFace("meda_fc1",0,0,2,2)
  ShowMessage("\\n<Meru Meru>I hate big places... *rustle* *rustle*, *squirm* *squirm*...")
  EndEventProcessing()
  DefineLabel("113")
  ShowMessageFace("lamia_fc1",0,0,2,3)
  ShowMessage("\\n<Anastasia>It's not just the inn, all of the buildings here are huge. I guess it's because there's a lot of land available? We are in a desert, after all.")
  EndEventProcessing()
  0()



EVENT   130
 PAGE   1
  ShowMessageFace("",0,0,2,1)
  ShowMessage("\\n<Bat>*flap* *flap*...")
  0()



EVENT   131
 PAGE   1
  ShowMessageFace("",0,0,2,1)
  ShowMessage("\\n<Bat>*flap* *flap*...")
  0()



EVENT   132
 PAGE   1
  ShowMessageFace("",0,0,2,1)
  ShowMessage("\\n<Bat>*flap* *flap*.")
  0()



EVENT   133
 PAGE   1
  ShowMessageFace("",0,0,2,1)
  ShowMessage("\\n<Bat>......")
  ShowMessageFace("",0,0,2,2)
  ShowMessage("Calm music is playing in the background...")
  0()



EVENT   38
 PAGE   1
  ShowMessageFace("",0,0,2,1)
  ShowMessage("\\n<Soldier>There are many abilities that trigger their special effect when on the verge of death. When you have low HP, the Critical hit Rate or the Evasion Rate goes up, for example.")
  ShowMessageFace("",0,0,2,2)
  ShowMessage("\\n<Soldier>I personally equip every of those abilities I have available... and then fight while on verge of death on purpose.")
  ShowMessageFace("",0,0,2,3)
  ShowMessage("\\n<Soldier>That is the strategy I risk my life with! The only drawback is that I die if I make one mistake. So it's risky.")
  355("actor_label_jump")
  EndEventProcessing()
  DefineLabel("82")
  ShowMessageFace("suzume_fc1",3,0,2,4)
  ShowMessage("\\n<Chirp>That's sounds like a scary strategy. Without high Evasion Rate, you'd die right away.")
  EndEventProcessing()
  DefineLabel("99")
  ShowMessageFace("namazu_fc1",0,0,2,5)
  ShowMessage("\\n<Gigi>That fighting style sounds more like gambling.")
  EndEventProcessing()
  0()



EVENT   134
 PAGE   1
  ShowMessageFace("alraune_fc1",0,0,2,1)
  ShowMessage("\\n<Alraune>Most of the healing skills such as Cure can't heal special statuses such as Zombie or Minimum.")
  ShowMessageFace("alraune_fc1",0,0,2,2)
  ShowMessage("\\n<Alraune>But the Healing Honey skill that the plant-type monsters use, can heal aaany status♪.")
  355("actor_label_jump")
  EndEventProcessing()
  DefineLabel("59")
  ShowMessageFace("mdg_fc1",0,0,2,3)
  ShowMessage("\\n<Ragora>It's true, so it's fine to rely on me for healing statuses too. I'm good for more than just sleeping in the ground and shouting...")
  EndEventProcessing()
  DefineLabel("111")
  ShowMessageFace("suika_fc1",1,0,2,4)
  ShowMessage("\\n<Melon>I can heal you with my watermelon♪.")
  EndEventProcessing()
  DefineLabel("112")
  ShowMessageFace("utubo_fc1",2,0,2,5)
  ShowMessage("\\n<Kazura>I'm not very good with healing... could you rely on me for something else?")
  EndEventProcessing()
  0()



EVENT   135
 PAGE   1
  250(bytes(0x04,0x08,0x6f,0x3a,0x0c,0x52,0x50,0x47,0x3a,0x3a,0x53,0x45,0x08,0x3a,0x0a,0x40,0x6e,0x61,0x6d,0x65,0x49,0x22,0x0a,0x49,0x74,0x65,0x6d,0x31,0x06,0x3a,0x06,0x45,0x54,0x3a,0x0b,0x40,0x70,0x69,0x74,0x63,0x68,0x69,0x69,0x3a,0x0c,0x40,0x76,0x6f,0x6c,0x75,0x6d,0x65,0x69,0x55))
  ChangeSelfSwitch("A",0)
  ChangeInventory_Item(427,0,0,1)
  0()
 PAGE   2
  // condition: self-switch A is ON
  0()



EVENT   136
 PAGE   1
  250(bytes(0x04,0x08,0x6f,0x3a,0x0c,0x52,0x50,0x47,0x3a,0x3a,0x53,0x45,0x08,0x3a,0x0a,0x40,0x6e,0x61,0x6d,0x65,0x49,0x22,0x0a,0x49,0x74,0x65,0x6d,0x31,0x06,0x3a,0x06,0x45,0x54,0x3a,0x0b,0x40,0x70,0x69,0x74,0x63,0x68,0x69,0x69,0x3a,0x0c,0x40,0x76,0x6f,0x6c,0x75,0x6d,0x65,0x69,0x55))
  ChangeSelfSwitch("A",0)
  ChangeInventory_Item(30,0,0,1)
  0()
 PAGE   2
  // condition: self-switch A is ON
  0()



EVENT   137
 PAGE   1
  250(bytes(0x04,0x08,0x6f,0x3a,0x0c,0x52,0x50,0x47,0x3a,0x3a,0x53,0x45,0x08,0x3a,0x0a,0x40,0x6e,0x61,0x6d,0x65,0x49,0x22,0x0a,0x49,0x74,0x65,0x6d,0x31,0x06,0x3a,0x06,0x45,0x54,0x3a,0x0b,0x40,0x70,0x69,0x74,0x63,0x68,0x69,0x69,0x3a,0x0c,0x40,0x76,0x6f,0x6c,0x75,0x6d,0x65,0x69,0x55))
  ChangeSelfSwitch("A",0)
  ChangeInventory_Item(315,0,0,1)
  0()
 PAGE   2
  // condition: self-switch A is ON
  0()



EVENT   138
 PAGE   1
  250(bytes(0x04,0x08,0x6f,0x3a,0x0c,0x52,0x50,0x47,0x3a,0x3a,0x53,0x45,0x08,0x3a,0x0a,0x40,0x6e,0x61,0x6d,0x65,0x49,0x22,0x0a,0x49,0x74,0x65,0x6d,0x31,0x06,0x3a,0x06,0x45,0x54,0x3a,0x0b,0x40,0x70,0x69,0x74,0x63,0x68,0x69,0x69,0x3a,0x0c,0x40,0x76,0x6f,0x6c,0x75,0x6d,0x65,0x69,0x55))
  ChangeSelfSwitch("A",0)
  ChangeInventory_Item(444,0,0,1)
  0()
 PAGE   2
  // condition: self-switch A is ON
  0()



EVENT   139
 PAGE   1
  250(bytes(0x04,0x08,0x6f,0x3a,0x0c,0x52,0x50,0x47,0x3a,0x3a,0x53,0x45,0x08,0x3a,0x0a,0x40,0x6e,0x61,0x6d,0x65,0x49,0x22,0x0a,0x49,0x74,0x65,0x6d,0x31,0x06,0x3a,0x06,0x45,0x54,0x3a,0x0b,0x40,0x70,0x69,0x74,0x63,0x68,0x69,0x69,0x3a,0x0c,0x40,0x76,0x6f,0x6c,0x75,0x6d,0x65,0x69,0x55))
  ChangeSelfSwitch("A",0)
  ChangeInventoryArmor(164,0,0,1,false)
  0()
 PAGE   2
  // condition: self-switch A is ON
  0()



EVENT   140
 PAGE   1
  250(bytes(0x04,0x08,0x6f,0x3a,0x0c,0x52,0x50,0x47,0x3a,0x3a,0x53,0x45,0x08,0x3a,0x0a,0x40,0x6e,0x61,0x6d,0x65,0x49,0x22,0x0a,0x49,0x74,0x65,0x6d,0x31,0x06,0x3a,0x06,0x45,0x54,0x3a,0x0b,0x40,0x70,0x69,0x74,0x63,0x68,0x69,0x69,0x3a,0x0c,0x40,0x76,0x6f,0x6c,0x75,0x6d,0x65,0x69,0x55))
  ChangeSelfSwitch("A",0)
  ChangeInventory_Item(176,0,0,1)
  0()
 PAGE   2
  // condition: self-switch A is ON
  0()



EVENT   141
 PAGE   1
  250(bytes(0x04,0x08,0x6f,0x3a,0x0c,0x52,0x50,0x47,0x3a,0x3a,0x53,0x45,0x08,0x3a,0x0a,0x40,0x6e,0x61,0x6d,0x65,0x49,0x22,0x0a,0x49,0x74,0x65,0x6d,0x31,0x06,0x3a,0x06,0x45,0x54,0x3a,0x0b,0x40,0x70,0x69,0x74,0x63,0x68,0x69,0x69,0x3a,0x0c,0x40,0x76,0x6f,0x6c,0x75,0x6d,0x65,0x69,0x55))
  ChangeSelfSwitch("A",0)
  ChangeInventory_Item(192,0,0,1)
  0()
 PAGE   2
  // condition: self-switch A is ON
  0()



EVENT   142
 PAGE   1
  250(bytes(0x04,0x08,0x6f,0x3a,0x0c,0x52,0x50,0x47,0x3a,0x3a,0x53,0x45,0x08,0x3a,0x0a,0x40,0x6e,0x61,0x6d,0x65,0x49,0x22,0x0a,0x49,0x74,0x65,0x6d,0x31,0x06,0x3a,0x06,0x45,0x54,0x3a,0x0b,0x40,0x70,0x69,0x74,0x63,0x68,0x69,0x69,0x3a,0x0c,0x40,0x76,0x6f,0x6c,0x75,0x6d,0x65,0x69,0x55))
  ChangeSelfSwitch("A",0)
  ChangeInventory_Item(414,0,0,1)
  0()
 PAGE   2
  // condition: self-switch A is ON
  0()



EVENT   143
 PAGE   1
  250(bytes(0x04,0x08,0x6f,0x3a,0x0c,0x52,0x50,0x47,0x3a,0x3a,0x53,0x45,0x08,0x3a,0x0a,0x40,0x6e,0x61,0x6d,0x65,0x49,0x22,0x0a,0x49,0x74,0x65,0x6d,0x31,0x06,0x3a,0x06,0x45,0x54,0x3a,0x0b,0x40,0x70,0x69,0x74,0x63,0x68,0x69,0x69,0x3a,0x0c,0x40,0x76,0x6f,0x6c,0x75,0x6d,0x65,0x69,0x55))
  ChangeSelfSwitch("A",0)
  ChangeInventory_Item(427,0,0,1)
  0()
 PAGE   2
  // condition: self-switch A is ON
  0()



EVENT   144
 PAGE   1
  // condition: switch 31 is ON
  0()



EVENT   111
 PAGE   1
  ShowMessageFace("",0,0,2,1)
  ShowMessage("\\n<Youth>Haa, haaa... I want to live here forever...")
  355("actor_label_jump")
  EndEventProcessing()
  DefineLabel("72")
  ShowMessageFace("phoenix_fc1",3,0,2,2)
  ShowMessage("\\n<Mini>Really? You're a strange one...")
  EndEventProcessing()
  0()



EVENT   129
 PAGE   1
  If(1,1030,0,1,2)
   ShowMessageFace("vampire_fc1",0,0,2,1)
   ShowMessage("\\n<Vampire>For the Grand Theater to be taken over by a lowly succubus... Hey adventurer, send her back to hell.")
   ShowMessageFace("vampire_fc1",0,0,2,2)
   ShowMessage("\\n<Vampire>I would do it myself, but the light saps my strength away.")
   0()
  EndIf()
  If(1,1030,0,2,1)
   If(2,"A",1)
    ChangeSelfSwitch("A",0)
    ShowMessageFace("vampire_fc1",0,0,2,3)
    ShowMessage("\\n<Vampire>So you pried the Grand Theater from that succubus's hands. Here, take this. For your trouble.")
    250(bytes(0x04,0x08,0x6f,0x3a,0x0c,0x52,0x50,0x47,0x3a,0x3a,0x53,0x45,0x08,0x3a,0x0a,0x40,0x6e,0x61,0x6d,0x65,0x49,0x22,0x0a,0x49,0x74,0x65,0x6d,0x31,0x06,0x3a,0x06,0x45,0x54,0x3a,0x0b,0x40,0x70,0x69,0x74,0x63,0x68,0x69,0x69,0x3a,0x0c,0x40,0x76,0x6f,0x6c,0x75,0x6d,0x65,0x69,0x55))
    ChangeInventory_Item(32,0,0,1)
    0()
   EndIf()
   ShowMessageFace("vampire_fc1",0,0,2,4)
   ShowMessage("\\n<Vampire>Well then, let's go to the Grand Theater. I've slept enough out here for the last few days.")
   0()
  EndIf()
  0()



EVENT   80
 PAGE   1
  ShowMessageFace("",0,0,2,1)
  ShowMessage("\\n<Traveling Entertainer>The Grandeur Theater's stage isn't available any more and it's been canceled. Well, I don't mind. I get paid anyway.")
  ShowMessageFace("",0,0,2,2)
  ShowMessage("\\n<Traveling Entertainer>But I hear that the stage was hijacked by a succubus... besides that, I hear she's become really popular.")
  0()



EVENT   84
 PAGE   1
  If(1,1028,0,7,2)
   ShowMessageFace("",0,0,2,1)
   ShowMessage("\\n<Rich-Looking Man>Still, this country turned really turned for the worse. If things continue like this I'll have to consider leaving Sabasa entirely to live somewhere else.")
   ShowMessageFace("",0,0,2,2)
   ShowMessage("\\n<Rich-Looking Man>Saloon, or maybe San Ilia would work. Although I should consider Iliasberg too, despite the distance from here.")
   ShowMessageFace("",0,0,2,3)
   ShowMessage("\\n<Rich-Looking Man>It feels wrong to abandon my homeland... but I need to think about my family as well.")
   0()
  EndIf()
  If(1,1028,0,8,0)
   ShowMessageFace("",0,0,2,4)
   ShowMessage("\\n<Rich-Looking Man>I no longer have to abandon the country now that the Queen is off the throne. At least, that's what I thought. But the youmas behind all this are still out there, right?")
   ShowMessageFace("",0,0,2,5)
   ShowMessage("\\n<Rich-Looking Man>If they're still around they might just target Sabasa again. Ahh, I don't feel safe at all!")
   0()
  EndIf()
  0()



EVENT   31
 PAGE   1
  // condition: switch 1074 is ON
  // condition: switch 1075 is ON
  If(2,"A",1)
   ChangeSelfSwitch("A",0)
   ChangeVariable(1037,1037,1,0,1)
   0()
  EndIf()
  ShowMessageFace("hituzi_fc1",3,0,2,1)
  ShowMessage("\\n<Mary>I could drink Sake all day... *gulp* *gulp*...")
  ShowMessageFace("",0,0,2,2)
  ShowMessage("That's our sheep.")
  ShowMessageFace("hituzi_fc1",3,0,2,3)
  ShowMessage("\\n<Mary>Ehehehe...")
  ShowMessageFace("hituzi_fc1",7,0,2,4)
  ShowMessage("\\n<Mary>*gulp* *gulp* *gulp*...")
  ShowMessageFace("hituzi_fc1",3,0,2,5)
  ShowMessage("\\n<Mary>Ehehehe...")
  250(bytes(0x04,0x08,0x6f,0x3a,0x0c,0x52,0x50,0x47,0x3a,0x3a,0x53,0x45,0x08,0x3a,0x0a,0x40,0x6e,0x61,0x6d,0x65,0x49,0x22,0x09,0x4d,0x6f,0x76,0x65,0x06,0x3a,0x06,0x45,0x54,0x3a,0x0b,0x40,0x70,0x69,0x74,0x63,0x68,0x69,0x69,0x3a,0x0c,0x40,0x76,0x6f,0x6c,0x75,0x6d,0x65,0x69,0x55))
  ChangeSwitch(31,31,0)
  If(6,-1,8)
   205(-1,bytes(0x04,0x08,0x6f,0x3a,0x13,0x52,0x50,0x47,0x3a,0x3a,0x4d,0x6f,0x76,0x65,0x52,0x6f,0x75,0x74,0x65,0x09,0x3a,0x0c,0x40,0x72,0x65,0x70,0x65,0x61,0x74,0x46,0x3a,0x0f,0x40,0x73,0x6b,0x69,0x70,0x70,0x61,0x62,0x6c,0x65,0x46,0x3a,0x0a,0x40,0x77,0x61,0x69,0x74,0x46,0x3a,0x0a,0x40,0x6c,0x69,0x73,0x74,0x5b,0x08,0x6f,0x3a,0x15,0x52,0x50,0x47,0x3a,0x3a,0x4d,0x6f,0x76,0x65,0x43,0x6f,0x6d,0x6d,0x61,0x6e,0x64,0x07,0x3a,0x0a,0x40,0x63,0x6f,0x64,0x65,0x69,0x08,0x3a,0x10,0x40,0x70,0x61,0x72,0x61,0x6d,0x65,0x74,0x65,0x72,0x73,0x5b,0x00,0x6f,0x3b,0x0a,0x07,0x3b,0x0b,0x69,0x16,0x3b,0x0c,0x5b,0x00,0x6f,0x3b,0x0a,0x07,0x3b,0x0b,0x69,0x00,0x3b,0x0c,0x5b,0x00))
   0()
  EndIf()
  217()
  205(144,bytes(0x04,0x08,0x6f,0x3a,0x13,0x52,0x50,0x47,0x3a,0x3a,0x4d,0x6f,0x76,0x65,0x52,0x6f,0x75,0x74,0x65,0x09,0x3a,0x0c,0x40,0x72,0x65,0x70,0x65,0x61,0x74,0x46,0x3a,0x0f,0x40,0x73,0x6b,0x69,0x70,0x70,0x61,0x62,0x6c,0x65,0x46,0x3a,0x0a,0x40,0x77,0x61,0x69,0x74,0x54,0x3a,0x0a,0x40,0x6c,0x69,0x73,0x74,0x5b,0x0b,0x6f,0x3a,0x15,0x52,0x50,0x47,0x3a,0x3a,0x4d,0x6f,0x76,0x65,0x43,0x6f,0x6d,0x6d,0x61,0x6e,0x64,0x07,0x3a,0x0a,0x40,0x63,0x6f,0x64,0x65,0x69,0x2a,0x3a,0x10,0x40,0x70,0x61,0x72,0x61,0x6d,0x65,0x74,0x65,0x72,0x73,0x5b,0x00,0x6f,0x3b,0x0a,0x07,0x3b,0x0b,0x69,0x09,0x3b,0x0c,0x5b,0x00,0x6f,0x3b,0x0a,0x07,0x3b,0x0b,0x69,0x09,0x3b,0x0c,0x5b,0x00,0x6f,0x3b,0x0a,0x07,0x3b,0x0b,0x69,0x09,0x3b,0x0c,0x5b,0x00,0x6f,0x3b,0x0a,0x07,0x3b,0x0b,0x69,0x09,0x3b,0x0c,0x5b,0x00,0x6f,0x3b,0x0a,0x07,0x3b,0x0b,0x69,0x00,0x3b,0x0c,0x5b,0x00))
  205(0,bytes(0x04,0x08,0x6f,0x3a,0x13,0x52,0x50,0x47,0x3a,0x3a,0x4d,0x6f,0x76,0x65,0x52,0x6f,0x75,0x74,0x65,0x09,0x3a,0x0c,0x40,0x72,0x65,0x70,0x65,0x61,0x74,0x46,0x3a,0x0f,0x40,0x73,0x6b,0x69,0x70,0x70,0x61,0x62,0x6c,0x65,0x46,0x3a,0x0a,0x40,0x77,0x61,0x69,0x74,0x54,0x3a,0x0a,0x40,0x6c,0x69,0x73,0x74,0x5b,0x08,0x6f,0x3a,0x15,0x52,0x50,0x47,0x3a,0x3a,0x4d,0x6f,0x76,0x65,0x43,0x6f,0x6d,0x6d,0x61,0x6e,0x64,0x07,0x3a,0x0a,0x40,0x63,0x6f,0x64,0x65,0x69,0x29,0x3a,0x10,0x40,0x70,0x61,0x72,0x61,0x6d,0x65,0x74,0x65,0x72,0x73,0x5b,0x00,0x6f,0x3b,0x0a,0x07,0x3b,0x0b,0x69,0x15,0x3b,0x0c,0x5b,0x00,0x6f,0x3b,0x0a,0x07,0x3b,0x0b,0x69,0x00,0x3b,0x0c,0x5b,0x00))
  RunCommonEvent(312)
  205(144,bytes(0x04,0x08,0x6f,0x3a,0x13,0x52,0x50,0x47,0x3a,0x3a,0x4d,0x6f,0x76,0x65,0x52,0x6f,0x75,0x74,0x65,0x09,0x3a,0x0c,0x40,0x72,0x65,0x70,0x65,0x61,0x74,0x46,0x3a,0x0f,0x40,0x73,0x6b,0x69,0x70,0x70,0x61,0x62,0x6c,0x65,0x46,0x3a,0x0a,0x40,0x77,0x61,0x69,0x74,0x46,0x3a,0x0a,0x40,0x6c,0x69,0x73,0x74,0x5b,0x0d,0x6f,0x3a,0x15,0x52,0x50,0x47,0x3a,0x3a,0x4d,0x6f,0x76,0x65,0x43,0x6f,0x6d,0x6d,0x61,0x6e,0x64,0x07,0x3a,0x0a,0x40,0x63,0x6f,0x64,0x65,0x69,0x06,0x3a,0x10,0x40,0x70,0x61,0x72,0x61,0x6d,0x65,0x74,0x65,0x72,0x73,0x5b,0x00,0x6f,0x3b,0x0a,0x07,0x3b,0x0b,0x69,0x06,0x3b,0x0c,0x5b,0x00,0x6f,0x3b,0x0a,0x07,0x3b,0x0b,0x69,0x06,0x3b,0x0c,0x5b,0x00,0x6f,0x3b,0x0a,0x07,0x3b,0x0b,0x69,0x06,0x3b,0x0c,0x5b,0x00,0x6f,0x3b,0x0a,0x07,0x3b,0x0b,0x69,0x06,0x3b,0x0c,0x5b,0x00,0x6f,0x3b,0x0a,0x07,0x3b,0x0b,0x69,0x31,0x3b,0x0c,0x5b,0x06,0x6f,0x3a,0x0c,0x52,0x50,0x47,0x3a,0x3a,0x53,0x45,0x08,0x3a,0x0a,0x40,0x6e,0x61,0x6d,0x65,0x49,0x22,0x09,0x4d,0x6f,0x76,0x65,0x06,0x3a,0x06,0x45,0x54,0x3a,0x0b,0x40,0x70,0x69,0x74,0x63,0x68,0x69,0x69,0x3a,0x0c,0x40,0x76,0x6f,0x6c,0x75,0x6d,0x65,0x69,0x55,0x6f,0x3b,0x0a,0x07,0x3b,0x0b,0x69,0x21,0x3b,0x0c,0x5b,0x06,0x69,0x24,0x6f,0x3b,0x0a,0x07,0x3b,0x0b,0x69,0x00,0x3b,0x0c,0x5b,0x00))
  205(0,bytes(0x04,0x08,0x6f,0x3a,0x13,0x52,0x50,0x47,0x3a,0x3a,0x4d,0x6f,0x76,0x65,0x52,0x6f,0x75,0x74,0x65,0x09,0x3a,0x0c,0x40,0x72,0x65,0x70,0x65,0x61,0x74,0x46,0x3a,0x0f,0x40,0x73,0x6b,0x69,0x70,0x70,0x61,0x62,0x6c,0x65,0x46,0x3a,0x0a,0x40,0x77,0x61,0x69,0x74,0x46,0x3a,0x0a,0x40,0x6c,0x69,0x73,0x74,0x5b,0x0e,0x6f,0x3a,0x15,0x52,0x50,0x47,0x3a,0x3a,0x4d,0x6f,0x76,0x65,0x43,0x6f,0x6d,0x6d,0x61,0x6e,0x64,0x07,0x3a,0x0a,0x40,0x63,0x6f,0x64,0x65,0x69,0x2a,0x3a,0x10,0x40,0x70,0x61,0x72,0x61,0x6d,0x65,0x74,0x65,0x72,0x73,0x5b,0x00,0x6f,0x3b,0x0a,0x07,0x3b,0x0b,0x69,0x06,0x3b,0x0c,0x5b,0x00,0x6f,0x3b,0x0a,0x07,0x3b,0x0b,0x69,0x06,0x3b,0x0c,0x5b,0x00,0x6f,0x3b,0x0a,0x07,0x3b,0x0b,0x69,0x06,0x3b,0x0c,0x5b,0x00,0x6f,0x3b,0x0a,0x07,0x3b,0x0b,0x69,0x06,0x3b,0x0c,0x5b,0x00,0x6f,0x3b,0x0a,0x07,0x3b,0x0b,0x69,0x06,0x3b,0x0c,0x5b,0x00,0x6f,0x3b,0x0a,0x07,0x3b,0x0b,0x69,0x06,0x3b,0x0c,0x5b,0x00,0x6f,0x3b,0x0a,0x07,0x3b,0x0b,0x69,0x2c,0x3b,0x0c,0x5b,0x00,0x6f,0x3b,0x0a,0x07,0x3b,0x0b,0x69,0x00,0x3b,0x0c,0x5b,0x00))
  RunCommonEvent(313)
  0()
 PAGE   2
  // condition: party contains actor #74
  0()
 PAGE   3
  // condition: party contains actor #75
  0()



EVENT   44
 PAGE   1
  // condition: variable 1028 >= 8
  If(1,817,0,2,1)
   If(0,1559,1)
    ShowMessageFace("mob_assasin1_fc1",1,0,2,1)
    ShowMessage("\\n<Salaan>I don't have enough strength to chase after the masterminds alone... May I accompany you in your adventure?")
    ShowChoices(strings("Let her join","Decline for now"),0)
    IfPlayerPicksChoice(0,null)
     ShowMessageFace("mob_assasin1_fc1",1,0,2,2)
     ShowMessage("\\n<Salaan>My blade shall be yours.")
     PictureClear(5)
     205(0,bytes(0x04,0x08,0x6f,0x3a,0x13,0x52,0x50,0x47,0x3a,0x3a,0x4d,0x6f,0x76,0x65,0x52,0x6f,0x75,0x74,0x65,0x09,0x3a,0x0c,0x40,0x72,0x65,0x70,0x65,0x61,0x74,0x46,0x3a,0x0f,0x40,0x73,0x6b,0x69,0x70,0x70,0x61,0x62,0x6c,0x65,0x46,0x3a,0x0a,0x40,0x77,0x61,0x69,0x74,0x54,0x3a,0x0a,0x40,0x6c,0x69,0x73,0x74,0x5b,0x09,0x6f,0x3a,0x15,0x52,0x50,0x47,0x3a,0x3a,0x4d,0x6f,0x76,0x65,0x43,0x6f,0x6d,0x6d,0x61,0x6e,0x64,0x07,0x3a,0x0a,0x40,0x63,0x6f,0x64,0x65,0x69,0x2a,0x3a,0x10,0x40,0x70,0x61,0x72,0x61,0x6d,0x65,0x74,0x65,0x72,0x73,0x5b,0x00,0x6f,0x3b,0x0a,0x07,0x3b,0x0b,0x69,0x0f,0x3b,0x0c,0x5b,0x00,0x6f,0x3b,0x0a,0x07,0x3b,0x0b,0x69,0x2c,0x3b,0x0c,0x5b,0x00,0x6f,0x3b,0x0a,0x07,0x3b,0x0b,0x69,0x00,0x3b,0x0c,0x5b,0x00))
     355("add_actor_ex(559)")
     249(bytes(0x04,0x08,0x6f,0x3a,0x0c,0x52,0x50,0x47,0x3a,0x3a,0x4d,0x45,0x08,0x3a,0x0a,0x40,0x6e,0x61,0x6d,0x65,0x49,0x22,0x0c,0x66,0x61,0x6e,0x66,0x61,0x6c,0x65,0x06,0x3a,0x06,0x45,0x54,0x3a,0x0b,0x40,0x70,0x69,0x74,0x63,0x68,0x69,0x69,0x3a,0x0c,0x40,0x76,0x6f,0x6c,0x75,0x6d,0x65,0x69,0x69))
     ShowMessageFace("",0,0,2,3)
     ShowMessage("Salaan has joined the party!")
     Wait(60)
     EndEventProcessing()
     0()
    IfPlayerPicksChoice(1,null)
     ShowMessageFace("mob_assasin1_fc1",1,0,2,4)
     ShowMessage("\\n<Saran>That's fine by me.")
     0()
    404()
    0()
   EndIf()
   0()
  EndIf()
  RunCommonEvent(7161)
  0()
 PAGE   2
  // condition: party contains actor #559
  0()



EVENT   101
 PAGE   1
  ShowMessageFace("",0,0,2,1)
  ShowMessage("\\n<Young Girl>Ilias, please make peace return to the world.")
  355("actor_label_jump")
  EndEventProcessing()
  DefineLabel("26")
  ShowMessageFace("iriasu_fc4",2,0,2,2)
  ShowMessage("\\n<Ilias>I have to make sure this prayer's wish is answered...")
  EndEventProcessing()
  0()
